@bands 8 2 0 1
0 30000000.0 449999999.0
1 450000000.0 599999999.0
2 600000000.0 799999999.0
3 800000000.0 1199999999.0
4 1200000000.0 1699999999.0
5 1700000000.0 2699999999.0
6 2700000000.0 3599999999.0
7 3600000000.0 6000000000.0
@b0 6 1 255.0
30100000.0 125.978
90000000.0 122.670
140000000.0 121.911
290000000.0 121.342
410000000.0 118.561
449900000.0 118.280
@b1 3 1 255.0
450100000.0 119.857
500500000.0 120.013
599900000.0 117.820
@b2 3 1 255.0
600100000.0 119.232
700500000.0 119.423
799900000.0 117.527
@b3 4 1 255.0
800100000.0 118.150
880100000.0 118.417
1100500000.0 116.182
1199900000.0 113.689
@b4 3 1 255.0
1200100000.0 116.357
1475500000.0 115.035
1699900000.0 112.375
@b5 5 1 255.0
1700100000.0 114.345
1860100000.0 114.972
2200500000.0 113.960
2500500000.0 111.921
2699900000.0 108.328
@b6 5 1 255.0
2700100000.0 112.136
3200500000.0 111.504
3300500000.0 111.045
3400500000.0 110.934
3599900000.0 110.351
@b7 5 1 255.0
3600100000.0 109.246
4380500000.0 112.833
5100500000.0 113.693
5800500000.0 111.298
5998000000.0 110.770
@gain 12 5 187.0 195.0 215.0 235.0 255.0
30000000.0 -34.116 -29.904 -19.895 -9.821 0.000
102500000.0 -33.671 -29.581 -19.586 -9.556 0.000
541500000.0 -33.865 -29.780 -19.780 -9.776 0.000
701500000.0 -33.841 -29.714 -19.770 -9.735 0.000
987500000.0 -33.849 -29.715 -19.737 -9.712 0.000
1400500000.0 -33.836 -29.789 -19.837 -9.851 0.000
2375500000.0 -33.558 -29.665 -19.871 -9.890 0.000
3200000000.0 -32.939 -29.330 -19.662 -9.728 0.000
4000000000.0 -32.584 -29.183 -19.647 -9.724 0.000
5000000000.0 -32.270 -29.182 -19.837 -9.952 0.000
5500500000.0 -32.147 -29.176 -19.953 -9.989 0.000
5998900000.0 -31.370 -28.630 -19.558 -9.696 0.000
