@bands 8 2 0 1
0 30000000.0 449999999.0
1 450000000.0 599999999.0
2 600000000.0 799999999.0
3 800000000.0 1199999999.0
4 1200000000.0 1699999999.0
5 1700000000.0 2699999999.0
6 2700000000.0 3599999999.0
7 3600000000.0 6000000000.0
@b0 6 1 255.0
30100000.0 114.616
40100000.0 114.415
130000000.0 112.828
270000000.0 112.591
410000000.0 109.790
449900000.0 109.520
@b1 4 1 255.0
450100000.0 111.139
490100000.0 111.027
550500000.0 111.227
599900000.0 109.409
@b2 3 1 255.0
600100000.0 110.888
700500000.0 111.192
799900000.0 109.444
@b3 4 1 255.0
800100000.0 110.419
880500000.0 110.967
1060500000.0 110.320
1199900000.0 107.974
@b4 4 1 255.0
1200100000.0 110.510
1480500000.0 110.411
1600500000.0 109.582
1699900000.0 108.451
@b5 5 1 255.0
1700100000.0 110.572
2020500000.0 111.875
2200500000.0 111.663
2400500000.0 110.989
2699900000.0 107.223
@b6 5 1 255.0
2700100000.0 110.514
3200500000.0 110.238
3300500000.0 109.705
3400500000.0 109.423
3599900000.0 108.298
@b7 6 1 255.0
3600100000.0 107.665
4000100000.0 110.171
4360500000.0 110.884
5000500000.0 110.227
5500500000.0 109.283
5998000000.0 106.459
@gain 12 12 187.0 195.0 200.0 205.0 210.0 215.0 220.0 225.0 230.0 245.0 250.0 255.0
30000000.0 -33.962 -29.830 -27.384 -24.859 -22.354 -19.833 -17.290 -14.802 -12.275 -4.810 -2.336 0.000
102500000.0 -33.655 -29.584 -27.131 -24.762 -22.259 -19.738 -17.163 -14.661 -12.075 -4.665 -2.254 0.000
541500000.0 -33.813 -29.698 -27.361 -24.868 -22.330 -19.812 -17.282 -14.744 -12.230 -4.784 -2.324 0.000
701500000.0 -33.772 -29.667 -27.307 -24.833 -22.304 -19.824 -17.266 -14.753 -12.218 -4.780 -2.313 0.000
987500000.0 -33.798 -29.763 -27.275 -24.906 -22.359 -19.844 -17.289 -14.808 -12.282 -4.840 -2.347 0.000
1400500000.0 -33.702 -29.716 -27.317 -24.885 -22.347 -19.831 -17.313 -14.834 -12.307 -4.884 -2.388 0.000
2375500000.0 -33.463 -29.606 -27.230 -24.805 -22.354 -19.880 -17.355 -14.869 -12.378 -4.924 -2.404 0.000
3200000000.0 -32.898 -29.257 -26.929 -24.542 -22.099 -19.664 -17.140 -14.658 -12.166 -4.785 -2.315 0.000
4000000000.0 -32.487 -29.092 -26.803 -24.463 -22.073 -19.638 -17.123 -14.676 -12.208 -4.807 -2.360 0.000
5000000000.0 -32.174 -29.105 -26.908 -24.601 -22.260 -19.816 -17.334 -14.895 -12.433 -5.009 -2.486 0.000
5500500000.0 -31.885 -28.855 -26.710 -24.449 -22.159 -19.737 -17.241 -14.795 -12.306 -4.928 -2.441 0.000
5998900000.0 -31.182 -28.554 -26.477 -24.214 -21.953 -19.536 -17.062 -14.644 -12.171 -4.819 -2.364 0.000
