@ref 30 1 76.0
99000000.0 130.032774317
132000000.0 130.410997114
699000000.0 132.442614155
709000000.0 132.321585975
800000000.0 132.525610161
1029000000.0 131.287579436
1389000000.0 130.793089747
1459000000.0 130.646329586
1789000000.0 128.212745032
1909000000.0 128.185798554
1979000000.0 128.162578512
2289000000.0 128.502737651
2599000000.0 127.219152644
2699000000.0 127.357539635
2739000000.0 127.262877321
2900000000.0 126.168042196
3000000000.0 125.225978346
3001000000.0 139.830574851
3150000000.0 137.696547923
3392000000.0 135.857469648
3500000000.0 136.811086565
3789000000.0 138.084819979
4032000000.0 137.684489572
4200000000.0 137.716861916
4492000000.0 137.665522699
4700000000.0 136.372384424
4909000000.0 135.073750873
5419000000.0 134.539334835
5949000000.0 132.23851338
5999000000.0 131.99239862
@gain 19 21 0.0 5.0 20.0 30.0 31.0 32.0 33.0 34.0 35.0 36.0 37.0 38.0 39.0 40.0 45.0 50.0 55.0 60.0 65.0 70.0 76.0
99000000.0 -71.0938270323 -68.4066129253 -54.0128440278 -43.738764277 -42.5837574624 -41.5783041196 -40.5520839638 -37.1314618334 -35.996113825 -35.5823414494 -34.4193699761 -33.6953942329 -32.6470035007 -31.6748209826 -26.6681139405 -21.7643865475 -19.1545976062 -13.9679963095 -9.16794610373 -4.82107226159 -0.15482500938
179000000.0 -72.1697133773 -69.5210336103 -54.7469551455 -44.457169945 -43.3050451391 -42.296530999 -41.2379471495 -37.5954406072 -36.4570033559 -36.4924252761 -35.3294320492 -34.6100691076 -33.5688447982 -32.5743272991 -27.5793269232 -22.6737342612 -19.9153110397 -14.7299897548 -9.94192216202 -5.37196728497 0.00440320792211
769000000.0 -72.706094941 -70.1115816023 -55.5809774012 -45.3193755503 -44.1735303202 -43.1777375849 -42.1508703495 -42.4099383114 -41.2135189499 -39.8148713148 -38.6555549488 -37.9459655984 -36.9053103327 -35.9195673007 -30.9148519955 -26.04189624 -21.1164080201 -15.8793912971 -11.0305474675 -6.30774736648 -0.0875230812763
1029000000.0 -72.9898942846 -70.1795468268 -55.7040270661 -45.4661616145 -44.2838108735 -43.2743784122 -42.237183403 -42.604637889 -41.4540988694 -39.667611236 -38.5213284856 -37.8033114208 -36.7630629067 -35.7868267817 -30.7780458927 -25.8955828095 -21.1355630156 -16.0015602224 -11.1261630946 -6.36669142727 -0.101487463466
1049000000.0 -72.9844071434 -70.1573955348 -55.5124924031 -45.2119980919 -44.0755899286 -43.0833232695 -42.050462993 -42.5409711532 -41.3878159491 -39.5745491762 -38.4282513006 -37.7035869798 -36.6685119657 -35.6893200392 -30.6816582328 -25.7658008728 -20.9765152215 -15.8285665692 -11.0114948353 -6.21675742989 0.0259427023603
1889000000.0 -73.1460604927 -70.3604659981 -55.6823403824 -46.1528741949 -45.3263838888 -44.2779704227 -43.373411358 -42.2788212376 -41.6104908513 -40.8871953901 -39.4468219811 -38.3069851217 -37.589745632 -36.5544384322 -31.5926864287 -26.3697726566 -21.8360882227 -16.6963239202 -11.8740574708 -7.02368760832 -0.691071152558
2339000000.0 -73.7852203801 -71.0967731792 -56.5918143324 -47.1474264214 -46.3168029307 -45.2612011661 -44.249943097 -43.2195042296 -41.0134126692 -40.2918564633 -38.8569475862 -37.708164404 -36.9817953703 -35.9573775925 -31.010210538 -25.7686234245 -21.5846259167 -16.4031555715 -11.6041963902 -6.73009403996 -0.291807322612
2669000000.0 -73.7905876581 -70.9493185029 -56.9073436828 -47.3939037236 -46.7519093548 -45.7991232695 -44.7848225157 -43.440238031 -40.6965314215 -39.9648525834 -38.5911393262 -37.4290923984 -36.7050480176 -35.6675100085 -30.7358726991 -25.4995907212 -21.5240469789 -16.3688209075 -11.5179294054 -6.65894628542 -0.209086791674
2879000000.0 -74.3836561909 -71.6400619476 -57.3340283498 -47.8685037202 -47.0438108996 -45.990182552 -45.0141911452 -43.9836161166 -40.232049805 -39.5312423338 -38.2601750605 -37.0356773252 -36.2947219075 -35.2558311024 -30.2832820079 -25.0645551688 -21.3079706518 -16.1495414822 -11.338620751 -6.45507234932 0.0313553792409
3000000000.0 -74.5547047837 -71.6309096568 -57.1062958285 -47.6963327005 -46.8491962725 -45.7974091154 -44.8166723093 -43.7742810407 -39.9158386215 -39.1660608216 -37.9814500657 -36.8587445476 -36.1030920876 -35.0619165757 -30.127519285 -24.9103130274 -21.4601099948 -16.3152780261 -11.5052549099 -6.6399425454 -0.112993538638
3001000000.0 -73.0406224231 -69.9631154997 -55.4257315991 -46.0534039687 -45.353183601 -44.327273053 -43.3448280693 -42.3236835407 -41.1842018822 -40.4927624453 -38.9107930649 -37.7753888774 -36.8815748676 -35.9860707241 -31.072092831 -25.8321701012 -21.6569692737 -16.5131828498 -11.6153990634 -6.76125504977 -0.202449408782
3201000000.0 -72.0496147454 -69.4203414358 -54.8330556232 -46.0015780021 -44.6922855796 -43.7265074296 -42.7632868294 -41.7304483839 -40.8919555565 -40.282201953 -38.6937116205 -37.4668258701 -36.7437419586 -35.7014507947 -30.7516509879 -25.5211322138 -21.6001722648 -16.4309308514 -11.6421384285 -6.6361682627 -0.0434911509525
3499000000.0 -71.4971637506 -68.89081413 -54.5548593437 -45.0814229228 -44.4983286927 -43.5278538958 -42.5366667719 -41.5016325326 -40.7473849207 -40.0082301608 -38.6331568109 -37.3542418883 -36.7171835942 -35.6934029963 -30.7634736322 -25.5479194392 -21.7108336981 -16.6211385988 -11.7778680425 -6.85194176246 -0.284479644508
3969000000.0 -72.0251476778 -69.2285297064 -55.165385446 -45.6770296872 -45.1837647315 -44.2086769529 -43.2204661971 -42.1925600177 -40.0961059491 -39.4063736007 -38.1471784228 -37.0358304755 -36.3037637055 -35.2626269302 -30.3351072729 -25.1142077464 -21.6146541644 -16.4558596485 -11.643412786 -6.65118724827 0.0610395174352
4479000000.0 -72.6044990489 -71.7486662087 -56.7919284503 -46.4951543808 -45.8067990998 -44.7645327763 -43.7788798335 -42.7405332731 -41.7159936878 -40.5969954448 -40.9376675516 -39.9478220745 -39.0980388157 -37.9240690913 -32.9927516269 -28.0488128005 -21.6265608386 -16.4530907239 -11.6560777343 -6.69338117744 0.00100324411454
4989000000.0 -72.4361153707 -71.4818817713 -57.1160087963 -46.8312305584 -46.129058764 -45.1190540258 -44.1334924538 -43.093359727 -42.0474445836 -40.9185929273 -41.0833323254 -39.9209723569 -39.2218524493 -38.3909288937 -33.4481334211 -28.5372942828 -22.6414398152 -17.4809102368 -12.6408976523 -7.66014808708 -0.902362583513
5269000000.0 -72.2940852536 -71.5530845368 -56.8420675291 -46.4669086989 -45.7331720175 -44.706933548 -43.7603011968 -42.7171440939 -41.6757094306 -40.5456397489 -40.7520129719 -39.5869875138 -38.8663489354 -38.1686210106 -33.2063920766 -28.2696315524 -22.4795870246 -17.3247580811 -12.5162979068 -7.5665649927 -0.774200702308
5609000000.0 -70.8317759003 -69.8110005709 -55.4081024427 -45.1528714458 -44.4604191713 -43.4099932528 -42.4711532239 -41.4257305072 -40.4082286435 -39.2621237506 -38.806465435 -37.6231663196 -36.9197349821 -36.2486402046 -31.3196483578 -26.3844710711 -20.7439067792 -15.5684958071 -10.7840275114 -5.84133946378 0.952744823735
5999000000.0 -71.7609046233 -70.5009769261 -56.4716162902 -46.232559589 -45.5703793605 -44.5359542042 -43.5398422392 -42.5009442383 -41.4602602603 -40.3512694776 -39.7161514843 -38.5342007834 -37.8224267383 -37.3728538891 -32.4287412271 -27.4956308797 -22.0768020115 -16.935743677 -12.0806608373 -7.16853926276 -0.264987014587
