@ref 30 1 76.0
99000000.0 130.084540188
132000000.0 130.622369761
699000000.0 132.701046106
709000000.0 132.573986942
800000000.0 132.759155279
1029000000.0 131.619353436
1389000000.0 131.342476395
1459000000.0 130.907798893
1789000000.0 128.715510912
1909000000.0 128.704070292
1979000000.0 128.751939925
2289000000.0 129.113013814
2599000000.0 127.80208301
2699000000.0 127.819842116
2739000000.0 127.800143534
2900000000.0 126.901672183
3000000000.0 126.031452632
3001000000.0 139.656655038
3150000000.0 137.628281585
3392000000.0 135.938508857
3500000000.0 136.806043974
3789000000.0 138.136535058
4032000000.0 137.70711774
4200000000.0 137.866798284
4492000000.0 138.303615823
4700000000.0 137.087274898
4909000000.0 135.57364762
5419000000.0 134.742565549
5949000000.0 132.515000375
5999000000.0 132.232737139
@gain 19 21 0.0 5.0 20.0 30.0 31.0 32.0 33.0 34.0 35.0 36.0 37.0 38.0 39.0 40.0 45.0 50.0 55.0 60.0 65.0 70.0 76.0
99000000.0 -70.7171008035 -67.9110602579 -53.2961525057 -43.2100911368 -42.1114080609 -41.1305761496 -40.0933156874 -36.7749980513 -35.6121603138 -35.2598298879 -34.0755220347 -33.2377542097 -32.3130362919 -31.3637344707 -26.3439329194 -21.4316067127 -18.9605877885 -13.8499209809 -9.00182292996 -4.70284328076 -0.0279202464539
179000000.0 -72.0772863933 -69.2181468691 -54.1943529704 -44.0617082377 -42.9541355764 -41.9731682326 -40.933138136 -37.3648018414 -36.2038126296 -36.2784841457 -35.1253638216 -34.4055091318 -33.3646432852 -32.397415255 -27.4789081426 -22.4687660217 -19.8728828123 -14.677909452 -9.90456312353 -5.49930720157 -0.0178882699542
769000000.0 -72.4333126034 -69.724302623 -55.0109863024 -44.8507811691 -43.7949566603 -42.8255344449 -41.7942619594 -42.0647624981 -40.9217460004 -39.6072223064 -38.4610791916 -37.7218403868 -36.6306823576 -35.6644039332 -30.6525753813 -25.7358043471 -20.9218368642 -15.7542100319 -10.9758600772 -6.17844275218 -0.126297833259
1029000000.0 -72.6796762552 -69.7974075444 -55.1543266404 -44.9622933963 -43.8845774463 -42.9266344236 -41.8924607044 -42.2907265955 -41.1347864846 -39.4907140214 -38.3293496519 -37.6079778908 -36.5664250069 -35.545343415 -30.5419649473 -25.6205492744 -20.9863441368 -15.8358813353 -11.0599622652 -6.25203114037 -0.111298991722
1049000000.0 -72.9039211014 -69.8177529473 -54.9826377361 -44.8385738874 -43.7509112864 -42.7555458277 -41.7218643091 -42.2455108674 -41.0888705769 -39.3862632443 -38.2247475816 -37.4999723085 -36.4596501072 -35.468817018 -30.4733482706 -25.5478156618 -20.853321819 -15.7000248396 -10.9235313538 -6.15706606198 0.0233726153743
1889000000.0 -73.005356114 -70.104868028 -55.2690869627 -45.8857510776 -45.1178784794 -44.1318827334 -43.0918384865 -42.0574639438 -41.3451977587 -40.6254313898 -39.2880639467 -38.1222645462 -37.408015992 -36.3693576665 -31.4538359671 -26.1802093529 -21.6742803526 -16.5338452678 -11.7394665193 -6.94723335972 -0.69769136644
2339000000.0 -73.5939464226 -70.9803106734 -56.3354538931 -46.9014715574 -46.1433347735 -45.1072747886 -44.1311665042 -43.0991623867 -40.8918795326 -40.1903273609 -38.792895007 -37.6502998036 -36.9306891948 -35.8889248089 -30.959914151 -25.7204447846 -21.4810416978 -16.6593687336 -11.5991836837 -6.76403960503 -0.383772146316
2669000000.0 -73.4856643114 -70.8298955614 -56.2639494491 -46.9190256091 -46.3075070903 -45.3901268627 -44.1995397934 -43.1232957457 -40.4404800722 -39.7255054479 -38.4058223006 -37.2353834646 -36.5213821805 -35.4794516899 -30.5430942753 -25.320567546 -21.3395944548 -16.1795904669 -11.3766953849 -6.54011551419 -0.152173234291
2879000000.0 -74.2394373815 -71.4934126298 -56.9477304097 -47.6897630867 -46.923102442 -45.8568750457 -44.9028497996 -43.9484915913 -40.123806227 -39.3878987984 -38.1215998996 -36.9661610088 -36.246996625 -35.2123314639 -30.2783895204 -25.0379349929 -21.2482239074 -16.0940168966 -11.2971063848 -6.50199724915 -0.0525538323887
3000000000.0 -74.3583297751 -71.6323631929 -56.9880810641 -47.6235114087 -46.8712211659 -45.826143101 -44.8264492051 -43.8345315845 -39.9084970481 -39.1852590865 -38.0541103599 -36.8933492355 -36.1809804746 -35.1180789625 -30.193389908 -24.954357777 -21.4819946596 -16.5934812884 -11.5806094227 -6.70637672854 -0.233506882555
3001000000.0 -72.6978819897 -69.7892405233 -55.3639830174 -45.8809702336 -45.1207596633 -44.0904464713 -43.1419997338 -42.0778868639 -41.050295161 -40.3518252251 -38.849492628 -37.6721574679 -36.8543358831 -35.920356433 -30.9174972918 -25.7481816705 -21.619063605 -16.4496097855 -11.7012729419 -6.81647978249 -0.257737580016
3201000000.0 -71.7647316957 -69.3358930154 -54.6884536778 -45.2057839303 -44.4692718309 -43.4307709186 -42.4527868301 -41.4636314448 -40.6039971556 -39.8236712554 -38.2812401318 -37.3110833877 -36.6079262489 -35.6023124557 -30.6377847074 -25.4471193958 -21.4894371815 -16.3377957965 -11.5850988225 -6.66790919301 -0.0702073292742
3499000000.0 -71.2963459785 -68.886361048 -54.4763313438 -45.0195386209 -44.3043688116 -43.2547450693 -42.2902677363 -41.2540163582 -40.6191937372 -39.8784027706 -38.4705734242 -37.3043705131 -36.581396348 -35.5355503491 -30.5974617844 -25.3887876126 -21.5670341951 -16.4089843977 -11.6911608039 -6.80138261954 -0.24568562301
3969000000.0 -72.5777816739 -69.5138312023 -55.1134973423 -45.7015625377 -44.9628227557 -43.9017198801 -42.9315198042 -41.8913447501 -40.0031212111 -39.2645334825 -38.017823383 -36.8614088969 -36.1186795406 -35.0744390984 -30.0248109289 -24.8511664715 -21.4578871185 -16.2902579102 -11.369432478 -6.42399719482 0.0847229430278
4479000000.0 -73.3594626558 -71.9535073623 -56.9022561373 -46.405831376 -45.7001107158 -44.6473017464 -43.6691324175 -42.6509160218 -41.6231944544 -40.4782550659 -40.9680927975 -39.8205904846 -39.110786425 -37.9821730092 -33.0477427923 -28.1024433615 -21.6432168025 -16.5087861259 -11.7204575236 -6.78751728721 -0.134908868956
4989000000.0 -73.1524391632 -71.1071636716 -57.0218813948 -46.6479671754 -45.9273417481 -44.8643871562 -43.9030605847 -42.8518919124 -41.8306761305 -40.7060915484 -40.9784789948 -39.8071945076 -39.0871041167 -38.2795165109 -33.3467085775 -28.3918671225 -22.5025214232 -17.3645187684 -12.5474518011 -7.47977732801 -0.84015516652
5269000000.0 -72.0625676768 -71.2708510721 -56.7490663282 -46.3816406414 -45.6619850324 -44.612901622 -43.6356798062 -42.5765412353 -41.5551513 -40.439608266 -40.7835324215 -39.638067118 -38.9019058334 -38.1972882331 -33.271046034 -28.3130750002 -22.5039956322 -17.5162038605 -12.5847006546 -7.67114714028 -0.889560128708
5609000000.0 -70.4930465649 -69.5849507716 -55.2060548567 -44.9026855502 -44.1599782282 -43.127135868 -42.1481409344 -41.1067729107 -40.0699270744 -38.9224005145 -38.6448283831 -37.4922598076 -36.7718430124 -36.1220823703 -31.1858740353 -26.2146685239 -20.5166057601 -15.4102279315 -10.5927157767 -5.66797938048 1.10306480964
5999000000.0 -71.7522884663 -70.7608929336 -56.5593236393 -46.3362300335 -45.4727491222 -44.4096880363 -43.4314029767 -42.4230447796 -41.3918841368 -40.254002461 -39.6471400623 -38.4842568733 -37.7611673228 -37.4186580339 -32.3755884802 -27.452504259 -22.005708521 -16.9253685485 -12.0900392121 -7.09845686915 -0.327957770593
