@ref 30 1 76.0
99000000.0 129.927752714
132000000.0 130.544617491
699000000.0 132.618779002
709000000.0 132.468452294
800000000.0 132.613773041
1029000000.0 131.427013305
1389000000.0 131.029116664
1459000000.0 130.830491346
1789000000.0 128.501934313
1909000000.0 128.37178408
1979000000.0 128.379261428
2289000000.0 128.951059341
2599000000.0 127.546533729
2699000000.0 127.625966712
2739000000.0 127.465290974
2900000000.0 126.672058107
3000000000.0 125.766768676
3001000000.0 140.000775038
3150000000.0 137.823988951
3392000000.0 135.919863371
3500000000.0 136.859574465
3789000000.0 138.184056439
4032000000.0 137.796484592
4200000000.0 137.802307573
4492000000.0 138.160085492
4700000000.0 136.903652763
4909000000.0 135.318024015
5419000000.0 134.610677154
5949000000.0 132.26176871
5999000000.0 132.011559027
@gain 19 21 0.0 5.0 20.0 30.0 31.0 32.0 33.0 34.0 35.0 36.0 37.0 38.0 39.0 40.0 45.0 50.0 55.0 60.0 65.0 70.0 76.0
99000000.0 -70.5844611725 -68.2670747786 -53.5117322214 -43.2730949367 -42.2516040919 -41.2789639522 -40.2415814472 -37.0022941942 -35.8576634758 -35.4839828162 -34.3455666098 -33.6079806021 -32.5890225411 -31.6297990118 -26.5873172325 -21.659885082 -19.0986946994 -13.9132403031 -9.1123379431 -4.78983015183 -0.0721605851301
179000000.0 -72.0667952706 -69.2818646955 -54.4479516803 -44.0544624362 -43.1607970488 -42.2129885859 -41.1786337638 -37.6814973731 -36.5338045863 -36.5789493439 -35.4410849968 -34.7078507723 -33.6668859952 -32.6609026199 -27.6042113975 -22.7432539429 -20.0705552179 -14.8737925299 -10.0739059421 -5.4830825736 0.00876908274998
769000000.0 -73.0364569814 -70.071193381 -55.4253214418 -45.1052495672 -44.1207340049 -43.1508132807 -42.1122121566 -42.4388074301 -41.2955602702 -39.9538028307 -38.8069320131 -38.0804514038 -36.9865046332 -36.012046375 -31.0093492329 -26.0844245442 -21.1725762973 -15.9853549926 -11.1988365619 -6.34091778261 -0.118174087073
1029000000.0 -73.1489620067 -70.0424593052 -55.5156777776 -45.1674865557 -44.1603287625 -43.2066642132 -42.1755969944 -42.6494843353 -41.4997724034 -39.8106608248 -38.6649387442 -37.9312715274 -36.8938857434 -35.8603409101 -30.8669154676 -25.9368504255 -21.2282316599 -16.0767683966 -11.2860482087 -6.401825175 -0.128095562377
1049000000.0 -73.1943682297 -70.0604149588 -55.3492678878 -45.0383555645 -44.0274349008 -43.0367656686 -42.0030882915 -42.6064106116 -41.4638327739 -39.7091491446 -38.5689433949 -37.8335806896 -36.7925154614 -35.7953927482 -30.8061522734 -25.876008282 -21.1060792349 -15.9541419945 -11.1565849094 -6.3215400889 -0.0569555854603
1889000000.0 -73.2076282996 -70.21667633 -55.4807513385 -45.9455855997 -45.2518382774 -44.1847095032 -43.2140383067 -42.191439392 -41.6599694623 -40.9356930412 -39.5461391592 -38.3987423788 -37.6722374405 -36.6279749843 -31.6881405745 -26.4384680128 -21.9142210838 -16.7717252027 -11.9528207496 -7.10889394083 -0.895314362618
2339000000.0 -74.2728028926 -71.2572820992 -56.6904752844 -47.104959868 -46.4046789803 -45.3790642704 -44.3997468742 -43.3723935361 -41.1802066266 -40.4548979442 -38.9995493873 -37.8669590155 -37.140368523 -36.0965868718 -31.1661041958 -25.9317256664 -21.6421581038 -16.5169032654 -11.6859989141 -6.83010614229 -0.328082913903
2669000000.0 -74.0232743403 -71.0586169242 -56.5901840302 -47.0932199691 -46.3851045903 -45.3637003041 -44.3811618598 -43.3496351531 -40.7598838818 -40.0384643676 -38.6116431391 -37.528362258 -36.814143137 -35.7764216222 -30.8359894535 -25.6180666525 -21.6280848149 -16.4745779271 -11.6470356731 -6.74537186664 -0.212879135397
2879000000.0 -74.3258556853 -71.5431767151 -57.1439908655 -47.7387455285 -47.0394069066 -45.9871289524 -45.009021511 -43.9746891064 -40.333740843 -39.6309754649 -38.3221769473 -37.1860998985 -36.4592040083 -35.4238962604 -30.4896210885 -25.2356113116 -21.4035773162 -16.2959275561 -11.5552062003 -6.61541477589 -0.20594995928
3000000000.0 -74.4957151539 -71.6749278161 -57.1480916178 -47.6427316802 -46.9544115857 -45.9263840152 -44.9191713743 -43.915032346 -40.0580800057 -39.3335760743 -38.153217804 -37.0101053477 -36.1854939912 -35.1978435111 -30.279436525 -25.0343261273 -21.5262786594 -16.4382051774 -11.5895153832 -6.7290765905 -0.116897162259
3001000000.0 -72.5042765007 -69.7014111386 -55.2259182315 -45.956629739 -45.179131856 -44.1404332498 -43.1841787909 -42.122584738 -41.029506242 -40.304170364 -38.7837274897 -37.6243265237 -36.8953581401 -35.884882822 -30.9283102529 -25.6997933937 -21.5647885286 -16.4034467305 -11.6236013312 -6.78853202476 -0.34294264347
3201000000.0 -72.0763649747 -69.1552731109 -54.519101394 -45.1939266725 -44.4791502386 -43.441776266 -42.4558555378 -41.4672163168 -40.5382154278 -39.7982045458 -38.362674139 -37.2209584527 -36.481415144 -35.4647189506 -30.4951971067 -25.3110277721 -21.3890253686 -16.2469219505 -11.4529955102 -6.63361023802 -0.111870059636
3499000000.0 -71.5285956655 -68.6118843092 -54.2184473492 -44.9940174748 -44.3817563084 -43.2959649748 -42.45093206 -40.6686822953 -40.1729774714 -39.437689206 -38.0282163625 -37.1216767241 -36.4280972036 -35.3888267804 -30.4548748927 -25.2494844108 -21.41157781 -16.2998456364 -11.5643248833 -6.76278825596 -0.300465482343
3969000000.0 -71.7322903028 -68.6584043533 -55.1359450841 -45.7839729236 -45.1144140763 -44.1714149777 -42.3781554111 -41.5737263452 -39.7873300807 -39.065273808 -37.8039584112 -36.6666999577 -35.8966265656 -34.8025835725 -29.9266928619 -24.7326318348 -21.2663133835 -16.104502798 -11.314332755 -6.48125324093 0.0669695853354
4479000000.0 -72.5602783246 -71.5769531174 -56.710867696 -46.4703049266 -45.7342580299 -44.6728924511 -43.6892066858 -42.6655668194 -41.6414552428 -40.5042515729 -40.9258385418 -39.7826554324 -39.0548135578 -37.9111705977 -32.9785753344 -28.0370436612 -21.5746691386 -16.4683184603 -11.6569665522 -6.80708663008 -0.23491459782
4989000000.0 -72.4285235406 -71.2310756222 -56.7509887603 -46.5254523417 -45.7731373044 -44.7019879093 -43.7387381147 -42.6830554685 -41.6694342634 -40.5505908681 -40.734434472 -39.5603899408 -38.8277779519 -38.0136619195 -33.0827789208 -28.1260499788 -22.2696210248 -17.1645242143 -12.3218539916 -7.32795696424 -0.827103170242
5269000000.0 -72.1903671105 -70.998572454 -56.3798445935 -46.1970283847 -45.4470471086 -44.3833655768 -43.4081792028 -42.3530838451 -41.3351590313 -40.2257003153 -40.4992471173 -39.3481577942 -38.5952149113 -37.8920193384 -32.968990797 -28.0050359773 -22.2364076375 -17.1271310016 -12.2809343073 -7.48182988508 -0.77109159324
5609000000.0 -70.5274361499 -69.3340754965 -54.8130557732 -44.677027523 -43.9292205706 -42.8895307808 -41.8986969206 -40.8612678339 -39.8295653941 -38.6898956867 -38.378877363 -37.2209440458 -36.4930398076 -35.8391589643 -30.9017093712 -25.9343796132 -20.2764363254 -15.1869812358 -10.3550945527 -5.50941526102 1.18534128606
5999000000.0 -71.5549847891 -70.3383826873 -56.0022751577 -45.8730064767 -45.0734165461 -44.0208710659 -43.0372950075 -42.0275022033 -41.0190655386 -39.8676281443 -39.1058346995 -38.3080960873 -37.7789950781 -37.3051451381 -32.0599633891 -27.1371942308 -21.740875361 -16.6042865857 -11.8130878714 -6.90661957954 -0.2026201211
