@ref 30 1 76.0
99000000.0 129.733139752
132000000.0 130.291216437
699000000.0 132.463435037
709000000.0 132.292014851
800000000.0 132.556285198
1029000000.0 131.539731982
1389000000.0 131.00405688
1459000000.0 130.728694832
1789000000.0 128.478467949
1909000000.0 128.476030706
1979000000.0 128.534406653
2289000000.0 128.630791149
2599000000.0 127.177178076
2699000000.0 127.273641968
2739000000.0 127.20638841
2900000000.0 126.244742887
3000000000.0 125.25279502
3001000000.0 139.999035808
3150000000.0 137.736461902
3392000000.0 135.768663411
3500000000.0 136.647795901
3789000000.0 138.20740018
4032000000.0 137.850358794
4200000000.0 137.86944718
4492000000.0 137.7698657
4700000000.0 136.592545079
4909000000.0 134.95363654
5419000000.0 134.266700274
5949000000.0 131.939074712
5999000000.0 131.728117247
@gain 19 21 0.0 5.0 20.0 30.0 31.0 32.0 33.0 34.0 35.0 36.0 37.0 38.0 39.0 40.0 45.0 50.0 55.0 60.0 65.0 70.0 76.0
99000000.0 -70.13846143 -67.0556750991 -52.7883369269 -42.8683907319 -41.8803927368 -40.9019924708 -39.877924608 -36.7253443923 -35.5870463271 -35.2113619634 -34.057754125 -33.3345717159 -32.2646880473 -31.2292410694 -26.2863478613 -21.4010643682 -18.850500264 -13.6789360067 -8.8779374174 -4.5512307285 0.0200381785434
179000000.0 -71.2591939193 -68.6216163976 -53.8049294729 -43.7640645035 -42.7701612082 -41.7972601293 -40.7465854136 -37.3480859536 -36.1999503087 -36.2746316316 -35.1178312555 -34.3973631977 -33.3510748205 -32.362448237 -27.3557790563 -22.4627036437 -19.77115023 -14.5777691947 -9.78987106134 -5.22660250699 0.0473569805815
769000000.0 -71.9420567216 -69.2496820792 -54.8341141417 -44.6751084502 -43.6797147462 -42.7197341383 -41.6967087678 -42.236995693 -41.0668987505 -39.643095724 -38.4930411614 -37.7617628122 -36.7168005331 -35.7380644272 -30.7223649052 -25.8587882241 -20.8859153596 -15.7110944718 -10.8842717307 -6.2005669328 -0.0523369498227
1029000000.0 -72.4450604533 -69.472340733 -55.0982208016 -44.9066521945 -43.9135845124 -42.9480699543 -41.9119998563 -42.5204547702 -41.3716413097 -39.5527742083 -38.4013558174 -37.6890102019 -36.6475212954 -35.6740868744 -30.6568530314 -25.775380894 -21.0420365799 -15.8727546503 -11.0232814495 -6.29932038276 -0.118025987398
1049000000.0 -72.6787142903 -69.5292047457 -55.018797747 -44.7511788243 -43.7400938817 -42.7694884883 -41.7394614449 -42.4742642422 -41.3215984626 -39.4765978357 -38.3310547738 -37.6125722517 -36.5730016784 -35.5992243954 -30.6533975807 -25.6794831768 -20.9104546769 -15.7496222714 -10.939346976 -6.17491917749 -0.016080782664
1889000000.0 -72.6771729998 -69.7028618909 -55.1428073817 -45.6890341628 -45.0052551236 -43.9753995519 -43.00837179 -41.982847647 -41.4852554067 -40.7680677367 -39.2925670016 -38.1497410272 -37.4368100373 -36.3958862373 -31.4342629724 -26.1980956055 -21.6985281427 -16.5667882652 -11.747741047 -6.91930112977 -0.652397183381
2339000000.0 -73.1382865762 -70.4507927144 -56.069337962 -46.7111882278 -46.0287760054 -44.9901671163 -43.9844623383 -42.9682081371 -41.0743828238 -40.2561095824 -38.7884449687 -37.6282573197 -36.9068358375 -35.8747221631 -30.9417295325 -25.6972224737 -21.5397566766 -16.3695176698 -11.5681579347 -6.75001098474 -0.392755206349
2669000000.0 -72.9322223022 -70.1684556364 -55.8746744614 -46.5150215792 -45.8297718109 -44.7981589228 -43.8249240503 -42.7737237173 -40.4641578483 -39.7857633297 -38.4632006173 -37.2290058823 -36.4940791871 -35.4540073049 -30.5201712924 -25.280428243 -21.3719849198 -16.1713682098 -11.356374607 -6.52719419894 -0.174970161565
2879000000.0 -73.4139102895 -70.6238362242 -56.4111105996 -47.0369900327 -46.3865444097 -45.3407001769 -44.4160164126 -43.3408251802 -40.0376101985 -39.3189304902 -37.9696756546 -36.8142115608 -36.0904385664 -35.0508187732 -30.1063498353 -24.8819383389 -21.1554782952 -15.9946541999 -11.1813744838 -6.31202296734 0.0456299587827
3000000000.0 -73.452487559 -70.5952172633 -56.1896810254 -46.8458763391 -46.1372542687 -45.0882357487 -44.1307866896 -43.0890941274 -39.6287571985 -38.8938974979 -37.6719486638 -36.543265098 -35.8056014563 -34.7564919047 -29.8209792394 -24.5939264506 -21.1705964315 -16.0202968373 -11.2982879366 -6.34417374491 0.0153939928197
3001000000.0 -72.6634037533 -69.5985155212 -55.1780988019 -45.807578815 -45.0762538598 -44.0076950763 -42.9477065437 -41.9853720827 -41.0652634764 -40.3868506388 -38.8117842998 -37.689070916 -36.9518484844 -35.9051628866 -30.981460446 -25.7264348504 -21.5385132161 -16.3687086157 -11.6157461828 -6.79674795853 -0.372123448945
3201000000.0 -71.8908314302 -68.8518435946 -54.4140137074 -44.964085933 -44.2782846408 -43.2044268253 -42.2423682912 -41.2023854299 -40.4845239894 -39.7595647691 -38.3336712085 -37.1556720391 -36.4404511716 -35.3968316171 -30.451696463 -25.2290058665 -21.2600324444 -16.0881635954 -11.3146807485 -6.48242263288 -0.0337537791629
3499000000.0 -71.2834594648 -68.382757732 -54.0165610273 -44.9555097651 -44.2814071958 -42.4243840381 -41.6774989545 -40.6929192512 -40.3154839169 -39.608665381 -38.2346049696 -37.0645445502 -36.3445742062 -35.299097755 -30.3664040468 -25.1415474018 -21.2874825271 -16.1798652406 -11.4047691996 -6.60936181568 -0.142814809272
3969000000.0 -71.9309635492 -68.744696686 -54.7261018262 -45.3554213286 -44.6314275113 -43.6143359068 -42.6245396109 -41.5936200209 -39.8623091647 -39.1231272709 -37.8331919196 -36.7300332628 -36.1050586692 -34.9506294719 -30.2049900948 -24.8231147367 -21.2187839552 -16.080581316 -11.2635917069 -6.44655348269 0.142072417239
4479000000.0 -72.4397001821 -71.092152207 -56.3099702942 -46.0615213856 -45.3659988705 -44.3164555068 -43.3297863626 -42.2913230677 -41.2767146063 -40.1544435628 -40.7131141221 -39.5804710554 -38.8519537951 -37.6687484417 -32.7443662458 -27.7806171558 -21.2550874919 -16.1298601221 -11.3321352428 -6.52336717404 -0.000537429996911
4989000000.0 -72.0058180728 -70.9160689667 -56.5768902063 -46.2134320407 -45.4823134886 -44.4548597948 -43.471543568 -42.4359570324 -41.4008201151 -40.2766568488 -40.6585105839 -39.4767059068 -38.7793889527 -37.9066887195 -32.9717916915 -28.0422741752 -22.1204492608 -16.9387101307 -12.2374597331 -7.3269807738 -0.677694032056
5269000000.0 -71.841555871 -70.8275718488 -56.3055313299 -45.9739182743 -45.24457322 -44.2100864872 -43.2713873257 -42.2209952423 -41.1902511788 -40.0567523478 -40.5259312103 -39.351169641 -38.6287267922 -37.9124346224 -32.9406896432 -27.9956358697 -22.1924685435 -17.0433027908 -12.2148940664 -7.43586247811 -0.716685117079
5609000000.0 -69.9431477537 -68.743139695 -54.7021824762 -44.7493172767 -43.8323877148 -42.7439151087 -41.8114182538 -40.7553926702 -39.7403448886 -38.5927071338 -38.3995319641 -37.221838261 -36.5191413238 -35.8327615748 -30.8830363439 -26.076868126 -20.2965231153 -15.1185544093 -10.3322489806 -5.53158513436 1.15941110204
5999000000.0 -71.0013673793 -70.0862938624 -56.0015211826 -45.4946092193 -45.0047800307 -44.0024349352 -43.0115619734 -41.968214892 -40.9368989493 -39.8419963914 -39.4632850263 -38.2683679216 -37.5557181344 -37.0783760781 -32.1346475839 -27.1992085505 -21.7155760869 -16.5882773212 -11.7665802218 -6.97745281287 -0.20003904763
