@ref 30 1 76.0
99000000.0 129.964713493
132000000.0 130.33982459
699000000.0 132.389890499
709000000.0 132.259073292
800000000.0 132.468197819
1029000000.0 131.386908463
1389000000.0 131.049611246
1459000000.0 131.007180797
1789000000.0 128.737885393
1909000000.0 128.49391321
1979000000.0 128.524197529
2289000000.0 128.571815023
2599000000.0 127.175561241
2699000000.0 127.284752395
2739000000.0 127.19324709
2900000000.0 126.22037569
3000000000.0 125.625300674
3001000000.0 139.774322133
3150000000.0 137.549511292
3392000000.0 135.856956685
3500000000.0 136.861508335
3789000000.0 138.196788595
4032000000.0 137.687912325
4200000000.0 137.821188289
4492000000.0 137.834117447
4700000000.0 136.976895435
4909000000.0 135.106497629
5419000000.0 134.22446029
5949000000.0 131.653426842
5999000000.0 131.368106778
@gain 19 21 0.0 5.0 20.0 30.0 31.0 32.0 33.0 34.0 35.0 36.0 37.0 38.0 39.0 40.0 45.0 50.0 55.0 60.0 65.0 70.0 76.0
99000000.0 -70.5425731304 -67.7749891843 -53.4003683193 -43.3830317017 -42.3336078204 -41.340639155 -40.3222644883 -36.924992552 -35.7708203592 -35.4230578168 -34.265490192 -33.5470237191 -32.4769310167 -31.4873657201 -26.5160689807 -21.6022520167 -19.0406418849 -13.8684915753 -9.06485672862 -4.77159205337 -0.199214435418
179000000.0 -71.8730695176 -69.0275726397 -54.2752754836 -44.0785224221 -43.0183846091 -42.0357604513 -40.9978076867 -37.3822114564 -36.2263023548 -36.3332809346 -35.1760007199 -34.4535169758 -33.4181184223 -32.4248694385 -27.4277690168 -22.51031813 -19.8005978421 -14.6168697835 -9.82156468115 -5.30336424271 -0.00558164780867
769000000.0 -72.5992026589 -69.7109254301 -55.1112875842 -44.9123763926 -43.8781836259 -42.8907195632 -41.8591925181 -42.2228414745 -41.0282382848 -39.6273987875 -38.4731792281 -37.7659843141 -36.73079542 -35.7486832839 -30.7448991633 -25.8563658262 -20.9005346517 -15.7236322744 -10.8626666444 -6.22930318749 -0.125058538147
1029000000.0 -72.6244075365 -69.8156385108 -55.3689748912 -45.0671791647 -44.0072835666 -43.0268373602 -42.0046198648 -42.4865597284 -41.3318985913 -39.5345108124 -38.3824192574 -37.6600686697 -36.6244440966 -35.6524262167 -30.6432849887 -25.7546683683 -21.0219003872 -15.872052952 -10.9913898018 -6.29586247668 -0.150820105649
1049000000.0 -72.530680336 -69.7826194645 -55.199030843 -44.8878188492 -43.851591387 -42.8676288427 -41.8440776259 -42.4500923101 -41.2935717405 -39.4683964015 -38.3155926201 -37.6015728483 -36.5681845795 -35.5873392257 -30.5793138147 -25.6563722698 -20.9734684612 -15.7393054595 -10.9114944146 -6.18174060309 -0.045472218704
1889000000.0 -73.012152823 -70.2216453701 -55.5555256996 -46.022896666 -45.3099561086 -44.3116725552 -43.2938895802 -42.2562318546 -41.6024267071 -40.8806004994 -39.4290106919 -38.2812955145 -37.5681399499 -36.5331807504 -31.5656862495 -26.3276981028 -21.8130095283 -16.6549761302 -11.8230362955 -7.07991756985 -0.814897251075
2339000000.0 -73.7291251801 -70.8760224749 -56.3281479788 -46.8774836449 -46.1398294114 -45.0956905584 -44.0910159991 -43.0735765315 -40.9562770196 -40.2355852789 -38.8050588653 -37.6472382762 -36.9271728531 -35.8942819057 -30.9422954239 -25.7058177035 -21.5382477908 -16.3657774463 -11.5618421005 -6.76155937809 -0.434951202831
2669000000.0 -73.4873892051 -70.6520778487 -56.1157847151 -46.7714153537 -46.052557842 -45.0110267326 -44.0383784316 -42.9924273781 -40.4799621389 -39.7445289731 -38.2783086534 -37.2098844664 -36.5032954937 -35.471994343 -30.5345388378 -25.2898393959 -21.3837390155 -16.3008161098 -11.3756990378 -6.56202619679 -0.220174930517
2879000000.0 -73.8331051969 -71.0835966007 -56.7801790091 -47.2887230648 -46.5644703377 -45.5172081466 -44.5400928506 -43.4767376698 -40.0517611195 -39.3405314593 -38.0338190845 -36.8758169794 -36.1514069591 -35.1156686901 -30.1594214666 -24.9327542524 -21.2148277132 -16.0511231854 -11.2416481985 -6.43281146111 -0.0633831052703
3000000000.0 -74.156154384 -71.3570691508 -56.8655853587 -47.4412905142 -46.6679550836 -45.6235940568 -44.6604352373 -43.6306952226 -40.0890395052 -39.3467929347 -38.1721625228 -37.0393737854 -36.2847508733 -35.2484097569 -30.3017594423 -25.0714369095 -21.6296901357 -16.5036020166 -11.6549066525 -6.86186474629 -0.429147601823
3001000000.0 -72.7060067788 -69.9160178371 -55.4226354556 -45.8378271401 -45.0737195369 -44.0433064411 -43.058919005 -42.0588412283 -41.106986894 -40.533496403 -38.7516762808 -37.5706125531 -36.8627947134 -35.8403135298 -30.8814140185 -25.6193461753 -21.430284908 -16.3199228643 -11.6645776314 -6.65844527779 -0.0690270294406
3201000000.0 -72.1078196142 -69.037095301 -54.8010952218 -45.6636625213 -44.167924326 -43.366025598 -42.383245397 -41.2976680989 -40.6108858244 -39.9224250764 -38.4488067606 -37.27113393 -36.5592717609 -35.5171770614 -30.5584800236 -25.3335843635 -21.3677627115 -16.221847113 -11.4071988945 -6.48047211292 0.096970290403
3499000000.0 -71.6888292847 -68.6212609602 -54.5961095773 -45.1121811989 -44.3374733325 -43.3187582999 -42.3183695374 -41.2899258092 -40.7471971979 -39.9673990583 -38.529281457 -37.3521210922 -36.6361295929 -35.5904501316 -30.5300481967 -25.3955609153 -21.5621564148 -16.471125167 -11.7794028438 -6.82674796866 -0.219728385123
3969000000.0 -72.0205388069 -69.1903054415 -55.2258419412 -45.3372511544 -44.863506004 -43.9068724527 -42.9209137445 -41.9095183952 -40.0979877936 -39.3567654138 -38.0368077962 -36.9170486304 -36.1830029174 -35.1474913391 -30.2155172244 -24.984390769 -21.4272090444 -16.3031933195 -11.4781614537 -6.57382658001 0.133048483346
4479000000.0 -72.8658904529 -71.505707412 -56.2575953941 -46.6599657503 -45.7322007607 -44.6517219347 -43.659239943 -42.6298879505 -41.5939212815 -40.4793477677 -41.0424183145 -39.89533224 -39.1735096682 -37.9683513554 -33.0344288985 -28.0715548667 -21.5791196483 -16.4343909313 -11.6303267472 -6.75217548097 -0.0948050818761
4989000000.0 -72.5983609661 -71.3258100981 -56.7693729328 -46.5112688056 -45.8427995928 -44.8419523318 -43.8592368206 -42.833212785 -41.781370294 -40.6458737699 -41.0473138399 -39.8770989275 -39.1797883838 -38.2920710441 -33.3515055 -28.4018330989 -22.2746679738 -17.2662387714 -12.49910143 -7.60942900429 -0.819874899319
5269000000.0 -72.2862561324 -71.6882621788 -56.8607876005 -46.3977000122 -45.6327668106 -44.6078681046 -43.6553194376 -42.6114589766 -41.5650262766 -40.4405457464 -40.8618241422 -39.705492049 -38.9796719942 -38.2239457834 -33.2619815833 -28.3075496561 -22.494374124 -17.3566192215 -12.5028147724 -7.56161643795 -0.798361574553
5609000000.0 -70.4725322061 -69.6886376611 -55.2172286029 -44.8946905072 -44.2331864042 -43.1833170105 -42.2536353695 -41.2114674519 -40.1887061068 -39.0402494142 -38.7339090033 -37.5520229575 -36.8565738685 -36.1179358337 -31.1661715728 -26.2372540666 -20.556739288 -15.368543516 -10.4996185504 -5.70524296969 1.11297558732
5999000000.0 -71.6449314084 -70.7701122389 -56.5359674892 -46.2129240409 -45.4633990959 -44.4213112902 -43.431293234 -42.391391858 -41.3319540152 -40.2385292079 -39.736571332 -38.5542494545 -37.845615164 -37.3302376072 -32.3976897072 -27.4602566238 -21.9717725903 -16.8271636936 -12.0235527049 -7.15992087155 -0.22126563324
