@ref 30 1 76.0
99000000.0 130.111172991
132000000.0 130.775377316
699000000.0 133.120212275
709000000.0 132.955193886
800000000.0 133.158954589
1029000000.0 132.059591759
1389000000.0 131.543407391
1459000000.0 131.337125925
1789000000.0 128.74628326
1909000000.0 128.857421911
1979000000.0 128.943766489
2289000000.0 128.900666225
2599000000.0 127.574322872
2699000000.0 127.644420552
2739000000.0 127.574812613
2900000000.0 126.687395794
3000000000.0 125.863290712
3001000000.0 140.027411911
3150000000.0 137.702199608
3392000000.0 136.124449279
3500000000.0 137.118136171
3789000000.0 138.540364655
4032000000.0 138.210699347
4200000000.0 138.30426578
4492000000.0 138.385640913
4700000000.0 136.909777827
4909000000.0 135.331555912
5419000000.0 134.752178571
5949000000.0 132.454250267
5999000000.0 132.233311603
@gain 19 21 0.0 5.0 20.0 30.0 31.0 32.0 33.0 34.0 35.0 36.0 37.0 38.0 39.0 40.0 45.0 50.0 55.0 60.0 65.0 70.0 76.0
99000000.0 -70.3378489346 -67.4565158046 -53.047379949 -43.1004308131 -42.020466062 -41.0393336846 -39.9987737785 -36.5859847203 -35.4667375972 -35.1189455246 -33.9214806465 -33.1892499528 -32.1456913933 -31.171159082 -26.1507886236 -21.2426207828 -18.7755194503 -13.5611195766 -8.78218788015 -4.53953368526 0.100706304548
179000000.0 -71.6796171553 -69.2327754416 -54.1678530658 -44.1081580592 -43.0296347711 -42.0428726423 -41.010454297 -37.351490412 -36.1989950026 -36.2647619874 -35.1077848967 -34.3835140017 -33.3389447364 -32.3639988354 -27.342270967 -22.4407800004 -19.7946767756 -14.5763181042 -9.78550784104 -5.25909289243 0.110614195683
769000000.0 -72.5993084842 -69.8089770107 -55.2611098557 -45.0290425386 -44.0136913722 -43.085296417 -42.0066553349 -42.4337539336 -41.2548339235 -39.8265854867 -38.6669286075 -37.940030389 -36.842612752 -35.8735878789 -30.8714822647 -25.9617788641 -20.9109042264 -15.703298577 -10.9431425155 -6.1507511086 -0.0981354015167
1029000000.0 -72.9644119858 -70.0866667672 -55.4599174795 -45.2098170065 -44.1468002388 -43.1895152073 -42.1564383417 -42.6011744201 -41.4464755913 -39.6928872654 -38.5310301402 -37.8095688553 -36.766016617 -35.7388329575 -30.7394026453 -25.8300320191 -20.99357002 -16.1961623868 -11.1436591424 -6.45977580878 -0.194970048366
1049000000.0 -72.8172500452 -69.8275571892 -55.2402519213 -45.0615750923 -44.0052143205 -43.0071604535 -41.9766740164 -42.5406189224 -41.3857953794 -39.5781545004 -38.4234879804 -37.6892473143 -36.5306777087 -35.6295434845 -30.6227231385 -25.2694101789 -20.8019294403 -15.709520635 -10.9361440448 -6.16198880212 -0.00649152891395
1889000000.0 -72.8658825065 -69.9220027845 -55.2819445775 -45.8625810971 -45.2596983964 -44.3207926777 -43.1403393 -42.0641056679 -41.3445324712 -40.6293556351 -39.2167324146 -38.0608238109 -37.3355384197 -36.2872679696 -31.3566011895 -26.1088546952 -21.5739176217 -16.4303285321 -11.6260864061 -6.84555377582 -0.564872225905
2339000000.0 -73.778353999 -70.7692422328 -56.2536741921 -46.7794688733 -46.0520848089 -45.0095248505 -44.0319121985 -42.9910295348 -40.6632905677 -40.0948784434 -38.6841262679 -37.5420228329 -36.825965326 -35.7755545033 -30.8542741597 -25.6131326243 -21.4357148818 -16.289940322 -11.4894656465 -6.70560727322 -0.350363962288
2669000000.0 -73.3883273792 -70.461507684 -56.0656430769 -46.6566251738 -45.9539839743 -44.8815581983 -43.8923338027 -42.8647416255 -40.3821303659 -39.6656709513 -38.3400253297 -37.1683043596 -36.457036703 -35.4040977009 -30.4803339902 -25.2544188915 -21.3639587805 -16.2017146162 -11.3769373557 -6.55984722438 -0.17027962131
2879000000.0 -73.6806628647 -71.1373444879 -56.6171681818 -47.2646257172 -46.5345494153 -45.4631630946 -44.4919646646 -43.4547302984 -39.9723722104 -39.2733512531 -37.9914667028 -36.8382839598 -36.1213649027 -35.0829268678 -30.1558934751 -24.9111182363 -21.2171418689 -16.0596987437 -11.2640084607 -6.47566477921 -0.0158114332926
3000000000.0 -74.0248684014 -71.1266274071 -56.6145295711 -47.2265388181 -46.4937732062 -45.4511102422 -44.4551125732 -43.4519762863 -39.8497972543 -39.1280862877 -37.9834643511 -36.8233900454 -36.1137049087 -35.0429120484 -30.1419441068 -24.8856759324 -21.4396907132 -16.7807392436 -11.5974531115 -6.72490737844 -0.269914484664
3001000000.0 -72.9499744501 -70.1440333343 -55.6019628639 -46.1085781943 -45.2783853698 -44.2280778122 -43.27375741 -42.2058286439 -41.047114939 -40.3460552321 -38.8221031182 -37.6487687616 -36.9279679712 -35.9115627044 -30.9625972597 -25.7319364352 -21.536178331 -16.3811726599 -11.6080714915 -6.56729586145 -0.0862380098477
3201000000.0 -72.2375711941 -69.2116588746 -54.8390071634 -45.4039714174 -44.8332949015 -43.842054632 -42.0757074982 -41.1089594545 -40.5023722001 -39.8611185865 -38.4395482197 -37.2838257815 -36.5531403461 -35.5332736074 -30.5786480483 -25.3835854183 -21.4057020063 -16.2541799286 -11.4901827854 -6.56739271959 0.0690083110565
3499000000.0 -71.7045594412 -68.7990554371 -54.6546803945 -45.2499132926 -44.6255198247 -43.5289459577 -42.6501362938 -41.7580350386 -40.2528051383 -39.5636346221 -38.0789885861 -37.2286606294 -36.5661854982 -35.5192414576 -30.5955330308 -25.3805291625 -21.5541925221 -16.4954699869 -11.6625906864 -6.72394759485 -0.152663801133
3969000000.0 -72.0917655403 -69.0761962011 -54.7413502583 -45.7911132789 -45.0360432424 -43.9620338816 -42.9902151436 -41.9502869365 -40.0131909263 -39.2716228721 -38.0295271225 -36.8768944647 -36.1280907142 -35.0757446397 -30.1632813552 -24.9480975298 -21.4557704704 -16.2863543648 -11.4989905408 -6.57802671497 0.0919586871485
4479000000.0 -73.0055580795 -71.5341189566 -57.0821964622 -46.6926006142 -45.9272166951 -44.856808262 -43.873319531 -42.8485319385 -41.8289375036 -40.6932255743 -41.0221539064 -39.8661712088 -39.1446986648 -38.0116717288 -33.0672472948 -28.1237770518 -21.6389730791 -16.5073472637 -11.7112999334 -6.73279142601 -0.0911903438126
4989000000.0 -72.4303291384 -71.3764405049 -57.0146685116 -46.6196794245 -45.8323096697 -44.7442352695 -43.780366237 -42.7254861612 -41.7076685613 -40.5988650949 -40.8401742486 -39.647707793 -38.9233366404 -38.1179831724 -33.1806626696 -28.2215840655 -22.3388106281 -17.210396124 -12.3717496406 -7.3025064126 -0.68595170742
5269000000.0 -72.5877270393 -71.4037204738 -56.7264335711 -46.3690509761 -45.5742615091 -44.4960407967 -43.5246680181 -42.4702130797 -41.4489431381 -40.346525889 -40.6327428571 -39.4739842864 -38.7284663804 -38.033206876 -33.0875347037 -28.1320618063 -22.3406649908 -17.2147707649 -12.3773220148 -7.49549922774 -0.684564689123
5609000000.0 -70.7927507329 -69.6202394519 -55.2190795202 -44.9499334978 -44.1623451562 -43.1103358449 -42.1166506682 -41.0819775098 -40.0433519788 -38.9040337756 -38.5707412941 -37.4004181179 -36.6787099348 -36.0269439732 -31.0777454298 -26.107847297 -20.420280548 -15.3210429607 -10.499500017 -5.55549984229 1.24609760003
5999000000.0 -71.7595158889 -70.7188760725 -56.4674733425 -46.1948984135 -45.3592422391 -44.2927931556 -43.3017892589 -42.2994726702 -41.2735881758 -40.1476492617 -39.3945826679 -38.6202654809 -37.9385393279 -37.4467334148 -32.2861144165 -27.3547664047 -21.9288974819 -16.7973399913 -12.0021084791 -7.00167394666 -0.202827239992
