@ref 30 1 76.0
99000000.0 130.237005944
132000000.0 130.634378928
699000000.0 132.529809393
709000000.0 132.399619119
800000000.0 132.530445808
1029000000.0 131.326609055
1389000000.0 130.758315242
1459000000.0 130.759770006
1789000000.0 128.566261366
1909000000.0 128.42747234
1979000000.0 128.430017371
2289000000.0 128.552757996
2599000000.0 127.141632504
2699000000.0 127.179732274
2739000000.0 127.105533424
2900000000.0 126.138232301
3000000000.0 125.196085434
3001000000.0 139.617879214
3150000000.0 137.291011979
3392000000.0 135.523776198
3500000000.0 136.25808809
3789000000.0 137.552338094
4032000000.0 137.091883385
4200000000.0 137.346506746
4492000000.0 137.055836746
4700000000.0 135.971275313
4909000000.0 134.682401991
5419000000.0 133.921600132
5949000000.0 131.647929065
5999000000.0 131.435003834
@gain 19 21 0.0 5.0 20.0 30.0 31.0 32.0 33.0 34.0 35.0 36.0 37.0 38.0 39.0 40.0 45.0 50.0 55.0 60.0 65.0 70.0 76.0
99000000.0 -71.6379952977 -68.9080875243 -54.1670576603 -43.8942293146 -42.8184109465 -41.8293476888 -40.8023079466 -37.3159536315 -36.1404262686 -35.6760781754 -34.5193478585 -33.8128506135 -32.76555455 -31.7850635672 -26.7743904543 -21.8563772615 -19.2639725708 -14.0818770139 -9.3089099288 -5.09277197807 -0.380635043616
179000000.0 -72.90143502 -70.0568846485 -54.9339411915 -44.6138605286 -43.536005928 -42.5422783049 -41.5168643256 -37.7539680139 -36.5879093126 -36.545170249 -35.3874861002 -34.6833154936 -33.6378295498 -32.6581493326 -27.6401337517 -22.7299270146 -19.9681948341 -14.7677908845 -9.98765437359 -5.058657496 0.116330701156
769000000.0 -73.099946167 -70.7792625646 -55.7422785955 -45.2980998747 -44.2295484875 -43.2478849099 -42.2197249823 -42.5532562519 -41.3948162655 -39.9889638664 -38.8215474878 -37.9463788876 -36.9761663551 -36.0335346439 -31.0371037215 -26.1242451614 -21.0788732092 -15.9145105467 -11.1176209725 -6.28874984397 -0.125895244256
1029000000.0 -73.2606380867 -70.5210942098 -55.798784578 -45.4162660847 -44.4762289334 -43.3578609958 -42.31249871 -42.7872521314 -41.6245138856 -39.855423302 -38.68468807 -37.9804046161 -36.9340394028 -35.8979773851 -30.9187020458 -25.9850575956 -21.1593208397 -15.9991997898 -11.222342466 -6.36747138828 -0.135863264011
1049000000.0 -73.4279962995 -70.5357118486 -55.5990680884 -45.2270755272 -44.1396514347 -43.1305688083 -42.1102790282 -42.7353476405 -41.5796238268 -39.7410494547 -38.5799875261 -37.8668526284 -36.820599765 -35.8202448632 -30.8355483585 -25.9108679676 -21.0281781706 -15.8721749477 -11.0873540271 -6.27702900644 -0.0191284640601
1889000000.0 -73.5795444054 -70.7082967457 -55.7475766847 -46.1961978193 -45.6217853478 -44.4825728257 -43.3743871691 -42.3407246829 -41.7029827996 -40.9984034494 -39.4960371802 -38.3260837001 -37.6207162269 -36.5795030292 -31.6405544992 -26.3762496729 -21.7203737707 -16.6463997549 -11.7517048729 -6.97759712513 -0.656636497133
2339000000.0 -74.4293765088 -71.564667641 -56.7826386291 -47.1366397103 -46.3954060702 -45.3536539453 -44.3694487112 -43.352823389 -41.2299303523 -40.5222921959 -38.9921802074 -37.841609609 -37.1398894779 -36.0928467441 -31.17053471 -25.9129953013 -21.6895959793 -16.5583814283 -11.7431059547 -6.74940657598 -0.433599722226
2669000000.0 -74.0402604432 -71.6026571005 -56.6886291327 -47.0607894984 -46.2802524411 -45.2743125668 -44.2533328325 -43.2334085815 -40.7177576419 -40.0213944661 -38.5899262506 -37.4117701362 -36.7117651297 -35.6623013222 -30.7350887895 -25.4945616655 -21.5486168566 -16.3911004227 -11.5779051773 -6.69597658496 -0.189332979805
2879000000.0 -74.4476440857 -71.68017344 -57.0672548328 -47.5925532071 -46.8446780324 -45.7833742059 -44.8003160752 -43.7808825979 -40.2869752794 -39.5837583335 -38.2017197357 -37.0449979883 -36.3385657812 -35.3018720163 -30.3717462763 -25.1131351085 -21.3798782515 -16.2291027415 -11.4339241733 -6.55957773519 -0.0686775404266
3000000000.0 -74.7040339581 -71.7537429635 -56.9810635339 -47.639525832 -46.2889840172 -45.4593066019 -44.5587858542 -43.5937820123 -39.9781728244 -39.2701933008 -38.0312003163 -36.8592399401 -36.1667556757 -35.0985190149 -30.184654569 -24.9319309918 -21.4678323187 -16.3707832427 -11.5973560523 -6.99238634585 -0.115651978021
3001000000.0 -73.0227701517 -70.3291489696 -55.8993575588 -46.4418571669 -45.6287329352 -44.5779004624 -43.6170563444 -42.5645868272 -41.4785175342 -40.7792778576 -39.1473872839 -37.9733399699 -37.2692251994 -36.2571214379 -31.3082034242 -26.0604280496 -21.8877966332 -16.7407135091 -11.9897583502 -7.05696853259 -0.285628655565
3201000000.0 -72.8987765456 -69.6099552873 -55.0690659302 -45.5940944339 -44.790220977 -43.7367619999 -42.744923963 -41.7672211708 -40.8561324882 -40.1459462289 -38.6107084405 -37.4427570171 -36.7261772701 -35.7119977965 -30.7448917219 -25.5410379674 -21.617979118 -16.4668012352 -11.6949989312 -6.74654138848 -0.0803456308556
3499000000.0 -72.053899346 -69.0506327872 -54.7298996653 -45.2759069066 -44.4784381048 -43.4214569221 -42.4382582483 -41.4139000243 -40.7371801353 -40.007279746 -38.5097510178 -37.3360108855 -36.6242054068 -35.5731879461 -30.5004851446 -25.3842777563 -21.6385742882 -16.401568005 -11.7367199567 -6.83265428914 -0.0835533099204
3969000000.0 -72.3292471513 -69.368696317 -55.3579654807 -45.9587921067 -45.1581562338 -44.0846222117 -43.0970820001 -42.0762994428 -40.1488181985 -39.4232330419 -38.0854824073 -36.9252271404 -36.1901428129 -35.1443177841 -30.2256947007 -24.9997010857 -21.5768533278 -16.4087980063 -11.6361087714 -6.77732687934 0.0661112015287
4479000000.0 -72.7282720736 -71.493835587 -56.6134093211 -46.1826534838 -45.4072725451 -44.3401107331 -43.3547301254 -42.4883234213 -41.3274121198 -40.1530914465 -40.6879800286 -39.52914139 -38.8249783495 -37.6191711897 -32.681038007 -27.7336151071 -21.315149962 -16.1936147949 -11.4020218498 -6.44921723071 0.340313315674
4989000000.0 -72.2631438741 -71.6724067388 -57.433733593 -46.5317439559 -45.8549459756 -44.7934712214 -43.8321421557 -42.7949029644 -41.7639870473 -40.6290079062 -40.9003697449 -39.8538414448 -39.0302364823 -38.1293415568 -33.1956916846 -28.2266970307 -22.3915940326 -17.2738038868 -12.450275949 -7.46635543359 -0.665242963278
5269000000.0 -72.4396835722 -71.368480698 -56.7326268157 -46.4845762573 -45.9019136931 -44.8944520466 -43.8796728329 -42.6014227488 -41.5354418023 -40.4034803642 -40.7430808784 -39.5746559618 -38.845064574 -38.0931965002 -33.1591893497 -28.1875440877 -22.4410839462 -17.3300268846 -12.496112317 -7.5858487997 -0.645276000849
5609000000.0 -71.0203540458 -69.7866318238 -55.2701636181 -45.0035884704 -44.2051723748 -43.1525880593 -42.2337350016 -41.1476267915 -40.0903807494 -38.9257249737 -38.6790629912 -37.5065137273 -36.793924473 -36.0911808797 -31.1340683653 -26.1511917475 -20.5481711983 -15.4345321106 -10.6321310086 -5.67088997025 1.2326372907
5999000000.0 -71.9676116749 -70.7529502786 -56.5075305819 -46.2706356404 -45.4238330442 -44.3636417285 -43.3600901583 -42.3647065923 -41.33190254 -40.1928249258 -39.64799911 -38.4480279118 -37.7391085287 -37.2732907385 -32.2964190989 -27.3748085591 -22.0108183629 -16.7965183456 -12.081754132 -7.06700336374 -0.180230055474
