@ref 30 1 76.0
99000000.0 129.61396612
139000000.0 130.286619471
699000000.0 132.131344681
719000000.0 132.433923399
800000000.0 132.359604262
1029000000.0 131.416843619
1389000000.0 130.812466152
1459000000.0 130.370204043
1799000000.0 128.050607663
1919000000.0 128.009593526
1979000000.0 128.291538346
2289000000.0 128.400493385
2599000000.0 127.173287119
2699000000.0 127.373501982
2739000000.0 127.353709371
2900000000.0 126.320549446
3000000000.0 125.233145736
3000100000.0 139.77027287
3155000000.0 138.354774936
3395000000.0 136.644738625
3499000000.0 137.272285116
3789000000.0 138.271156118
4032000000.0 137.947080368
4200000000.0 137.681351898
4492000000.0 137.470387711
4700000000.0 136.202945659
4919000000.0 133.897659613
5419000000.0 132.841278888
5949000000.0 128.623759854
5999000000.0 128.553626659
@gain 19 21 0.0 5.0 20.0 30.0 31.0 32.0 33.0 34.0 35.0 36.0 37.0 38.0 39.0 40.0 45.0 50.0 55.0 60.0 65.0 70.0 76.0
99000000.0 -70.2399186347 -67.2661358125 -52.9445166394 -42.707547283 -42.032374038 -41.1316491484 -40.1387280531 -36.862816312 -35.7148907581 -35.2579650176 -34.0709574009 -33.3408814345 -32.286066493 -31.3291330466 -26.3115718649 -21.4044813961 -18.921078984 -13.7313977633 -8.95317955546 -4.58029302539 0.109752634619
179000000.0 -71.7520411324 -68.6956022879 -54.0042149805 -43.9390783275 -42.8378084711 -41.8860979499 -40.8324943342 -37.3961579284 -36.2366234451 -36.3156800676 -35.1663710329 -34.4571161926 -33.3967125697 -32.4342364423 -27.4058424488 -22.5041619313 -19.8620916909 -14.6948252776 -9.91320839881 -5.31917328924 0.0884821596121
769000000.0 -72.5154196493 -69.5481056826 -55.183112024 -45.0405322025 -43.9376670626 -42.9751416018 -41.9215671463 -42.3775446526 -41.200337923 -39.8565141151 -38.6751756353 -37.9695956326 -36.9101603685 -35.9476216842 -30.9305033603 -26.070830431 -21.2166326115 -16.0077361292 -11.1799221938 -6.32589914638 -0.210917119588
1029000000.0 -72.4617436825 -69.5018529095 -55.2464297587 -45.0716288718 -43.949507958 -42.9847851222 -41.9447064532 -42.5675899104 -41.4000813805 -39.7157317924 -38.5003793049 -37.7952429793 -36.7390508118 -35.780885645 -30.734662112 -25.856242659 -21.1946434254 -16.0282257374 -11.1856512239 -6.40090833063 -0.350834272598
1049000000.0 -72.5109423731 -69.5367681445 -55.0795825436 -44.9073966438 -43.7807003543 -42.8571836602 -41.7938701573 -42.5353831399 -41.3678452582 -39.6175243561 -38.4409217382 -37.7344198063 -36.676806279 -35.7204997522 -30.672511818 -25.6103879594 -21.0267425309 -15.8930844023 -11.1012329889 -6.3123874618 -0.0914841526263
1889000000.0 -72.3590004994 -69.3930976323 -54.9006496937 -45.4790425164 -44.6982984728 -43.6443882606 -42.6694675947 -41.6452348957 -41.2640866284 -40.5554290603 -39.1375128164 -38.3565508242 -37.7308124935 -36.5894898403 -30.9989191818 -26.0083239087 -21.4149750391 -16.3618885733 -11.4536562346 -6.7194525162 -0.408842381798
2339000000.0 -73.4474672151 -70.39614752 -56.0459610346 -46.6695489507 -45.8955206931 -44.7968065359 -43.825133289 -42.7990513951 -40.9464074824 -40.0371556131 -38.6997211963 -37.666729947 -36.992873351 -35.9323896365 -31.0022299729 -25.7798519979 -21.626583322 -16.5185443393 -11.6978207678 -6.89951947662 -0.427854024797
2669000000.0 -73.3542745783 -70.3733354205 -56.1031174726 -46.7181540261 -45.9542932684 -44.895745001 -43.909572743 -42.8861693987 -40.4862598882 -39.7898267731 -38.4163412173 -37.2620377592 -36.5473878944 -35.4832861043 -30.5749946383 -25.3245493611 -21.2997017043 -16.1465910779 -11.333797851 -6.4801126768 0.00315032200066
2879000000.0 -74.0800233573 -71.1794248229 -57.0335281003 -47.6540298819 -46.8741585213 -45.8102475514 -44.8344163252 -43.798243032 -40.1780431688 -39.4813996182 -38.1485926097 -36.9826605051 -36.2916346752 -35.2199107508 -30.2813149602 -25.0495476668 -21.2600391504 -16.0767357049 -11.2863137041 -6.41523015551 0.00921193399554
3000000000.0 -73.9174961148 -71.0034918189 -56.6508939818 -47.3113354116 -46.5170901598 -45.4530458425 -44.4646468316 -43.4475380322 -39.7180992008 -39.0173155052 -37.8574940322 -36.6774031777 -35.9571404235 -34.9067392419 -29.9862045934 -24.7637721536 -21.2886174309 -16.0930644806 -11.3655453825 -6.46138811019 0.0587306648249
3001000000.0 -72.8161808041 -69.9224732937 -55.2765415426 -45.7745115556 -45.101226529 -44.033547282 -42.8553087356 -42.0054852501 -40.9856012423 -40.2683841185 -38.7657615054 -37.632363795 -36.8992775472 -35.8499452592 -30.9198824565 -25.7904473897 -21.6200409308 -16.4091909111 -11.6020837595 -6.71854301309 -0.0158075335852
3201000000.0 -72.2778979081 -69.3218910237 -54.7981959454 -45.1965161333 -44.5047369682 -43.5071932616 -42.5034374337 -41.4708822548 -40.3421185998 -39.7136411577 -38.2528990208 -37.1939109789 -36.4912314112 -35.4112666277 -30.5083071396 -25.2696041441 -21.4162842946 -16.2383919666 -11.4375432368 -6.49891565391 0.149916540059
3499000000.0 -72.1343514765 -69.0144970724 -54.5920861339 -45.0724276371 -44.3685945031 -43.3326043814 -42.3778231077 -41.3344803558 -40.4272891831 -39.7052051071 -38.3411286854 -37.1708348841 -36.513617505 -35.4666266941 -30.5206412418 -25.2843561343 -21.5004171 -16.3401325551 -11.6202888859 -6.78665869604 -0.00760607984398
3969000000.0 -72.9584589834 -69.8526143745 -55.836494189 -46.2940155799 -45.5911089528 -44.5432878617 -43.5893800515 -42.5454343311 -40.1533225753 -39.4506317153 -38.1855639664 -37.0029839983 -36.3154386313 -35.2931633071 -30.3854394313 -25.130624545 -21.5024694349 -16.4554543934 -11.652503149 -6.6811426025 0.327895335191
4479000000.0 -73.5930686033 -72.4374879569 -57.3281272518 -46.7297695425 -46.0122954727 -44.9614315449 -44.025171835 -42.981338825 -41.9736998334 -40.8413628733 -40.8683082544 -39.7237775557 -38.9960873714 -37.8952634421 -32.9650961569 -28.0231183825 -21.6388910092 -16.4928942569 -11.6787216658 -6.7765453064 0.00327418927736
4989000000.0 -72.210347593 -71.0492214832 -56.2560088766 -45.7068352149 -45.017616962 -43.9779118196 -43.0243582554 -41.9825098618 -40.9478400673 -39.8074572312 -40.0220064172 -38.8292974776 -38.1194178146 -37.3853247258 -32.4519702038 -27.4883527349 -21.5885176116 -16.5799081262 -11.7969914595 -6.89495400217 -0.0218144305133
5269000000.0 -72.8634375951 -71.5677155098 -56.813576412 -46.2994157394 -45.3962334606 -44.8243606874 -43.8645588019 -42.9264006853 -41.9170843714 -40.7444667148 -41.2445031524 -39.7894910303 -39.0741937005 -38.4120892686 -33.4726892116 -28.5262999339 -22.8801157622 -17.6470881376 -12.9097466564 -7.98235842631 -1.09960204284
5609000000.0 -70.4999087981 -69.288457805 -54.829899822 -44.3471257866 -43.6377135005 -42.5253039223 -41.6090727999 -40.6236747701 -39.6143419791 -38.363225266 -38.0856502538 -36.9148011359 -36.2075040859 -35.5658154404 -30.6159537276 -25.6899512594 -20.0614012289 -14.8694170366 -10.1098237012 -5.19637921267 1.71398007804
5999000000.0 -72.240497515 -71.0204341644 -56.6574790202 -46.1977131542 -45.5388580057 -44.4943894411 -43.5109566 -42.4657078383 -41.4292481454 -40.3281840547 -39.5800902448 -38.4138937503 -37.6923770061 -37.2475404759 -32.3268872981 -27.4953394536 -21.9796783887 -16.8282969254 -11.9927939182 -7.0463095899 -0.0328107834789
