@ref 30 1 76.0
99000000.0 130.402807972
132000000.0 130.778081499
699000000.0 132.906439801
709000000.0 132.73693142
800000000.0 132.939403763
1029000000.0 131.794428088
1389000000.0 131.220724747
1459000000.0 131.044082073
1789000000.0 128.626064482
1909000000.0 128.547065015
1979000000.0 128.568932377
2289000000.0 129.023685976
2599000000.0 127.646725687
2699000000.0 127.592329474
2739000000.0 127.550077335
2900000000.0 126.535502081
3000000000.0 125.557495075
3001000000.0 139.759680416
3150000000.0 137.776341485
3392000000.0 135.972233827
3500000000.0 136.809971136
3789000000.0 138.142689382
4032000000.0 137.793926617
4200000000.0 137.884774438
4492000000.0 138.104143187
4700000000.0 136.691879773
4909000000.0 135.246928305
5419000000.0 134.391566423
5949000000.0 131.842785381
5999000000.0 131.600333432
@gain 19 21 0.0 5.0 20.0 30.0 31.0 32.0 33.0 34.0 35.0 36.0 37.0 38.0 39.0 40.0 45.0 50.0 55.0 60.0 65.0 70.0 76.0
99000000.0 -71.5307653308 -68.5689259823 -53.7860818635 -43.6634824615 -42.6186752218 -41.6378111943 -40.6064586368 -37.278367355 -36.1274225808 -35.717570756 -34.5642590763 -33.8530561955 -32.8012046606 -31.8244355264 -26.8076098046 -21.8930693126 -19.3553578408 -14.1327055754 -9.35078192052 -4.99748119171 -0.128442879641
179000000.0 -72.7531973532 -69.7400016415 -54.580682724 -44.3193838488 -43.3372733407 -42.3759248672 -41.3422206916 -37.7248731307 -36.5761815983 -36.5940467198 -35.4452156929 -34.7313624686 -33.6824898944 -32.7088619584 -27.6777710247 -22.7747076013 -20.0832658499 -14.8530368784 -10.0799552321 -5.63572785024 0.0049956673609
769000000.0 -73.5346893669 -70.621384229 -55.6279129427 -45.287837264 -44.2599622166 -43.2871757831 -42.2561277664 -42.5848106461 -41.4265160219 -40.0150377866 -38.8641744367 -38.1478834744 -37.0518951127 -36.07535924 -31.0702404301 -26.1578123303 -21.1290396277 -15.9195708919 -11.154559874 -6.34608585361 -0.0900175196929
1029000000.0 -73.7236660633 -70.5777601559 -55.7748979639 -45.4455555162 -44.391441046 -43.4311452778 -42.4050914973 -42.7595775028 -41.6044130158 -39.8694552166 -38.7152129935 -37.9988458921 -36.9516239311 -35.9195898626 -30.9253965326 -26.0071152357 -21.2130294624 -16.0367516258 -11.2699109704 -6.43246886062 -0.0982379580009
1049000000.0 -73.5571260828 -70.5377657764 -55.5950277656 -45.3009727928 -44.2521918179 -43.2486813424 -42.221418232 -42.6985748422 -41.5469384265 -39.7529574041 -38.6006272042 -37.8843914109 -36.8360914548 -35.8387128075 -30.8450097692 -25.9285126604 -21.078513757 -15.9000668617 -11.1244612304 -6.33063208685 0.0308463679636
1889000000.0 -73.5580300467 -70.5864472565 -55.5999048937 -46.0792903528 -45.3724055637 -44.2966653077 -43.3524824415 -42.306756585 -41.6642282124 -40.9573360686 -39.5327886505 -38.3801697568 -37.6612814717 -36.6175371664 -31.673174849 -26.41585188 -21.8679723387 -16.7117253026 -11.918521952 -7.09226521335 -0.672970419526
2339000000.0 -74.5821282181 -71.5569358345 -56.7441253196 -47.1592647185 -46.4593481837 -45.4187806015 -44.4338083571 -43.4119088806 -41.2140086235 -40.5154641169 -39.0467003697 -37.8992107939 -37.1893237828 -36.1424653767 -31.2082135959 -25.9575219572 -21.7202624867 -16.5659618319 -11.7670730548 -6.95478929815 -0.444116890397
2669000000.0 -74.3235552606 -71.353425589 -56.7293821904 -47.1568414801 -46.4336679567 -45.3949216821 -44.405281145 -43.3877850283 -40.6471774581 -40.0127852245 -38.5699629171 -37.3956886427 -36.6943752587 -35.6398228801 -30.7076768674 -25.4682243175 -21.4913332881 -16.3036857177 -11.4982928048 -6.64936695342 -0.0826466046956
2879000000.0 -74.6903521496 -71.8681070152 -57.2265958949 -47.8184159562 -47.1073485322 -46.0460493674 -45.0704638073 -44.038760281 -40.2811668998 -39.5714429558 -38.2536525903 -37.1059771362 -36.3952335967 -35.3566542206 -30.4212464148 -25.1698543125 -21.6553453925 -16.3123108253 -11.4752033974 -6.63046423916 -0.0370333294677
3000000000.0 -74.5201458554 -71.8375592413 -57.0887839674 -47.5971604877 -46.8543363986 -45.8527148363 -44.8562096968 -43.8716267641 -40.0006064603 -39.2905471058 -38.1104641004 -36.9550530716 -36.2493074897 -35.1892157864 -30.2724821126 -24.9997334266 -21.5620393508 -16.4059714217 -11.6517838112 -6.80183246503 -0.147464973974
3001000000.0 -72.8404843882 -69.9160750723 -55.4219245858 -46.0364229347 -45.3173625008 -44.2798267441 -43.3273941829 -42.2716374341 -41.19249533 -40.4849487915 -38.8962212056 -37.720429593 -37.0084041909 -36.0053475264 -31.0391897711 -25.7946175551 -21.6367360187 -16.4715811403 -11.7138843818 -6.73180023462 -0.101097914491
3201000000.0 -72.1029024406 -69.0773278761 -54.7857194929 -45.4264033416 -44.7129073008 -43.6190489094 -42.6825075676 -41.7128706462 -40.8038245752 -40.1633836185 -38.613656566 -37.4382104884 -36.7109234747 -35.6954920693 -30.7292106759 -25.5284530731 -21.5909960489 -16.4104778014 -11.6550224842 -6.67203737468 0.0392456036659
3499000000.0 -71.5778849775 -69.0195858539 -54.5879210941 -45.1993958017 -44.4925990634 -43.4401736966 -42.4633268464 -41.4340932829 -40.7442623941 -40.0141824616 -38.5629060241 -37.4013855682 -36.6863433356 -35.6334755567 -30.6977124173 -25.4725890878 -21.6884925741 -16.5232941465 -11.7924178954 -6.81896921676 -0.170172122874
3969000000.0 -72.0590637534 -69.2592097597 -55.2429019588 -45.9153323344 -45.2024983432 -44.0803395092 -43.1573086545 -42.1445670573 -40.1727111601 -39.4446366043 -38.15020102 -37.0017494376 -36.2612600646 -35.2169437768 -30.2924165379 -25.0693297909 -21.6129625105 -16.4446224143 -11.6568917295 -6.69194531796 0.0981084140106
4479000000.0 -72.8599757044 -72.0537589972 -57.2825504126 -46.7045727208 -46.0766745572 -45.0276025603 -43.9361824962 -42.8951890545 -41.8777900443 -40.7108320803 -41.0974925531 -39.9543200799 -39.2533896415 -38.0889347797 -33.1704882499 -28.2673270805 -21.8030828857 -16.6270570524 -11.8482864352 -6.85299751157 -0.0774426695491
4989000000.0 -72.9756131229 -71.6797302377 -57.064293157 -46.7081758258 -46.0328206924 -45.0003208705 -43.9724118578 -42.9112292864 -41.8974877099 -40.7482445565 -40.9856705569 -39.8082541282 -39.0992068199 -38.2606859086 -33.3364948335 -28.3679264846 -22.5446565717 -17.4063763167 -12.5935893282 -7.57300875259 -0.750336305196
5269000000.0 -72.5777248857 -71.3691767506 -56.7001975249 -46.4227141441 -45.7103518633 -44.6493071354 -43.6707138366 -42.619819824 -41.6059938543 -40.4746300476 -40.7602044713 -39.6110048792 -38.8781260816 -38.1626961617 -33.2392562733 -28.2716796092 -22.5722141395 -17.3928335248 -12.5707093898 -7.60486904763 -0.713904563461
5609000000.0 -70.9063663569 -69.6256963453 -55.1458080922 -44.915474037 -44.1990320413 -43.1508462555 -42.165373682 -41.1383263652 -40.1077244206 -38.9422213346 -38.6355083773 -37.4768691571 -36.7635512898 -36.1090256546 -31.1743261626 -26.1836925363 -20.5727614113 -15.4484099213 -10.6467854685 -5.65219785279 1.23783567514
5999000000.0 -71.8481561999 -70.6972455474 -56.369595715 -46.1233121868 -45.3605990598 -44.3101013842 -43.3279286174 -42.3245434008 -41.3105537532 -40.157251872 -39.614444871 -38.4394090306 -37.7297518026 -37.3096273716 -32.3445697839 -27.4174525032 -22.0584346663 -16.9051743043 -12.1227486656 -7.05651238054 -0.169957518354
