@ref 30 1 76.0
99000000.0 130.18958946
139000000.0 130.830855893
699000000.0 132.590838664
719000000.0 132.711070468
800000000.0 132.640315638
1029000000.0 131.663273231
1389000000.0 131.083212258
1459000000.0 130.670697487
1799000000.0 128.394596968
1919000000.0 128.260692886
1979000000.0 128.501302434
2289000000.0 128.141090981
2599000000.0 126.981127538
2699000000.0 127.177383076
2739000000.0 126.999921405
2900000000.0 126.007597196
3000000000.0 125.103063554
3000100000.0 140.099538545
3155000000.0 138.401500286
3395000000.0 136.898009356
3499000000.0 137.740478645
3789000000.0 138.34612905
4032000000.0 138.064544793
4200000000.0 137.794939623
4492000000.0 137.54978955
4700000000.0 136.213756839
4919000000.0 134.000926154
5419000000.0 132.727028352
5949000000.0 128.768701024
5999000000.0 128.636704183
@gain 19 21 0.0 5.0 20.0 30.0 31.0 32.0 33.0 34.0 35.0 36.0 37.0 38.0 39.0 40.0 45.0 50.0 55.0 60.0 65.0 70.0 76.0
99000000.0 -71.0393082709 -68.0824057201 -53.5934341353 -43.5923688166 -42.4949189976 -41.656888549 -40.6482639154 -37.0997423974 -35.9902584224 -35.584981655 -34.3172688786 -33.576561531 -32.5161795649 -31.5408570842 -26.5206054397 -21.6189810179 -18.9926354536 -13.8075201108 -8.99500159567 -4.40288907588 0.0924025580501
179000000.0 -72.611861761 -69.5070291225 -54.5783099795 -44.4364372174 -43.3870518084 -42.3059216115 -41.3635596943 -37.6693857343 -36.5161787491 -36.5548502894 -35.3975256619 -34.6785463311 -33.6257806932 -32.6490863071 -27.6354517377 -22.7333215533 -19.8941289359 -14.83391333 -9.93504760537 -5.3174054112 0.065903135885
769000000.0 -72.8999767575 -69.8060610927 -55.5270752831 -45.1724242404 -44.1066019803 -43.119468743 -42.0858939381 -42.5312955228 -41.3708643273 -39.8834508025 -38.6805371142 -37.9676448307 -36.914104024 -35.941100526 -30.9287473162 -26.0591668143 -20.9953252011 -15.9216446784 -10.9793665792 -6.2301521952 -0.100243736274
1029000000.0 -73.0729257993 -70.0214651044 -55.4028313242 -45.1543965189 -44.1148545051 -43.1480422109 -42.1178126989 -42.6507529525 -41.4886021614 -39.6434029379 -38.4388579703 -37.7272469822 -36.6789407821 -35.7028554077 -30.6868647564 -25.7951168393 -20.9705048509 -15.806180173 -10.9564174368 -6.14484028411 -0.0400823343006
1049000000.0 -72.8644009939 -70.0236723839 -55.2471746353 -45.0097589122 -43.9822890918 -43.1395880218 -42.2869639618 -42.8670516785 -41.5025127457 -39.5631931782 -38.3870026409 -37.6739728458 -36.6284948971 -35.6539022315 -30.6374514419 -25.7455159624 -20.8648647101 -15.6897951667 -10.8836195024 -6.0841817054 0.0605162846244
1889000000.0 -72.9363066104 -69.9996312803 -55.1826518161 -45.6970750972 -44.9917827972 -43.9568708517 -42.9799300731 -41.9622001734 -41.3232108804 -40.6108185904 -39.1318157362 -37.9516648533 -37.2277864135 -36.1992748868 -31.2447568393 -26.0316468469 -21.5371519757 -16.347232927 -11.5392103153 -6.71918174034 -0.414356958297
2339000000.0 -73.7602266282 -70.688306588 -56.0175537179 -46.5680622045 -45.8674098472 -44.7937783127 -43.8135204437 -42.7875987775 -40.9645265796 -40.2569610087 -38.8264621264 -37.6627267447 -36.9460453978 -35.8948447725 -30.9581017751 -25.6877901415 -21.6608131481 -16.4913365249 -11.7270439827 -6.84020896111 -0.441378645144
2669000000.0 -73.6848433318 -70.7752792609 -56.0502280408 -46.6893397395 -45.9117185063 -44.8646715227 -43.843332693 -42.8305049099 -40.3875822453 -39.6830890263 -38.272976199 -37.1166747805 -36.4002667947 -35.347180533 -30.4313136548 -25.1901142959 -21.267104747 -16.1068173889 -11.2731381495 -6.38394491341 -0.0304485062059
2879000000.0 -74.2338514508 -71.1848202553 -56.7028856245 -47.2456052911 -46.5462722928 -45.5027417497 -44.5165632202 -43.4813271335 -39.9694263078 -39.2642878351 -37.9141391048 -36.750264787 -36.1306245953 -35.1765139097 -30.0752982682 -24.8216134797 -21.1463057878 -15.9686964488 -11.172778384 -6.30634983282 0.14673103055
3000000000.0 -74.0374962529 -71.0370832914 -56.3833114237 -46.9726715268 -46.2430136776 -45.2116726521 -44.2052176364 -43.1901065143 -39.6497797616 -38.9431098852 -37.7705705022 -36.5839241515 -35.8586413727 -34.8171558213 -29.8895637809 -24.6725440637 -21.3366499572 -16.1383654569 -11.3445289018 -6.45983370212 -0.00223593840724
3001000000.0 -73.3410398276 -70.5257958576 -55.9028818052 -46.2793160233 -45.6530942543 -44.6080470116 -43.6181298798 -42.6093186317 -41.4500539443 -40.7245630392 -39.0943715533 -37.9657277769 -37.2231148575 -36.1825648804 -31.2329911198 -25.9726727597 -21.7737964193 -16.6090754427 -11.8536616647 -6.92856116079 -0.19658912176
3201000000.0 -72.8143143777 -69.7888019776 -55.3086235035 -45.8195943397 -45.028026712 -44.0329051537 -43.0170320066 -41.9907358874 -40.9599959651 -40.2481085319 -38.705278728 -37.5681219001 -36.8297460799 -35.7737837165 -30.8511315014 -25.625704893 -21.7348725542 -16.5415219012 -11.7590288826 -6.78751899453 -0.0307469919433
3499000000.0 -72.84350629 -69.8704096158 -55.2705996126 -45.8200656276 -45.031530119 -43.9774814148 -43.01796575 -41.9758667486 -41.058361983 -40.3341755209 -38.872141588 -37.7044690467 -37.0333565598 -35.9664396518 -31.0364953152 -25.8232599963 -22.0311055308 -16.8338153847 -12.1065272923 -7.07743783339 -0.107956295136
3969000000.0 -73.2139755732 -70.2267935373 -55.9732505941 -46.5319634818 -45.7581666345 -44.7065076963 -43.7427524162 -42.7054333355 -40.4165864562 -39.7019458808 -38.3555559898 -37.1874740489 -36.4796625616 -35.5239190043 -30.5377739791 -25.3010350623 -21.8377964803 -16.6333601873 -11.8348470181 -6.83608948489 0.288893441026
4479000000.0 -73.8584883352 -72.5887207538 -57.4540450086 -46.9997292092 -46.2423755642 -45.1762726329 -44.2000103856 -43.1397316678 -42.1165806263 -41.0038649317 -41.1010562102 -39.870550334 -39.2033660871 -38.0476385801 -33.1175516014 -28.1448954157 -21.8130662326 -16.660926554 -11.8363536493 -6.90089637043 -0.113476821137
4989000000.0 -72.2414815481 -71.1336793087 -56.3602710407 -45.9018458929 -45.1080254384 -44.055551759 -43.0980570834 -42.0605377772 -41.0159784719 -39.8868843782 -40.1510559348 -38.9767700261 -38.254866838 -37.429510198 -32.4782043685 -27.5177170589 -21.7070461997 -16.6065157648 -11.8112771593 -6.85821333601 0.0497206758597
5269000000.0 -72.9959390932 -71.8705188905 -56.9543508625 -46.5273233418 -45.740612053 -44.7006424579 -43.7959719474 -42.8874354383 -41.1934589279 -40.1587230029 -40.9047263964 -39.8808778081 -39.1767399532 -38.459059151 -33.5151989702 -28.5514738259 -22.949516158 -17.7633064089 -12.9894374183 -8.01876842954 -1.01706424554
5609000000.0 -70.7730696328 -69.5953526221 -55.092750436 -44.6997301156 -43.9198485934 -42.8614626505 -41.937219711 -41.1080237969 -40.2941345674 -38.4560955751 -38.1936417386 -37.1702844322 -36.4760696049 -35.7679912383 -30.8275581392 -25.884254921 -20.2811455956 -15.1023464251 -10.3135642745 -5.34849419422 1.61904420551
5999000000.0 -72.432965728 -71.1369411766 -56.7905578058 -46.4303304173 -45.744123593 -44.7185215064 -43.7105205012 -42.6846879865 -41.6331336067 -40.5408206732 -39.8119544158 -38.6621194821 -37.9232729191 -37.403673445 -32.4709098885 -27.5892232583 -22.1308170772 -16.9876686234 -12.1331354832 -7.2134054018 -0.1009513755
