@ref 30 1 76.0
99000000.0 130.122601811
132000000.0 130.512011081
699000000.0 132.728762802
709000000.0 132.551838214
800000000.0 132.746999649
1029000000.0 131.73285136
1389000000.0 131.243191857
1459000000.0 130.855720066
1789000000.0 128.67323385
1909000000.0 128.642068689
1979000000.0 128.658632095
2289000000.0 128.72086395
2599000000.0 127.265426837
2699000000.0 127.325894721
2739000000.0 127.22282296
2900000000.0 126.334953656
3000000000.0 125.445515292
3001000000.0 139.884030465
3150000000.0 137.957370317
3392000000.0 136.101793604
3500000000.0 136.974835262
3789000000.0 138.2487796
4032000000.0 137.760490622
4200000000.0 137.723710728
4492000000.0 138.186983187
4700000000.0 137.019128055
4909000000.0 135.553803295
5419000000.0 134.933672062
5949000000.0 132.319209994
5999000000.0 132.043061449
@gain 19 21 0.0 5.0 20.0 30.0 31.0 32.0 33.0 34.0 35.0 36.0 37.0 38.0 39.0 40.0 45.0 50.0 55.0 60.0 65.0 70.0 76.0
99000000.0 -70.9514483324 -68.5069718727 -53.5651872197 -43.4116372958 -42.3232315039 -41.3344880817 -40.2911793557 -36.9633105761 -35.8189944385 -35.3870528846 -34.2356428892 -33.5173426056 -32.4747201472 -31.4948373177 -26.4870642583 -21.585988146 -19.0056480756 -13.8877406957 -9.0236500396 -4.71066702909 -0.153477147959
179000000.0 -72.1324482258 -69.3485313489 -54.3354567832 -44.1253685475 -43.0391277682 -42.0551871188 -41.0087648129 -37.415762307 -36.2687309474 -36.2596328973 -35.110422146 -34.3907893092 -33.3117299104 -32.2639772825 -27.1108225241 -22.4211579122 -19.7313768338 -14.5210499522 -9.7321877777 -5.18059087612 0.104106076185
769000000.0 -72.9192620674 -69.9901264749 -55.2421982472 -45.0255605515 -43.9882307293 -43.0002976174 -41.8990052169 -42.3481886695 -41.2090501897 -39.7903992806 -38.6409189575 -37.9219372536 -36.8288854809 -35.8503821404 -30.8532945391 -25.9496434287 -20.9407003736 -15.7519445729 -10.965783149 -6.15845889493 -0.115280480871
1029000000.0 -73.1358681581 -70.3758074349 -55.6716329539 -45.3859250902 -44.1876681738 -43.1957161022 -42.1469033832 -42.6207030661 -41.4694819786 -39.6953513171 -38.5396033238 -37.8255847433 -36.7825596312 -35.5920070404 -30.7414546595 -25.8505884646 -21.0520884203 -15.8901395674 -11.1103188067 -6.2626544781 -0.147527634796
1049000000.0 -73.1750989623 -70.3775855359 -55.5038060817 -45.3755828922 -44.0705396623 -43.0307045007 -41.9871621903 -42.5925523196 -41.4442955275 -39.6051895797 -38.4510337213 -37.7343927627 -36.6928605517 -35.648320335 -30.7048439366 -25.7997830593 -20.9401392454 -15.7848097497 -10.9872462717 -6.19352349707 -0.041690635973
1889000000.0 -73.264807054 -70.5586478396 -55.6752112909 -46.0955745193 -45.3149437151 -44.2278370949 -43.2490404858 -42.2083703621 -41.5249953629 -40.8095358279 -39.3342814217 -38.1866213755 -37.4671368845 -36.423375863 -31.4927440415 -26.2551521642 -21.7088006798 -16.5590234895 -11.7493140335 -6.91343524756 -0.687116647284
2339000000.0 -74.0402224373 -71.382025246 -56.6864196961 -47.0566944882 -46.2920881063 -45.2433152637 -44.2590565687 -43.21928535 -41.0570540736 -40.3412029338 -38.8330643926 -37.6973052042 -36.9884343507 -35.9475400357 -31.0097384569 -25.7852566225 -21.6029006311 -16.4666539176 -11.6426347224 -6.81660121777 -0.498568152699
2669000000.0 -73.7203658302 -71.0047727293 -56.3478289136 -46.8411860878 -46.0812453931 -45.0433058009 -44.0481235506 -43.0162238712 -40.5169239974 -39.8044251362 -38.4038832931 -37.2352098076 -36.5283129913 -35.4852736033 -30.548249663 -25.33925287 -21.4295221184 -16.2624536774 -11.4359876161 -6.57046471486 -0.206496644584
2879000000.0 -74.1978579579 -71.4906141799 -56.8972245546 -47.45114567 -46.6711259313 -45.5986286179 -44.6176086991 -43.5786728586 -40.1286573986 -39.2915141814 -38.0351804906 -36.9108944808 -36.1959262 -35.1607642461 -30.2326752347 -25.0044792171 -21.0605301298 -16.0881381488 -11.3385519563 -6.47952977681 -0.0679381648747
3000000000.0 -74.7206826908 -71.6682647695 -56.8996312971 -47.3478432804 -46.5885307301 -45.5397081906 -44.5180834767 -43.5147558014 -39.9280342094 -39.2064480308 -37.9868439514 -36.8318498237 -36.1272668845 -34.8682605571 -30.0989814891 -25.058178745 -21.512109482 -16.3791741813 -11.5496688898 -6.70045749258 -0.241266978871
3001000000.0 -73.0524468111 -69.9618845892 -55.1754525129 -45.7013097517 -45.0003475741 -43.9715531301 -43.0134723887 -41.9399196153 -40.8883904241 -40.1797120412 -38.5878954957 -37.4221552007 -36.7108863058 -35.7000421009 -30.7430870078 -25.5233845503 -21.3635744025 -16.1430228012 -11.4247274969 -6.38051794386 -0.0119451194924
3201000000.0 -72.34613098 -69.5919154632 -54.6308123027 -45.1397281577 -44.4520872389 -43.4178434833 -42.4338564649 -41.4306609757 -40.5037407706 -39.7835170932 -38.2747007859 -37.1313619068 -36.4086647202 -35.3927508435 -30.4218922527 -25.2498211447 -21.3232586154 -16.1596386103 -11.3797920387 -6.45598089196 0.095959136434
3499000000.0 -71.7950699873 -69.0271053388 -54.3433877399 -44.8739151721 -44.2005672585 -43.1596710555 -42.18543462 -41.1454432474 -40.3716921389 -40.4197163294 -38.7645476737 -37.2382915832 -36.4179138662 -35.3465348436 -30.4112096045 -25.213837751 -21.4418178645 -16.212290159 -11.5345381789 -6.48694823034 -0.109082164703
3969000000.0 -72.2253255178 -69.261914438 -54.9549003377 -45.5174377331 -44.8581998052 -43.8081800338 -42.8303209873 -41.739404956 -39.8611101954 -39.1279110247 -37.8181730102 -36.666837012 -35.8599383261 -35.2870283441 -30.2206628676 -24.8163446681 -21.3563141994 -16.1673034047 -11.3909491389 -6.43707564799 0.148995698777
4479000000.0 -72.9214901083 -72.0086082188 -56.7237780213 -46.2170750325 -45.5467577816 -44.4989389168 -43.5143421909 -42.4846038491 -41.46448001 -40.3387351916 -40.8179479217 -39.6693673916 -38.964961256 -37.7776609214 -32.8342002143 -27.9033281959 -21.512152624 -16.3768470596 -11.5760103288 -6.62793117127 -0.0194229722634
4989000000.0 -72.6101981833 -72.2280457111 -56.7870608292 -46.3086700832 -45.7450674294 -44.6826614339 -43.7186197468 -42.657885836 -41.6466141676 -40.5369741758 -40.7485257851 -39.5682404174 -38.8501735717 -37.980856673 -33.0417692996 -28.0966211147 -22.2658515328 -17.0330930689 -12.2850781315 -7.34659804221 -0.665113309393
5269000000.0 -72.6605415614 -71.4173520261 -56.5945682059 -46.1942032389 -45.5077240746 -44.4527474937 -43.4755546421 -42.4164589937 -41.4019433338 -40.3096897616 -40.5794201243 -39.4277278157 -38.6928860133 -37.938305945 -32.9963765289 -28.0524616869 -22.302144595 -17.1730652519 -12.3397356957 -7.4154608672 -0.700486145044
5609000000.0 -70.9981464134 -69.7412191772 -55.1201466661 -44.7771631947 -44.081423903 -43.0425858533 -42.0526559099 -41.0064298395 -39.9831682901 -38.8528329556 -38.3571434583 -37.2730002893 -36.443127134 -36.0353063424 -30.9877972259 -26.0210702804 -20.3989367368 -15.282966474 -10.4672280974 -5.5116481727 1.22542361841
5999000000.0 -71.962510439 -70.7221225537 -56.3021539461 -45.9628932858 -45.2066219022 -44.1616701062 -43.168699828 -42.1564613351 -41.1464354359 -40.0295834244 -39.4218494166 -38.2384932609 -37.5235899953 -37.0691337722 -32.0856295609 -27.1792339357 -21.8358436455 -16.6456763549 -11.8792066811 -6.88303956401 -0.136181527433
