@ref 30 1 76.0
99000000.0 130.175454491
132000000.0 130.487207913
699000000.0 132.698409202
709000000.0 132.588867772
800000000.0 132.834629818
1029000000.0 131.751812364
1389000000.0 131.176276818
1459000000.0 130.846871102
1789000000.0 128.338083048
1909000000.0 128.151850412
1979000000.0 128.103004459
2289000000.0 128.661511772
2599000000.0 127.332547941
2699000000.0 127.366198683
2739000000.0 127.282096144
2900000000.0 126.160606967
3000000000.0 125.233367646
3001000000.0 139.992549328
3150000000.0 137.893141329
3392000000.0 135.995652806
3500000000.0 136.800748544
3789000000.0 138.191837975
4032000000.0 137.831055561
4200000000.0 137.860419327
4492000000.0 138.066999237
4700000000.0 136.796820359
4909000000.0 135.336481968
5419000000.0 134.497443803
5949000000.0 131.884340494
5999000000.0 131.674844261
@gain 19 21 0.0 5.0 20.0 30.0 31.0 32.0 33.0 34.0 35.0 36.0 37.0 38.0 39.0 40.0 45.0 50.0 55.0 60.0 65.0 70.0 76.0
99000000.0 -71.0816564187 -68.0205539488 -53.6458045669 -43.5682475319 -42.5645038064 -41.5617255052 -40.5478721013 -37.1928388508 -36.0278268393 -35.669999355 -34.519006298 -33.781669438 -32.7481081077 -31.7737992174 -26.7619850381 -21.8343820905 -19.2645372347 -14.1035960679 -9.29149989844 -4.93894486888 -0.15250139398
179000000.0 -72.328985363 -69.2974645438 -54.3816613218 -44.1976768441 -43.1789471312 -42.185271152 -41.1502274408 -37.5756294104 -36.4123871443 -36.5010692908 -35.3502612761 -34.6122142025 -33.5759182214 -32.5686800224 -27.5870646305 -22.6659999223 -19.9537399053 -14.7864366452 -9.98179164344 -5.41206697163 0.0322487643367
769000000.0 -72.9956405473 -70.0339328281 -55.2891317605 -45.0609792157 -43.9840714057 -43.0333116696 -42.0515299722 -42.3992583168 -41.2204597368 -39.7797415663 -38.6349722249 -37.9202885493 -36.8897832443 -35.9009269851 -30.9056716897 -26.0105032399 -20.9890659597 -15.8328138912 -10.9677546134 -6.30149350761 -0.102417719649
1029000000.0 -73.208762204 -70.2347455136 -55.667945262 -45.3361020493 -44.2951213884 -43.3048351012 -42.2864106424 -42.6122302746 -41.4612460721 -39.67300802 -38.5237545992 -37.7919590953 -36.7616515127 -35.7680876793 -30.763154419 -25.8703918964 -21.1055619536 -15.9572294268 -11.0919565804 -6.35128881695 -0.104335482671
1049000000.0 -73.0586338367 -70.1973557406 -55.5000420371 -45.1674300178 -44.1345620845 -43.14256134 -42.1221573419 -42.5728515054 -41.419609649 -39.607624043 -38.4582054673 -37.725643037 -36.6913101205 -35.7019386218 -30.7006762073 -25.7656829808 -20.9745177557 -15.828782103 -11.0052149494 -6.24759852539 -0.00848876224615
1889000000.0 -73.062996073 -70.2280217967 -55.483561002 -45.9183143293 -45.1900046401 -44.163085675 -43.1542387764 -42.1401417109 -41.4333876971 -40.6968563333 -39.277625754 -38.1321005903 -37.4033170335 -36.3686382596 -31.392777967 -26.1714119896 -21.6391629844 -16.5162833528 -11.6844950498 -6.88842776178 -0.560429897168
2339000000.0 -73.9676511975 -71.0741180588 -56.4648398179 -46.977239332 -46.2351471419 -45.1997279363 -44.1768294725 -43.1646444809 -40.9819243994 -40.2436665934 -38.8187398028 -37.6651323309 -36.9233981077 -35.9109709465 -30.9718182005 -25.7231974645 -21.5025658149 -16.3427694192 -11.5255932345 -6.70715407143 -0.312012845643
2669000000.0 -73.822930048 -70.7345372714 -56.6538538809 -47.0110595109 -46.3893989265 -45.4445691881 -44.2472900521 -43.1663825805 -40.56461747 -39.8923833231 -38.6590178225 -37.3499895471 -36.5799882234 -35.5500101269 -30.603202889 -25.3760978124 -21.4188121304 -16.271903392 -11.4256933421 -6.61579173182 -0.204116320459
2879000000.0 -74.1148306804 -71.2440338774 -56.8697317998 -47.3706120499 -46.6349391226 -45.5901333561 -44.5968617472 -43.4257464904 -40.0755724515 -39.3727785217 -38.0979582902 -36.933751552 -36.2001037078 -35.1700317428 -30.2035379625 -24.9934252247 -21.2699616154 -16.117753118 -11.3041404949 -6.45891201717 -0.0557754868691
3000000000.0 -74.2928101436 -71.3121175117 -56.6818120459 -47.21260914 -46.4551292518 -45.4057764475 -44.4275174047 -43.4141467681 -39.8585997419 -39.096023732 -37.9398597135 -36.8110727295 -36.0464932506 -35.0133808602 -30.0678253181 -24.8581796069 -21.3921514844 -16.3102593614 -11.4499126742 -6.5937018081 -0.123706812043
3001000000.0 -72.7891256332 -69.9073244812 -55.3765197552 -45.9749605675 -45.2428735782 -44.2244178908 -43.2233731709 -42.2108780123 -41.1085115174 -40.4149901246 -38.8805863874 -37.7381835567 -37.0016842147 -35.9767415527 -31.0222075721 -25.7834325664 -21.6157286379 -16.4853864481 -11.7091702904 -6.77438804969 -0.302605637785
3201000000.0 -72.3432544991 -69.3757593644 -54.6786991006 -45.2399969442 -44.546932711 -43.3484785488 -42.4810505473 -41.491685526 -40.6026006647 -39.8563385902 -38.4708544241 -37.2872295922 -36.5560828843 -35.5210162507 -30.5599422665 -25.3545620864 -21.4103838436 -16.2772959191 -11.4546206473 -6.48870747138 0.000525495745023
3499000000.0 -71.7696651543 -68.7271843795 -54.3253887958 -45.4302234035 -44.711434926 -43.7246283515 -42.7111250836 -41.693272893 -40.2599272506 -39.4343451535 -38.3513209726 -37.2107369681 -36.4855129228 -35.4489572156 -30.493940785 -25.2862854409 -21.4419786333 -16.358971243 -11.5651595328 -6.65350826325 -0.159991553146
3969000000.0 -72.1513643542 -69.1625429254 -55.0703731867 -45.7320856339 -44.9944601427 -44.0058537148 -43.0107733561 -41.9893230959 -40.0394993388 -39.2803173926 -38.025702354 -36.9108732027 -36.1538369865 -35.1290439247 -30.1895358847 -24.9756874596 -21.4371309934 -16.3099630664 -11.4926504905 -6.52749150998 0.0751178334212
4479000000.0 -72.6973611164 -71.8751065012 -56.9728080416 -46.3875347933 -45.6319548385 -44.5848701709 -43.5814736935 -42.5640946777 -41.5431816742 -40.4252967641 -40.8566836428 -39.7176059839 -38.981629868 -37.8317945591 -32.8951949156 -27.9308107251 -21.4502242237 -16.3224117677 -11.5070925736 -6.59896768927 -0.00526094242889
4989000000.0 -72.7723898351 -71.4556934325 -56.9106037338 -46.5753205844 -45.8368435324 -44.823961485 -43.8239600096 -42.8025934285 -41.7611155723 -40.6317075838 -40.8119708798 -39.6387728954 -38.9284385516 -38.0969933571 -33.1411237441 -28.2025534984 -22.3030062125 -17.1392890193 -12.3247568634 -7.37148822248 -0.675084019336
5269000000.0 -72.8382203472 -71.4534383905 -56.807302093 -46.4876155308 -45.6510061605 -44.6175844989 -43.6544886092 -42.6191454381 -41.5886395564 -40.4584862259 -40.7141122763 -39.544605448 -38.8096444888 -38.1246852512 -33.1455444763 -28.1960521289 -22.3495746016 -17.2418943678 -12.4161093705 -7.48749430489 -0.789011431967
5609000000.0 -71.1108462815 -69.6876777454 -55.1836118887 -44.8843511557 -44.142000597 -43.0894259191 -42.1466070007 -41.1094170185 -40.0873576786 -38.948806295 -38.5025240791 -37.3317246772 -36.6124805601 -35.9505635405 -30.9847654298 -26.0572234837 -20.3946106903 -15.2263849658 -10.4391595145 -5.51790135611 1.20591742148
5999000000.0 -72.0767792085 -70.7069700222 -56.3959244102 -46.066689482 -45.3599867526 -44.3260567978 -43.3179529574 -42.2906328198 -41.2471563922 -40.1512054167 -39.5433419461 -38.3722932205 -37.6435657253 -37.2051790635 -32.2593018539 -27.1623123637 -21.8231864996 -16.7248929251 -11.8157669981 -6.97145555411 -0.14126764163
