@ref 30 1 76.0
99000000.0 129.448953324
139000000.0 130.054487391
699000000.0 131.889326617
719000000.0 132.040507465
800000000.0 131.982322508
1029000000.0 131.033900279
1389000000.0 130.499997666
1459000000.0 130.054751854
1799000000.0 127.676432787
1919000000.0 127.614680454
1979000000.0 127.882817916
2289000000.0 127.928363947
2599000000.0 126.855713136
2699000000.0 127.071118809
2739000000.0 127.140680052
2900000000.0 125.675913668
3000000000.0 124.961299648
3000100000.0 139.592085906
3155000000.0 138.200132313
3395000000.0 136.513307276
3499000000.0 137.051033917
3789000000.0 137.948151142
4032000000.0 137.530849119
4200000000.0 137.113570579
4492000000.0 137.251181387
4700000000.0 135.943771936
4919000000.0 133.556802197
5419000000.0 132.281044215
5949000000.0 127.895137992
5999000000.0 127.800816284
@gain 19 21 0.0 5.0 20.0 30.0 31.0 32.0 33.0 34.0 35.0 36.0 37.0 38.0 39.0 40.0 45.0 50.0 55.0 60.0 65.0 70.0 76.0
99000000.0 -70.796238292 -67.9681996814 -53.478201509 -43.2999644835 -42.169145819 -41.1870658356 -40.1478997719 -36.8890044301 -35.7405411146 -35.3999202491 -34.2429095383 -33.5266317008 -32.4764115572 -31.5007326368 -26.4950562454 -21.5728793787 -19.0545721053 -13.8613973298 -9.08696112441 -4.73379803336 -0.0057936970511
179000000.0 -72.127208932 -69.2397114977 -54.4057129324 -44.1665993892 -43.0502292851 -42.0667815312 -41.0281249675 -37.4758769204 -36.3215727159 -36.3998331948 -35.2531405748 -34.5319678311 -33.4819475246 -32.5045685285 -27.4918695548 -22.578337702 -19.8872061885 -14.7126619157 -9.93833169357 -5.36523014858 -0.0195307844199
769000000.0 -72.6202768273 -69.7687466703 -55.219451671 -45.0141540393 -44.1650926797 -43.3531913492 -41.6785714186 -42.3356031233 -41.2000651152 -39.8598697877 -38.6607620596 -37.9437885549 -36.8988660918 -35.9238384924 -30.92085368 -26.0366022098 -21.0723398103 -15.8973179812 -11.071464297 -6.3654214263 -0.174192790361
1029000000.0 -72.4591258151 -69.7494683232 -55.2830978001 -45.044209119 -43.9514139308 -42.9764462687 -41.9332312939 -42.5079434858 -41.3814448738 -39.6635682212 -38.4588541713 -37.7550793091 -36.7090398155 -35.7302671204 -30.7208794376 -25.8092188994 -21.0524039708 -15.9138942425 -10.9833738693 -6.25884503745 -0.110396518606
1049000000.0 -72.5957697836 -69.7839012026 -55.1275441434 -44.8920187083 -43.8033901448 -42.8250627073 -41.7942747401 -42.5198620977 -41.3590619699 -39.5738240078 -38.4033765066 -37.699516104 -36.6513506278 -35.6742502308 -30.6661253187 -25.7583842287 -20.9375670943 -15.7855247027 -10.93234915 -6.20450087232 -0.0194954576571
1889000000.0 -72.6468480093 -69.759764585 -55.0663977007 -45.5684785046 -44.8262729373 -43.7848862531 -42.7918996812 -41.7693285822 -41.4327835123 -40.7149271108 -39.2671843325 -38.0905390526 -37.383976966 -36.3568949509 -31.3856714932 -26.1519461078 -21.6535595892 -16.4736523605 -11.6754595171 -6.86025125734 -0.498557479316
2339000000.0 -73.3400538262 -70.5418372858 -56.0442207875 -46.6203786873 -45.862470863 -44.7809701665 -43.8014649212 -42.7746758864 -41.1418805322 -40.5693439252 -39.112384828 -38.1224403524 -37.1922756817 -36.0983609887 -31.1217644041 -25.9043884767 -21.746532521 -16.5739482274 -11.813949528 -6.96076526372 -0.520603918039
2669000000.0 -73.6113242026 -70.7587725419 -56.3490969941 -46.947885413 -46.3750625672 -45.2714433732 -44.1353048728 -43.2172123603 -40.7272285751 -40.0010877656 -38.5579072208 -37.4150197111 -36.693567012 -35.6458330549 -30.7158797688 -25.4773273583 -21.3994422865 -16.2433822975 -11.4330601126 -6.5810681992 -0.11305385858
2879000000.0 -74.2974670345 -71.3697879162 -57.0284011769 -47.5745542629 -46.8197000599 -45.7695038172 -44.7760893411 -43.7455037048 -40.1746136172 -39.4709105977 -38.0786364292 -36.9241274428 -36.2101776462 -35.16222037 -30.2152666227 -24.9829963401 -21.1475545913 -15.9871676918 -11.1980042671 -6.32687197502 0.181555884568
3000000000.0 -74.1862976696 -71.3063810076 -56.9500751322 -47.4962328433 -46.6370818459 -45.5927936074 -44.5626023849 -43.5305715339 -39.9080016609 -39.1994124552 -37.9719765304 -36.7984893132 -36.0776881991 -35.0453555972 -30.1079359151 -24.8860487203 -21.5596741098 -16.3646253544 -11.4987555843 -6.66649727786 -0.0943596097632
3001000000.0 -73.0214641426 -70.2244125921 -55.2518516644 -46.133410332 -45.5002813789 -44.3515025645 -43.450498105 -42.454148646 -41.5694255146 -40.8442800432 -39.2700771343 -38.1390371023 -37.4025446885 -36.3690186033 -31.4254311594 -26.192476311 -21.9404074078 -16.7830130484 -11.9782468802 -7.02796800599 -0.288049195229
3201000000.0 -72.3253298342 -69.5514858572 -55.1243378246 -45.5492972176 -44.8271053038 -43.8366018808 -42.8210113361 -41.8006358313 -40.9684148519 -40.250280266 -38.7441249077 -37.5939623847 -36.8796084691 -35.836615486 -30.9146742295 -25.7842079001 -21.7066007209 -16.5251732611 -11.6322068349 -6.73191987305 -0.0477534070586
3499000000.0 -72.2516000206 -69.5374576864 -54.9684618843 -45.433077918 -44.7012233606 -43.6645066996 -42.7025174014 -41.655554473 -40.9008502509 -40.1757667281 -38.7362479005 -37.5763484788 -36.9051003018 -35.8391489147 -30.913963124 -25.6929920634 -21.7825907671 -16.6398942649 -11.9088528512 -6.96157363324 -0.165131365177
3969000000.0 -73.0213081846 -70.3010091711 -56.1611534198 -46.6102025718 -45.8592916755 -44.8475272764 -43.7612174757 -42.8317550965 -40.6190542234 -39.915971323 -38.5864381341 -37.4328978784 -36.7186286562 -35.6995599842 -30.7563639274 -25.5585143818 -21.9798460824 -16.7775483772 -11.9829593012 -6.93550965387 0.153279687447
4479000000.0 -73.4716916567 -72.4867586386 -57.4941371933 -46.939341664 -46.2376798961 -45.1967233986 -44.2146362167 -43.1698805635 -42.1586357546 -41.0328406957 -41.3057548835 -40.1525008867 -39.4325870216 -38.2655629028 -33.3493762391 -28.3870920892 -21.9563184014 -16.8049732473 -11.7608599238 -6.99857328787 -0.206156492695
4989000000.0 -71.9464352804 -71.0038967472 -56.3214548811 -45.794903068 -45.0768046238 -44.0513161675 -43.1998233458 -42.1838406307 -41.0296307961 -39.8805629713 -40.2838540675 -39.1169728739 -38.5521855484 -37.6190080854 -32.6592255021 -27.697340274 -21.9131964635 -16.7688481292 -11.9413228848 -6.96416639705 -0.0767868503276
5269000000.0 -72.6950711454 -71.7930559127 -56.9749594019 -46.7158395048 -45.8034212183 -44.7519584806 -43.8016487601 -42.7601490663 -41.7517950811 -40.6527807127 -41.3096772264 -40.1178344489 -39.3983796819 -38.690614174 -33.7549940508 -28.8014975059 -23.1280165142 -17.9240299372 -13.149942378 -8.20813030286 -1.23105575026
5609000000.0 -70.1907413627 -69.0852722755 -54.9230174516 -44.5407128231 -43.8370339989 -42.7874874607 -41.8003304638 -40.817513744 -39.7965118005 -38.6976657812 -38.4227454146 -37.2564187728 -36.387886862 -35.574455853 -31.0395565643 -25.9716403159 -20.2479278373 -15.1869929395 -10.361332356 -5.34684624583 1.62652177756
5999000000.0 -72.1442612217 -71.1457246926 -56.871470886 -46.4218146428 -45.7437416982 -44.709364064 -43.7088942891 -42.721063085 -41.6536340981 -40.533524132 -39.9332603794 -38.7802277452 -38.0473717953 -37.5444655705 -32.6329496903 -27.7056099118 -22.192246239 -17.0720605506 -12.2470016106 -7.28266807629 -0.172714333198
