@ref 30 1 76.0
99000000.0 130.434212904
132000000.0 130.769432849
699000000.0 132.682937286
709000000.0 132.519863128
800000000.0 132.689060485
1029000000.0 131.50446664
1389000000.0 130.895083552
1459000000.0 130.624148104
1789000000.0 128.161325673
1909000000.0 128.296488965
1979000000.0 127.843356519
2289000000.0 128.497987877
2599000000.0 127.085145405
2699000000.0 127.041211033
2739000000.0 126.955492082
2900000000.0 125.967071306
3000000000.0 125.015681206
3001000000.0 139.434461585
3150000000.0 137.301084086
3392000000.0 135.545835782
3500000000.0 136.52415022
3789000000.0 137.943184687
4032000000.0 137.5666956
4200000000.0 137.598421644
4492000000.0 137.558075031
4700000000.0 136.169750728
4909000000.0 134.768222849
5419000000.0 134.119490154
5949000000.0 131.340204967
5999000000.0 131.132650175
@gain 19 21 0.0 5.0 20.0 30.0 31.0 32.0 33.0 34.0 35.0 36.0 37.0 38.0 39.0 40.0 45.0 50.0 55.0 60.0 65.0 70.0 76.0
99000000.0 -71.9071705579 -68.8327825151 -54.0622427203 -43.85975047 -42.9321837811 -41.9680990084 -40.9495156113 -37.4854536295 -36.3290629568 -35.922426362 -34.758866655 -34.0492905937 -33.0077394804 -32.02622403 -27.0030066098 -22.1068646772 -19.4121043008 -14.2234757694 -9.45499677891 -4.99625683769 -0.0850613828321
179000000.0 -73.0281653524 -69.967479828 -54.8138167531 -44.6601440913 -43.6396034184 -42.6618206394 -41.6348980164 -37.9066767976 -36.7483322016 -36.7599076991 -35.5994586307 -34.8907394186 -33.8499138818 -32.8691074106 -27.8463944697 -22.9503259865 -20.0706574177 -14.8599670392 -10.0868185006 -5.23074506349 0.198734041232
769000000.0 -73.5774332154 -70.6245435389 -55.6331051573 -45.3429653972 -44.3434861943 -43.3649686598 -42.337322446 -42.6247505717 -41.583296361 -40.0956872056 -38.9315437499 -38.1909839252 -37.1244609142 -36.1518840019 -31.1504092854 -26.2485916026 -21.1262297281 -15.9453911109 -11.1706485666 -6.27926231046 -0.0645357793894
1029000000.0 -73.4896445282 -70.4648524862 -55.7395011606 -45.4459203856 -44.4259690543 -43.4673040175 -42.4501535839 -42.9253426668 -41.7673140704 -39.9050188708 -38.7431633425 -38.031426606 -36.9880551974 -35.9497780018 -30.9628573789 -26.0521846709 -21.1940292041 -16.0355938575 -11.2742981079 -6.34805370632 -0.0330212852421
1049000000.0 -73.6537873975 -70.4652435498 -55.5468765632 -45.2969521133 -44.2841589245 -43.279570007 -42.2651030616 -42.8756880231 -41.7207709789 -39.7965959795 -38.6304059667 -37.9237227218 -36.8795740455 -35.8761548803 -30.8885935233 -25.9765497747 -21.0632369126 -15.9097509514 -11.1380237865 -6.25857691359 0.153778305359
1889000000.0 -73.6907021828 -70.691218062 -55.7473070216 -46.6229936704 -45.6356585884 -44.5311558155 -43.5530945375 -42.5387824979 -41.9950310194 -41.0852936502 -39.6072558507 -38.5600557527 -37.8692177375 -36.8346866062 -31.8866328449 -26.6501029202 -22.1819858441 -17.0282560174 -12.2421179996 -7.30447173005 -0.908380228832
2339000000.0 -74.2408800327 -71.2833369993 -56.5502993461 -47.0339314508 -46.3418446493 -45.3075739826 -44.3188924416 -43.3094073823 -41.2350306359 -40.5453192061 -38.9588759921 -37.7960529993 -37.0998980341 -36.0563858455 -31.1172949259 -25.890046171 -21.6974587521 -16.565596667 -11.7481570196 -6.46793271863 -0.311051962893
2669000000.0 -73.9032878158 -71.3156823652 -56.5348289208 -47.0171747419 -46.315546252 -45.285928434 -44.2992911834 -43.1821577783 -40.6607531093 -39.9254073311 -38.5375041283 -37.3690291254 -36.6744292553 -35.6237050572 -30.6822379403 -25.4697020494 -21.5874099304 -16.4315932785 -11.631973235 -6.67286682767 -0.120455014629
2879000000.0 -74.5392430389 -71.5263743111 -56.9261114695 -47.6051378631 -46.8968431752 -45.8358980805 -44.8596466661 -43.8346909674 -40.283312862 -39.5793320512 -38.1786388761 -37.0140973152 -36.3108992216 -35.2701949828 -30.337714135 -25.103941382 -21.449926104 -16.2939064858 -11.4945625601 -6.55047350218 0.32434556486
3000000000.0 -74.2840550252 -71.5662700006 -56.8535590566 -47.7556095046 -47.052266593 -45.9791807252 -45.0377547304 -43.790974808 -39.9853660432 -39.268664393 -37.9946449089 -36.8139863978 -36.1067472891 -35.056896779 -30.1411105913 -24.9022002929 -21.538614724 -16.4434795853 -11.586904287 -7.04268789538 -0.128648289662
3001000000.0 -72.6665775817 -69.9277997974 -55.3335541825 -45.9267481334 -45.17999793 -44.139321715 -43.179081654 -42.129582094 -41.1695606588 -40.4716071053 -38.7802445579 -37.5996712595 -36.8973022745 -35.8860937914 -30.922612624 -25.7105634486 -21.5851493398 -16.4185517699 -11.6803066224 -6.73978458808 -0.179480346159
3201000000.0 -72.0073478788 -69.0528685403 -54.6290963289 -45.2633156064 -44.5525538984 -43.5103249814 -42.5561239682 -41.5506895886 -40.7700023854 -40.0594664205 -38.458892072 -37.2948332555 -36.5847795106 -35.5667984359 -30.5908793471 -25.4213565573 -21.5268304278 -16.3586639374 -11.6083280927 -6.64362566582 0.000855543655007
3499000000.0 -71.4221367587 -68.9582452368 -54.3794104005 -44.9804780833 -44.2695097206 -43.2201417986 -42.2336605531 -41.1967546637 -40.700326457 -39.8408048973 -38.2627855168 -36.9929064977 -36.4867372279 -35.4954157945 -30.569171419 -25.366465293 -21.6439331344 -16.4928905197 -11.7772238929 -6.80866310602 -0.221592439536
3969000000.0 -71.9000082076 -69.1647739389 -55.0072549958 -45.6993044441 -44.9854562129 -43.8964292462 -42.9341992631 -41.9211643871 -40.1301638598 -39.4060801046 -38.0228549585 -36.858818501 -36.1350495029 -35.0850096067 -30.1536632816 -24.9567981741 -21.5479234931 -16.3814079516 -11.6161347845 -6.62245377377 0.0860663247892
4479000000.0 -72.8364969186 -71.7609552357 -56.6571209119 -46.4320011598 -45.7560816946 -44.7007410379 -43.7057280539 -42.7038360342 -41.6810539036 -40.5486197682 -41.0542173572 -39.8877578912 -39.1899045285 -37.9383743337 -33.0052898095 -28.0589829441 -21.6691509421 -16.5516426193 -11.7685198269 -6.77574484937 -0.0489975464984
4989000000.0 -72.0648063936 -71.7036592285 -56.6687055238 -46.5195510401 -45.8330642996 -44.7750064157 -43.7128504843 -42.7337285695 -41.7430713694 -40.6374167564 -40.9543473897 -39.7661895463 -39.0573903831 -38.1273122736 -33.1981399995 -28.2359804717 -22.2872054034 -17.5131213707 -12.557385311 -7.53166519578 -0.736472628771
5269000000.0 -72.0445525218 -71.4145304354 -56.8185916729 -46.3421192924 -45.584097656 -44.5244193463 -43.5347167549 -42.4981019654 -41.4803789804 -40.3689466251 -40.7499246821 -39.5787604495 -38.857689723 -38.0567293301 -33.12491933 -28.1625040804 -22.4495865084 -17.3434371481 -12.5072589717 -7.56391388437 -0.849604712742
5609000000.0 -70.8807421006 -69.5752802228 -55.0543880208 -44.8660323284 -44.1439884852 -43.1045623787 -42.11555178 -41.0901346714 -40.0591313292 -38.9166371207 -38.7195789653 -37.5394385755 -36.8321209929 -36.1033035304 -31.1504419587 -26.1539543636 -20.6206985307 -15.4879682532 -10.7163595214 -5.73893588475 1.12700460483
5999000000.0 -71.4819971664 -70.570510172 -56.2999510296 -46.118821197 -45.351252641 -44.29729782 -43.2077092616 -42.2908985838 -41.2935398405 -40.1746125329 -39.7586968946 -38.5548290357 -37.8493359612 -37.3723257512 -32.3977148965 -27.4837226401 -22.1701040126 -17.0444637004 -12.2592927997 -7.21955760177 -0.383509656231
