@bands 8 2 0 1
0 1000000.0 439999999.0
1 440000000.0 579999999.0
2 580000000.0 809999999.0
3 810000000.0 1169999999.0
4 1170000000.0 1694999999.0
5 1695000000.0 2539999999.0
6 2540000000.0 3839999999.0
7 3840000000.0 6000000000.0
@b0 9 1 255.0
1000000.0 127.705
2000000.0 127.611
4000000.0 127.775
10000000.0 127.783
75000000.0 127.698
225000000.0 116.466
325000000.0 113.666
440000000.0 112.904
480000000.0 112.909
@b1 6 1 255.0
400000000.0 120.254
440000000.0 121.194
550000000.0 120.942
580000000.0 119.783
600000000.0 119.238
620000000.0 118.145
@b2 6 1 255.0
540000000.0 119.338
580000000.0 120.219
600000000.0 120.270
680000000.0 120.474
810000000.0 118.300
850000000.0 117.182
@b3 6 1 255.0
780000000.0 119.043
810000000.0 119.298
890000000.0 119.791
1030000000.0 119.411
1170000000.0 117.703
1210000000.0 117.197
@b4 7 1 255.0
1130000000.0 118.140
1170000000.0 118.532
1240000000.0 119.399
1510000000.0 119.064
1610000000.0 117.817
1695000000.0 117.352
1735000000.0 116.968
@b5 7 1 255.0
1665000000.0 117.565
1695000000.0 117.715
1800000000.0 118.116
2400000000.0 117.120
2500000000.0 117.130
2540000000.0 116.781
2580000000.0 116.618
@b6 9 1 255.0
2500000000.0 116.778
2540000000.0 117.003
2600000000.0 117.006
2800000000.0 117.509
3000000000.0 116.630
3500000000.0 113.378
3800000000.0 112.540
3840000000.0 112.471
3880000000.0 112.360
@b7 5 1 255.0
3800000000.0 112.957
3840000000.0 113.264
4000000000.0 114.465
5000000000.0 109.920
6000000000.0 109.024
@gain 5 4 195.0 234.0 235.0 255.0
500000000.0 -29.656 -10.414 -9.963 0.000
3000000000.0 -29.185 -10.337 -9.824 0.000
4999000000.0 -28.669 -9.864 -9.428 0.000
5000000000.0 -27.339 -10.023 -9.519 0.000
6000000000.0 -28.574 -9.660 -9.177 0.000
