@ref 36 1 76.0
99000000.0 130.479981592
299000000.0 131.70610403
499000000.0 132.384278396
699000000.0 132.977614658
899000000.0 133.005350346
1099000000.0 131.707842494
1299000000.0 131.452181343
1499000000.0 130.500107378
1699000000.0 129.742347169
1899000000.0 128.653833339
2099000000.0 128.62180879
2299000000.0 128.914365114
2499000000.0 128.342051653
2699000000.0 127.547025886
2899000000.0 126.489125277
3000000000.0 126.116470395
3001000000.0 139.705655497
3201000000.0 138.867501623
3401000000.0 138.432488678
3601000000.0 138.856490708
3801000000.0 138.915163228
4001000000.0 138.637413548
4201000000.0 138.422714566
4401000000.0 138.31416041
4501000000.0 138.202793395
4601000000.0 138.163630227
4701000000.0 137.708260558
4801000000.0 137.313016222
4901000000.0 136.974805107
5001000000.0 137.558190604
5101000000.0 137.453929942
5201000000.0 137.390722803
5401000000.0 137.709740135
5601000000.0 137.093009938
5801000000.0 135.994008736
5999000000.0 134.546803109
@gain 25 17 0.0 5.0 25.0 30.0 31.0 32.0 33.0 34.0 35.0 36.0 40.0 45.0 50.0 55.0 60.0 70.0 76.0
99000000.0 -71.0314004189 -67.9168672312 -49.0476364382 -43.5950859905 -42.5281117169 -41.5360218665 -40.4986901147 -37.1101118962 -35.950518595 -35.4810138621 -31.5969932552 -26.5883129055 -21.6882572456 -19.0535545089 -13.9199096001 -4.74124835642 -0.120680127709
105000000.0 -71.1819282239 -68.3101775862 -48.8542797491 -43.6315180564 -42.5793116229 -41.5906926699 -40.5460994618 -37.0494166898 -35.8920410598 -35.4724305809 -31.7323670066 -26.6033015507 -21.6765629471 -19.1038226784 -13.7744863107 -4.73854016269 -0.0417009519476
205000000.0 -71.870420664 -68.5383588467 -49.6518231199 -44.2405238005 -43.1785443048 -42.1821407709 -41.1425034711 -37.7575589151 -36.5992421701 -36.6288044852 -32.7494979409 -27.6726058348 -22.8343023732 -19.7714205415 -14.5769715286 -5.2373249058 0.216952455543
305000000.0 -72.1921056656 -69.0624504891 -50.1656916482 -44.7209481451 -43.5500455201 -42.5397609856 -41.4987790561 -39.0936854775 -37.9362753898 -37.9053599994 -33.9840131472 -28.9903693495 -24.0944277952 -20.2780174964 -15.0109807803 -5.61533628231 0.0565807077882
405000000.0 -72.3696367242 -69.4457207129 -49.9636918192 -44.4187818741 -43.6322696669 -42.6692294602 -41.6363857909 -40.4004729667 -39.3646643508 -38.8959822301 -34.9647810326 -29.9776500963 -25.0695032987 -20.604687939 -15.500985258 -5.92985314818 -0.0917593226821
605000000.0 -72.3397309201 -69.4983787644 -50.0072877874 -44.7335060868 -43.6609220491 -42.8090226491 -41.658026907 -41.9431041972 -40.6360953207 -39.514337444 -35.5896151572 -30.6042205363 -25.6941477639 -20.6633487596 -15.4836210723 -5.95908343079 0.0261623957106
1105000000.0 -73.2145561331 -70.3960511132 -50.7718127781 -45.5059081292 -44.4536758645 -43.4215702336 -42.3855888974 -42.7703801074 -41.6179285694 -39.7470455694 -35.8489757337 -30.8677396521 -25.9649364199 -21.2218011027 -16.0558469979 -6.49712033935 -0.327641004202
1605000000.0 -72.6890223736 -69.7785345322 -50.3608034726 -45.7729619516 -45.04412087 -44.0096315105 -43.0225726953 -41.9996313351 -41.237346204 -40.5290350577 -36.1195751386 -31.1463312 -25.9059620677 -20.9717607667 -15.8165439977 -6.2140352573 -0.0441225750131
2105000000.0 -72.5349071195 -69.6952721475 -50.2973399069 -45.7427961346 -45.039367551 -44.0521616062 -42.9970387098 -41.9608106251 -40.9597532438 -40.2439861697 -35.8258962054 -30.8423066896 -25.6055120696 -21.1928820436 -16.0485943117 -6.44411566783 -0.143300185055
2605000000.0 -73.833988018 -70.9537239528 -51.6056901324 -47.1158634405 -46.3567026221 -45.3138481218 -44.3211332951 -43.2977034089 -40.453414223 -39.7463547908 -35.4430092622 -30.4759360403 -25.2636917796 -21.340062996 -16.1921872084 -6.55887323645 -0.242683730311
3000000000.0 -73.7789153339 -70.8617397844 -51.4739448045 -46.9817001847 -46.2217811096 -45.197612834 -44.1964885094 -43.2050472889 -39.7243998693 -38.9820923013 -34.9042168642 -29.9423649084 -24.718968778 -21.3395721238 -16.1430005372 -6.51159123596 -0.154558058595
3001000000.0 -72.1915547274 -69.377576396 -50.2751972296 -45.8201761165 -45.0781304403 -44.0616153932 -43.0340918884 -41.9971860423 -40.9490785288 -40.2185795751 -35.7826853145 -30.8198581781 -25.6149264248 -21.4758852062 -16.3424603286 -6.68403393772 -0.290073798077
3105000000.0 -72.2982440695 -69.3119611941 -50.1360346001 -45.7039795487 -44.9493227891 -43.8996448205 -42.9135971537 -41.856373432 -40.8529633076 -40.1578509153 -35.7185538646 -30.7868998645 -25.5671937517 -21.5584118181 -16.4222995299 -6.85297989587 -0.184375435044
3605000000.0 -71.862991026 -69.0836368615 -50.0070824325 -45.6208091361 -44.9116531433 -43.8429324552 -42.8138618022 -41.7589265517 -40.4106129089 -39.7030998864 -35.4308039219 -30.5226889112 -25.2753162002 -21.6052290363 -16.4359873812 -6.77570443273 -0.156551135925
4105000000.0 -71.7352950226 -70.6791826005 -50.6921279359 -45.5280614024 -44.8338720134 -43.7940472583 -42.8104642626 -41.7608782961 -40.7252457948 -39.592696272 -37.8299391192 -32.8832765975 -27.9393926449 -21.4942672792 -16.3270863037 -6.63184727791 -0.291848832568
4505000000.0 -71.6700138632 -70.5801748538 -50.7440868066 -45.6457443146 -44.9068045831 -43.8630809794 -42.8997747908 -41.841427212 -40.8222745679 -39.7121727716 -37.669623209 -32.745093109 -27.7923535852 -21.6289252449 -16.4705088982 -6.81048198007 -0.207457918672
4605000000.0 -71.9124405604 -70.669727751 -50.7833204095 -45.5898032238 -44.9413047695 -43.9076522553 -42.9216648965 -41.8698213575 -40.9812294664 -39.7616280294 -37.6395597845 -32.7187431413 -27.8043823169 -21.6833508582 -16.5311536339 -6.88259661751 -0.23903624418
4705000000.0 -71.766196573 -70.5098165809 -50.6558435956 -45.6014426328 -44.8456824134 -43.8124862933 -42.8174704548 -41.7630445729 -40.7694319359 -39.6486973615 -37.5170561629 -32.6027857009 -27.6669428654 -21.620884597 -16.5015578059 -6.80837847842 -0.201023568529
4805000000.0 -71.6522613178 -70.4453449938 -50.6430715305 -45.4490374074 -44.8368316754 -43.818849566 -42.8232199722 -41.7931707199 -40.7723457019 -39.65550487 -37.6933488399 -32.6619992726 -27.726488836 -21.769759097 -16.6144753665 -6.91890460586 -0.319035993537
4905000000.0 -71.4900037551 -70.210926754 -50.5512049914 -45.5127991995 -44.7665690749 -43.7313538934 -42.73651529 -41.6980614282 -40.6844729281 -39.5678594894 -37.5298238896 -32.5986540599 -27.6761482078 -21.7784451223 -16.6400165496 -6.95113968451 -0.327022522197
5005000000.0 -71.8619009681 -70.6924948471 -50.8293879376 -45.7174102646 -45.0175810513 -43.9869232111 -42.9802832593 -41.9383568073 -40.9132526584 -39.7838332405 -38.077676558 -32.8626110215 -27.8733156485 -22.0249445826 -16.869767196 -7.19904053608 -0.522065213754
5105000000.0 -71.6307758268 -70.3651984875 -50.575940654 -45.5708566523 -44.8383986402 -43.7951284194 -42.794157672 -41.7956129129 -40.7581427906 -39.6471154099 -37.5071467242 -32.5929527258 -27.6474328145 -21.8180218692 -16.6632358222 -6.98996121468 -0.295158114356
5205000000.0 -71.7425442401 -70.4586727127 -50.7113937294 -45.5861497649 -44.9565544676 -43.9368538343 -42.9495860244 -41.9089362385 -40.8842934619 -39.7533941063 -37.5274428273 -32.5361632882 -27.5629099182 -21.7835233007 -16.601443251 -6.90120376261 -0.20177044776
5605000000.0 -72.1565943726 -70.8308704869 -51.5396781615 -46.5359217655 -45.7926495659 -44.8019374497 -43.8113392564 -42.8831257357 -41.7634883941 -40.6217357508 -37.4713087381 -32.5102966709 -27.5344704715 -21.8940369523 -16.70225032 -6.99342515482 -0.282283825788
5999000000.0 -72.0164802732 -70.7659550605 -51.3177957613 -46.376922444 -45.6406485228 -44.6047950026 -43.5925360254 -42.5264612675 -41.513929061 -40.4326536044 -37.1718697762 -32.2695526095 -27.3024462408 -21.9317433733 -16.7849918811 -7.07068064174 -0.318315300416
