@ref 36 1 76.0
99000000.0 130.71142532
299000000.0 131.957999155
499000000.0 132.644178801
699000000.0 133.229484694
899000000.0 133.286216017
1099000000.0 132.142132649
1299000000.0 131.830955188
1499000000.0 130.83435019
1699000000.0 129.964182053
1899000000.0 128.873560864
2099000000.0 128.805245164
2299000000.0 129.03588443
2499000000.0 128.436236101
2699000000.0 127.68229398
2899000000.0 126.583933385
3000000000.0 126.176313569
3001000000.0 140.325733877
3201000000.0 139.486151599
3401000000.0 138.772600804
3601000000.0 139.22464502
3801000000.0 139.316329088
4001000000.0 139.045402237
4201000000.0 138.806309366
4401000000.0 138.825412603
4501000000.0 138.761464454
4601000000.0 138.754380291
4701000000.0 138.36037661
4801000000.0 137.975506116
4901000000.0 137.670460542
5001000000.0 138.209338556
5101000000.0 138.090220904
5201000000.0 138.002665936
5401000000.0 138.282493085
5601000000.0 137.731598428
5801000000.0 136.540851459
5999000000.0 135.185372548
@gain 25 17 0.0 5.0 25.0 30.0 31.0 32.0 33.0 34.0 35.0 36.0 40.0 45.0 50.0 55.0 60.0 70.0 76.0
99000000.0 -71.3648336573 -68.6063166801 -48.992283446 -43.6891658912 -42.658125752 -41.6904515078 -40.6460552745 -37.2086697933 -36.0407656832 -35.5552795367 -31.7452824066 -26.750935433 -21.84169978 -19.2114613691 -14.0172770755 -4.78797394006 -0.0131300387844
105000000.0 -71.5713790482 -68.7516706076 -49.0344530078 -43.7254329308 -42.708108472 -41.7409233037 -40.6961175377 -37.1525473375 -36.0180696624 -35.6692281452 -31.7714972713 -26.7492301119 -21.8364822714 -19.2654318775 -14.2469434609 -4.81421736428 0.0623248153257
205000000.0 -72.1213822778 -69.7668056605 -49.8140355694 -44.3662792082 -43.345809531 -42.370649171 -41.329376251 -37.929645123 -36.7893627273 -36.8603341211 -32.9831631303 -28.1105892831 -23.0621965179 -19.9775014906 -14.7963645314 -5.34421571146 0.214794726383
305000000.0 -72.5937365428 -69.3986663701 -50.2841568072 -44.8305299703 -43.7603039318 -42.7865593219 -41.7344597619 -39.3138278791 -38.1631910882 -38.1508747233 -34.2297064408 -29.2170097109 -24.3002544441 -20.5133923936 -15.322636974 -5.77556629901 0.0259778041357
405000000.0 -72.6172970756 -69.7237447021 -50.1922880738 -44.6318664178 -43.8881709176 -42.9459869857 -41.9105889128 -40.6432723288 -39.6268560691 -39.1516785089 -35.2141540607 -30.2018825798 -25.280245249 -20.8693547052 -15.6182908877 -6.10187862999 -0.130666366796
605000000.0 -72.8372284484 -69.9125148531 -50.3459552072 -44.992137354 -43.9456451473 -43.0896494049 -41.9509104227 -42.1592185116 -40.8723649139 -39.7491804268 -35.8255188404 -30.8232032807 -25.8927245557 -20.9248948555 -15.7588061938 -6.13801870979 0.000113587788775
1105000000.0 -73.9094928677 -70.8824823951 -51.1981873631 -45.8339868681 -44.810743408 -43.7954236315 -42.7593899498 -42.9794362 -41.8323623522 -39.9586947658 -36.0667751663 -31.0674878168 -26.150549892 -21.4328696276 -16.2810235226 -6.63177319835 -0.403630846601
1605000000.0 -73.3684971098 -70.3289409806 -50.8262401795 -46.2031661096 -45.4763257471 -44.4294809903 -43.4609573256 -42.4278289758 -41.2985502833 -40.6837694532 -36.3155156359 -31.3481282121 -26.1077844753 -21.2174164721 -16.0626814706 -6.35069739523 -0.0695052584464
2105000000.0 -72.9407346504 -69.964190811 -50.5923303846 -45.9843757885 -45.2756126976 -44.2317553375 -43.2775671193 -42.2486615952 -41.0849252688 -40.3629108271 -35.9689926821 -30.9953383182 -25.7519431224 -21.3954870129 -16.2616901495 -6.60273216301 -0.286942872268
2605000000.0 -74.1592544413 -71.2346685656 -51.8304520862 -47.414669349 -46.5505291149 -45.4882137832 -44.5113966046 -43.4798741159 -40.5895369195 -39.8709771011 -35.6000976043 -30.6534814036 -25.4255221468 -21.5542909095 -16.436299816 -6.70088562073 -0.252571092401
3000000000.0 -73.9487660278 -71.0529669996 -51.6228979669 -47.0293184225 -46.306557215 -45.7742120042 -44.6035817797 -43.3963944531 -39.8981479676 -39.2663218213 -35.1130881647 -30.1298558528 -24.9104095809 -21.5545796102 -16.3756573216 -6.69741720504 -0.198354094619
3001000000.0 -72.7613088204 -69.8477070104 -50.6355972588 -46.1358186751 -45.4013503973 -44.3748291843 -43.3785992037 -42.3328074104 -41.1977597742 -40.4546949362 -36.00569939 -31.0985927698 -25.8593402399 -21.6678324334 -16.5394262965 -6.8842967142 -0.248460899461
3105000000.0 -72.9222509653 -69.7867818577 -50.4866375869 -46.0506433088 -45.2834062467 -44.2338021917 -43.2586039956 -42.1973369255 -41.1114220193 -40.3957603926 -35.9514375077 -31.0247907819 -25.8204245704 -21.8818350734 -16.6109805571 -6.97560173576 -0.305581411055
3605000000.0 -72.2879087921 -69.2988294717 -50.1341801563 -45.7327395497 -44.9499204382 -43.9080544162 -42.9303120968 -41.8908876255 -40.5202251728 -39.7937809612 -35.5762391505 -30.7216917112 -25.3930541978 -21.6794705504 -16.5346422881 -6.85216333664 -0.263690567193
4105000000.0 -72.222340892 -70.9626181389 -50.8278082413 -45.696323764 -44.9929557477 -43.9268910811 -42.9542776425 -41.9073649246 -40.9674914098 -39.758540492 -38.0268860371 -33.0574575201 -28.1030927375 -21.6112687327 -16.4604283288 -6.72603373751 -0.203484199123
4505000000.0 -72.2517024944 -70.9768269829 -51.0410763421 -45.9384259461 -45.1744006174 -44.1256393819 -43.1767500456 -42.1183391195 -41.1077299727 -39.9600826494 -37.8902745792 -32.9542725316 -28.0016503383 -21.7683958629 -16.6235267314 -6.9131897694 -0.433474927969
4605000000.0 -72.1248267891 -71.0156599428 -51.1100062332 -46.0187831845 -45.2514213726 -44.1971858841 -43.2452958243 -42.235217102 -41.1815600254 -40.0148615851 -37.8494675344 -32.9317955371 -28.0081336808 -21.8297206969 -16.6849161721 -6.98624443059 -0.400686474504
4705000000.0 -72.044258401 -70.9316649823 -51.0784636402 -45.7767594754 -45.1684979857 -44.1607153562 -43.1848580561 -42.1252694713 -41.172460875 -39.9943443443 -37.7539755638 -32.8539554968 -27.9169958054 -21.8068175967 -16.6976829106 -6.97504703559 -0.338415173048
4805000000.0 -71.8909110417 -70.8086436054 -51.0740447953 -45.952489919 -45.2039553713 -44.1644656552 -43.176162443 -42.1501542123 -41.1095543161 -39.9871649023 -37.7925633683 -32.870844464 -27.9419313233 -21.9286805817 -16.7903747221 -7.06382933351 -0.376550554352
4905000000.0 -71.8525705567 -70.6550794594 -50.9672749722 -45.8581367647 -45.1075150849 -44.0716458273 -43.0898177982 -42.0442184442 -41.0327719865 -39.9159553204 -38.1618433063 -32.8926909908 -27.9028174937 -21.9335861352 -16.79706581 -7.0860957132 -0.363567911295
5005000000.0 -72.2019300531 -70.9134789601 -51.2015021372 -46.0654150862 -45.3263579472 -44.2843607653 -43.2935309565 -42.249550875 -41.2248002037 -40.1441637417 -37.9232464101 -32.9953700502 -28.0393387325 -22.1390919409 -16.9976866177 -7.29889250368 -0.541559991306
5105000000.0 -71.8805447462 -70.678416291 -50.96634763 -45.8842429364 -45.1354195277 -44.0877260703 -43.1056332443 -42.101670412 -41.0935130516 -40.0485909708 -37.7048018418 -32.7636738789 -27.8099028537 -21.9351196704 -16.779376125 -7.08149169889 -0.338575471658
5205000000.0 -71.9718330205 -70.773765561 -51.144228937 -46.0482822098 -45.3075726129 -44.2640947186 -43.2896664456 -42.245561524 -41.2240855608 -40.0721189197 -37.6576221342 -32.7290558864 -27.7578611337 -21.9307028962 -16.7605449305 -7.045655654 -0.285057601652
5605000000.0 -72.1755614204 -70.8721175752 -51.7460505732 -46.7099371428 -46.0244713833 -45.0377286084 -43.9837459978 -42.9208285684 -41.888007802 -40.7433238964 -37.6258751763 -32.6597246011 -27.6991212315 -22.0315744488 -16.8553049962 -7.11887402499 -0.344335182133
5999000000.0 -71.9007695739 -70.8691312161 -51.5329590875 -46.4693369322 -45.76456217 -44.7342940043 -43.7286510162 -42.6493433113 -41.6344453069 -40.5266415319 -37.1424866594 -32.4069443637 -27.4725560412 -22.0719141615 -16.9249200289 -7.2009834622 -0.381019470011
