@ref 36 1 76.0
99000000.0 130.206072397
299000000.0 131.448933719
499000000.0 132.084684906
699000000.0 132.573845575
899000000.0 132.645861683
1099000000.0 131.510961323
1299000000.0 131.312709065
1499000000.0 130.509845079
1699000000.0 129.647666148
1899000000.0 128.540686762
2099000000.0 128.472035388
2299000000.0 128.727000125
2499000000.0 128.086453454
2699000000.0 127.32091452
2899000000.0 126.387241081
3000000000.0 126.06812253
3001000000.0 139.781701783
3201000000.0 138.713365618
3401000000.0 138.275735204
3601000000.0 138.687172241
3801000000.0 138.772312444
4001000000.0 138.544509992
4201000000.0 138.386650617
4401000000.0 138.290628013
4501000000.0 138.198336312
4601000000.0 138.15684608
4701000000.0 137.709614875
4801000000.0 137.278280419
4901000000.0 136.968595157
5001000000.0 137.47693927
5101000000.0 137.421167448
5201000000.0 137.35150003
5401000000.0 137.690146109
5601000000.0 137.236880432
5801000000.0 136.252152457
5999000000.0 134.825715697
@gain 25 17 0.0 5.0 25.0 30.0 31.0 32.0 33.0 34.0 35.0 36.0 40.0 45.0 50.0 55.0 60.0 70.0 76.0
99000000.0 -71.0303730987 -68.1846034913 -48.6494076577 -43.4930039816 -42.4955805957 -41.5106949502 -40.4845167081 -37.0488740083 -35.9072613707 -35.4684359955 -31.5698627647 -26.5670133139 -21.6455238423 -18.9739086214 -13.8161831192 -4.64066107771 0.0463966881638
105000000.0 -71.2412770084 -68.2735076774 -48.6981140457 -43.5515224929 -42.5544205165 -41.5660223783 -40.535455502 -36.9934141149 -35.8502448751 -35.4612758184 -31.5623358789 -26.5580092104 -21.6396390519 -19.0394779539 -13.8761293765 -4.6684992713 0.119241786999
205000000.0 -71.9979546878 -68.9021133287 -49.4192880317 -44.1849546997 -43.1818259215 -42.1956574372 -41.1690782818 -37.7207296035 -36.5758814654 -36.6278270188 -32.7372821586 -27.731950434 -22.8144811466 -19.6085690279 -15.0463784251 -5.31508554623 0.287428937629
305000000.0 -72.4517630802 -69.4490219896 -49.8456337445 -44.6071988099 -43.582209842 -42.5976045904 -41.564734679 -39.0675675944 -37.9175146811 -37.9003761509 -33.9686732359 -28.9751920361 -24.0638037355 -20.3046931028 -15.1338368324 -5.65169727704 0.0795945477269
405000000.0 -72.5358132962 -69.7596150857 -50.0266785753 -44.7578549906 -43.7204531535 -42.7312516606 -41.7038649674 -40.3469145761 -39.1952822106 -38.8483387677 -34.9281458226 -29.946258543 -25.0170359731 -20.6284250986 -15.4501177396 -5.93976827157 -0.0493065116724
605000000.0 -72.6747976349 -69.5382358451 -50.0101479723 -44.6508267126 -43.7260019556 -42.7533189043 -41.724187998 -41.719224382 -40.5700281151 -39.5097858538 -35.5840783831 -30.6033032481 -25.6430257005 -20.7160172405 -15.5514689584 -5.99968398625 0.063791042482
1105000000.0 -73.4299046064 -70.3357566754 -50.728954499 -45.5300057409 -44.3829088529 -43.4455136619 -42.4392333587 -42.8564410935 -41.5638675407 -39.8218982503 -35.9456896859 -30.9656825931 -26.0433673347 -21.2849833562 -16.1401273515 -6.53946572035 -0.369236802987
1605000000.0 -72.9981476746 -69.9161314242 -50.4971571317 -45.9912243465 -45.2905976919 -44.2494645724 -43.2583913675 -42.2505239556 -41.3476589879 -40.6360042499 -36.2338307215 -31.2713583209 -26.027186688 -21.0400899775 -15.904049081 -6.25518275545 -0.0293115436597
2105000000.0 -72.7834158515 -69.6492099408 -50.3625584483 -45.8890706465 -45.1724857521 -44.1336190712 -43.2700250146 -42.1528007499 -41.0335233796 -40.3114654957 -35.8970955024 -30.9328183727 -25.6775423872 -21.2350024473 -16.1066980975 -6.47960182998 -0.115608334106
2605000000.0 -73.9334580546 -70.8933825376 -51.5530605598 -47.0956642691 -46.3916196174 -45.35418951 -44.365952677 -43.3462623453 -40.5116390886 -39.8008170823 -35.5067915332 -30.5504135237 -25.3334388693 -21.3817144187 -16.25038088 -6.42225352741 -0.498861016425
3000000000.0 -73.9275942833 -70.8692755105 -51.5260560835 -47.0924375804 -46.3684983619 -45.3285822759 -44.3527879209 -43.3142731544 -39.8538018279 -39.1014771825 -35.0214398161 -30.0653488089 -24.8388356895 -21.3739118324 -16.2059782689 -6.56399367972 -0.145692495584
3001000000.0 -72.8539102599 -69.8153187661 -50.329732659 -45.955448552 -45.2399851505 -44.2220792432 -43.2263655189 -42.1880535731 -41.1408739426 -40.3998951723 -35.916510182 -30.9582656572 -25.7350682436 -21.4978608209 -16.4357546498 -6.83771529206 -0.421618243496
3105000000.0 -72.6001923212 -69.5992528798 -50.092855507 -45.7260969365 -45.0070917021 -43.9600486526 -42.9742603816 -41.9123991882 -40.9216986377 -40.2130504063 -35.7302965515 -30.8074551457 -25.5810063355 -21.520651721 -16.1746677649 -6.66070587691 -0.348854080198
3605000000.0 -72.1636528789 -69.2164506428 -49.8208978218 -45.4702827252 -44.4149504601 -43.9482401397 -43.0580140354 -42.2257316076 -40.1670296374 -39.6361149769 -35.3729261062 -30.4774296781 -25.2192963041 -21.5306860823 -16.3754773891 -6.72919691805 -0.211687138062
4105000000.0 -72.1149279 -70.8893431522 -50.5471910597 -45.4709942065 -44.8087402587 -43.7639662265 -42.7758347917 -41.7371975511 -40.7228132018 -39.6796757945 -37.9112765971 -32.937711386 -27.9775032591 -21.4892612514 -16.3467049925 -6.65928036392 -0.103284526763
4505000000.0 -72.1152159276 -70.8438438936 -50.7043505661 -45.6645121716 -44.9518100103 -43.9090907627 -42.9374565484 -41.8900284798 -40.8830032612 -39.7337100786 -37.6995646997 -32.786029875 -27.8267850703 -21.6116821127 -16.4776845142 -6.81372717552 -0.26613393045
4605000000.0 -72.0000437884 -70.8590760477 -50.7356674487 -45.6888292467 -44.9891746741 -43.9426110434 -42.9597845827 -41.8808278305 -40.779272718 -39.7328809643 -37.6389301131 -32.7307532844 -27.809682456 -21.6420211645 -16.5073296065 -6.86309889337 -0.261040139237
4705000000.0 -71.9020544704 -70.5957394078 -50.6302346203 -45.6072287507 -44.9070897774 -43.8813983499 -42.8799859267 -41.8341238253 -40.8358242778 -39.6931084357 -37.5482236751 -32.6328130817 -27.6757926732 -21.5967119271 -16.5066351512 -6.82899043253 -0.24819390421
4805000000.0 -71.8698107301 -70.6320119243 -50.5913882803 -45.465516458 -44.8626992258 -43.8409613252 -42.83737285 -41.8201209177 -40.8110415381 -39.657152367 -37.423756 -32.6045217542 -27.6897675164 -21.7019135175 -16.5796590644 -6.89745364387 -0.306581221926
4905000000.0 -71.7445392 -70.6167669975 -50.5244395342 -45.4914932355 -44.7851421755 -43.7488367344 -42.7507481564 -41.7179308721 -40.7167222506 -39.5719045368 -37.5147922561 -32.5880194805 -27.6590290878 -21.722594776 -16.6000890504 -6.93616523232 -0.304030531952
5005000000.0 -72.0511402771 -70.6814580562 -50.7161786578 -45.6688734966 -44.979427771 -43.9430255635 -42.9388681295 -41.9029769083 -40.8921218517 -39.7207344306 -37.6210621782 -32.7482171785 -27.7953435221 -21.9163166334 -16.7902037077 -7.13116956265 -0.470981908049
5105000000.0 -71.8751427783 -70.588492949 -50.5427052458 -45.5293642594 -44.8264000543 -43.7861973026 -42.7840439574 -41.7990104533 -40.7763847226 -39.6252072924 -37.4850043057 -32.5784676881 -27.6255131586 -21.7665868778 -16.6330647129 -6.96574527566 -0.320085150986
5205000000.0 -71.8777473874 -70.6293645824 -50.6696829371 -45.5326029155 -44.9443405632 -43.9235887046 -42.9405489601 -41.9074646398 -40.892646923 -39.7227047842 -37.3603348441 -32.5047417957 -27.5383647542 -21.7371067704 -16.5677973204 -6.89834741952 -0.236283107374
5605000000.0 -72.4943479493 -70.9323541548 -51.3875657991 -46.3988494258 -45.6817610954 -44.6835762018 -43.7213013927 -42.6638563526 -41.6390837172 -40.4878429841 -37.4309207597 -32.4717524258 -27.4907861536 -21.8257301847 -16.6082628782 -6.95506046764 -0.266361880316
5999000000.0 -72.1862624372 -71.0252457447 -51.1227401124 -46.1399489631 -45.4456504404 -44.4171716291 -43.3996350847 -42.340086428 -41.3368855739 -40.2195581737 -36.983841445 -32.1179547373 -27.1474506004 -21.7449988276 -16.6210554965 -6.92778468752 -0.183656245477
