@ref 36 1 76.0
99000000.0 130.224458578
299000000.0 131.479477335
499000000.0 132.168112884
699000000.0 132.719264822
899000000.0 132.72187934
1099000000.0 131.580937795
1299000000.0 131.313356515
1499000000.0 130.383500483
1699000000.0 129.477285861
1899000000.0 128.389552286
2099000000.0 128.447252277
2299000000.0 128.714291666
2499000000.0 128.067770037
2699000000.0 127.318237429
2899000000.0 126.408352153
3000000000.0 126.047055601
3001000000.0 139.566894969
3201000000.0 138.762666871
3401000000.0 138.329630768
3601000000.0 138.814917192
3801000000.0 138.936647667
4001000000.0 138.702810439
4201000000.0 138.47342957
4401000000.0 138.377257236
4501000000.0 138.27095387
4601000000.0 138.097416539
4701000000.0 137.583908986
4801000000.0 137.142091793
4901000000.0 136.84121023
5001000000.0 137.354825983
5101000000.0 137.301369253
5201000000.0 137.212511495
5401000000.0 137.49622858
5601000000.0 136.816227125
5801000000.0 135.678269139
5999000000.0 134.367891801
@gain 25 17 0.0 5.0 25.0 30.0 31.0 32.0 33.0 34.0 35.0 36.0 40.0 45.0 50.0 55.0 60.0 70.0 76.0
99000000.0 -70.5056168651 -67.6390754574 -48.2794494058 -43.6605049665 -42.3343145338 -41.3266454148 -40.2943292995 -37.0673187323 -35.9202654874 -35.4581159222 -31.5645448647 -26.5570908682 -21.637888067 -18.9443126428 -13.7440315287 -4.66858536086 -0.134716598394
105000000.0 -70.757700393 -67.6698403491 -48.7788613971 -43.3876662166 -42.3511542517 -41.3686308965 -40.3363112361 -37.0052048908 -35.861514148 -35.4464383487 -31.5460459106 -26.5380795946 -21.6200795414 -18.9915439534 -13.8001523677 -4.6754771191 -0.0568908378025
205000000.0 -71.6835431227 -68.9048104303 -49.3289350428 -44.0065392207 -42.982091512 -42.0098646929 -40.9777230125 -37.7112583964 -36.5581828851 -36.5729827374 -32.6848018205 -27.6790600177 -22.7622935961 -19.8982062186 -14.6707904704 -5.21797223069 0.163359509975
305000000.0 -72.1225953682 -69.271392726 -49.7474685079 -44.4120150905 -43.390734895 -42.4092573345 -41.3860414511 -39.0200722642 -37.8594216486 -37.8156317661 -33.8935132796 -28.8962782881 -23.9837327973 -20.2173511447 -15.02556071 -5.6134379911 0.00144053108068
405000000.0 -72.241187379 -69.2010085225 -49.9444945767 -44.6384941237 -43.554464145 -42.5726564734 -41.5524520314 -40.3269464741 -39.1377445485 -38.7709295295 -34.8565287549 -29.8697006666 -24.9430384362 -20.5652041617 -15.3730267584 -5.92865742995 -0.138353682831
605000000.0 -72.362248525 -69.3135071422 -49.9384800972 -44.6101010402 -43.5782872681 -42.6082220438 -41.5785019308 -41.6548003685 -40.4886351971 -39.4194990411 -35.5025742867 -30.5222273772 -25.5897105588 -20.6617117297 -15.4826418524 -5.99883796039 -0.0201782094445
1105000000.0 -73.0896793682 -70.2028959276 -50.738390229 -45.4346964365 -44.4073785245 -43.396960352 -42.3771169127 -42.7088251977 -41.5461628512 -39.7105144029 -35.814707035 -30.8286897145 -25.9112218298 -21.209629181 -16.0531556407 -6.51248441124 -0.427211877325
1605000000.0 -72.6940240191 -69.6941757737 -50.4060746958 -45.7933857322 -45.0894557022 -44.0611225162 -43.0835873628 -42.0659283767 -41.1839384305 -40.4778090448 -36.1098227455 -31.1394700999 -25.8815581813 -20.9977147673 -15.8450003855 -6.27896704575 -0.107956260916
2105000000.0 -72.3969739091 -68.9309217955 -50.354619391 -45.7310695832 -45.019230842 -43.9922853022 -42.9932735554 -41.9883108512 -40.9594672891 -40.2406767946 -35.8415282817 -30.8636582993 -25.6186009626 -21.2229077899 -16.0822176069 -6.49488045594 -0.233245301452
2605000000.0 -73.6273649064 -70.6558430057 -51.4524645554 -46.917662868 -46.2105295986 -45.1728725464 -44.1958000196 -43.1744156095 -40.3969280384 -39.6748386351 -35.398603521 -30.4514848293 -25.215231999 -21.2869317361 -16.1287058933 -6.53098117283 -0.0566626552402
3000000000.0 -73.7512632237 -70.783427998 -51.5270754908 -47.010931061 -46.2871927507 -45.2459486724 -44.2777481212 -43.242865369 -39.7611806539 -39.0578984616 -34.9548876722 -29.9893129323 -24.7539142062 -21.3523310847 -16.1656187593 -6.54633700908 -0.219979406295
3001000000.0 -72.231361441 -69.5461110098 -50.4901845339 -45.8444932811 -45.1357787417 -44.1137566396 -42.9524763415 -42.0592170051 -41.0689461058 -40.33277693 -35.8369507278 -30.8927920689 -25.7018473211 -21.573290599 -16.445585381 -6.77159819946 -0.193658586758
3105000000.0 -72.6726386626 -69.563818888 -50.3636250086 -45.7251009718 -45.0131087331 -43.9682286406 -42.9933935299 -41.9440444766 -40.9873062413 -40.2729641149 -35.8055840819 -30.8732476165 -25.6491884046 -21.6523609045 -16.4952412277 -6.87508007361 -0.165719177677
3605000000.0 -72.0403104805 -69.2544199005 -50.2315781685 -45.6486736484 -44.9062265162 -43.8799738831 -42.8942784511 -41.8556223703 -40.4603594582 -39.8302369075 -35.5651613682 -30.6636611085 -25.4077504476 -21.7286890356 -16.5627813422 -6.8686046017 -0.159533189879
4105000000.0 -71.9882154393 -70.9374983801 -50.976423904 -45.6489777226 -44.9835660847 -43.945236166 -42.9655022558 -41.931110658 -40.8998442259 -39.5503885077 -37.9995850005 -33.068791927 -28.1152424646 -21.6432836703 -16.4686461796 -6.75371035172 -0.0517144586593
4505000000.0 -72.1455113859 -70.9700939114 -51.1766868396 -45.9196088258 -45.192582 -44.1548494885 -43.1924669667 -42.1527667298 -41.1205602922 -39.9923133976 -37.876029082 -32.9581511881 -28.0045882213 -21.8113273829 -16.6497442261 -6.97195040948 -0.244172255671
4605000000.0 -72.4036674927 -71.2548526833 -51.214206952 -45.9375996351 -45.1865631644 -44.1455035398 -43.1680645188 -42.11847006 -41.1181103351 -39.8802365338 -37.7583552791 -32.8679746548 -27.9478031149 -21.8126039617 -16.6526370644 -6.89262800551 -0.217802934605
4705000000.0 -72.2568060786 -71.203699721 -51.1408959988 -45.8135158599 -45.0709733126 -44.038716328 -43.0524510108 -42.0078340035 -41.0069975522 -39.8915627673 -37.925413318 -32.7805397603 -27.8143195583 -21.7588881899 -16.635799539 -6.92779070098 -0.204203517996
4805000000.0 -71.7868000392 -70.3814743079 -50.9848089506 -45.7760545315 -45.0619034823 -44.0305611378 -43.0407323656 -42.0222582615 -41.0007481282 -39.8638386304 -37.6776716969 -32.747622894 -27.7930309449 -21.8760004365 -16.7338042221 -7.02041738466 -0.274028632572
4905000000.0 -71.6944801473 -70.0896189614 -50.8930384912 -45.710364971 -44.9666450111 -43.9263305465 -42.9767317258 -41.9479610443 -40.9356626787 -39.8018052039 -37.6677268023 -32.7491486186 -27.8226435439 -21.9152177598 -16.7754153696 -7.06266097951 -0.303638275993
5005000000.0 -71.7942192735 -70.7159762941 -51.1284289037 -45.8684529259 -45.1691940907 -44.1363636752 -43.1394266767 -42.1113825185 -41.0805881008 -39.929128393 -37.797772224 -32.8856433075 -27.9289274034 -22.0767588343 -16.9269174683 -7.24007056135 -0.419166490628
5105000000.0 -71.6616295807 -70.584880513 -50.9601820908 -45.7410649898 -45.0296942054 -43.9934845807 -43.0006729817 -42.0119740255 -40.9771669646 -39.8414167466 -37.6255838418 -32.7168780614 -27.7762511065 -21.9410200809 -16.784446891 -7.0891037071 -0.272939848631
5205000000.0 -71.7769726149 -70.5495514049 -51.0409782256 -45.8405097346 -45.1392697413 -44.1033991911 -43.1295382177 -42.0981442002 -41.0721574392 -39.920109512 -37.5595392832 -32.6427763022 -27.6705905124 -21.8920254149 -16.7349665528 -7.00662603282 -0.146471453571
5605000000.0 -72.246871323 -70.940110596 -51.5382932849 -46.4601560112 -45.6063567188 -44.6387197828 -43.7730989968 -42.7716644467 -41.7065958166 -40.5945150907 -37.5750069319 -32.6174119721 -27.6405224491 -22.0355914826 -16.9607489345 -7.16873483425 -0.28628344558
5999000000.0 -72.0531758609 -70.9857039448 -51.4774274997 -46.3063785798 -45.5574134697 -44.4625373754 -43.540030083 -42.4955615596 -41.4802509406 -40.3820555166 -37.274543392 -32.3721324029 -27.3069291462 -22.0248216231 -16.7421151077 -7.144984577 -0.254715524311
