@ref 36 1 76.0
99000000.0 130.053287557
299000000.0 131.077290792
499000000.0 131.593745734
699000000.0 132.245737056
899000000.0 132.140680939
1099000000.0 130.993689079
1299000000.0 130.366076186
1499000000.0 129.728793867
1699000000.0 129.069127893
1899000000.0 127.813554126
2099000000.0 127.690889105
2299000000.0 128.093246113
2499000000.0 127.576811012
2699000000.0 126.66643659
2899000000.0 125.721626643
3000000000.0 125.200331991
3001000000.0 138.871360907
3201000000.0 138.269367359
3401000000.0 138.237285689
3601000000.0 138.581447548
3801000000.0 138.338924685
4001000000.0 138.067609858
4201000000.0 138.044245158
4401000000.0 137.81346861
4501000000.0 137.552656463
4601000000.0 137.484900498
4701000000.0 136.933786662
4801000000.0 136.422366861
4901000000.0 136.035798911
5001000000.0 136.298603964
5101000000.0 136.14180357
5201000000.0 135.871908612
5401000000.0 136.65060671
5601000000.0 135.698694165
5801000000.0 133.549307
5999000000.0 131.326827635
@gain 22 17 0.0 5.0 25.0 30.0 31.0 32.0 33.0 34.0 35.0 36.0 40.0 45.0 50.0 55.0 60.0 70.0 76.0
99000000.0 -71.1440799648 -68.1297969678 -48.7567114823 -43.6283987722 -42.6152638857 -41.645469818 -40.6151998644 -37.3112872846 -36.1583471314 -35.7112735201 -31.8210824216 -26.8180867211 -21.899643831 -19.3087628003 -14.0866685691 -4.92316351171 -0.102288917502
105000000.0 -71.1703586018 -68.282455531 -48.7950701498 -43.6691341568 -42.6565805489 -41.6857514972 -40.6505519427 -37.2352353417 -36.0812254322 -35.6728760595 -31.7855886701 -26.7757913577 -21.8619433287 -19.2959299367 -14.1208084003 -4.91692307873 -0.0285625026515
205000000.0 -71.9063246819 -68.9151674101 -49.4505902172 -44.2269624652 -43.2090391655 -42.2445019878 -41.211415394 -37.859273112 -36.7073809146 -36.7404846924 -32.8612859573 -27.8536159098 -22.9370176467 -19.860707442 -14.6756786485 -5.32059588467 0.248773117946
305000000.0 -71.9785351655 -69.2867002317 -49.7616272333 -44.5552963004 -43.5404788291 -42.5677597447 -41.5379961335 -39.1271762035 -37.9737178835 -37.9555311586 -34.0323449925 -29.0363964284 -24.1272535403 -20.3172852216 -15.1384011768 -5.67579943378 0.149117709837
405000000.0 -71.9987639607 -69.1580915631 -49.8892889059 -44.6854166822 -43.6702121076 -42.6992049382 -41.6704009285 -40.3894174403 -39.0404929654 -38.8908961247 -35.0010146234 -30.0224437692 -25.0984045791 -20.6649449021 -15.4824387124 -6.00791391306 -0.0268270463023
605000000.0 -72.0592505908 -69.1674957706 -49.8049589715 -44.6483701834 -43.617070444 -42.6516556265 -41.6402442224 -41.8470581071 -40.6596543651 -39.5880378154 -35.7590014187 -30.6971952394 -25.74649481 -20.7681785181 -15.5920074137 -6.08688460288 0.0491071455378
1105000000.0 -72.9068142138 -70.0547326276 -50.5583207412 -45.3939114185 -44.375254969 -43.3783286405 -42.3440088195 -42.7693294233 -41.6239677799 -39.7569033117 -35.8697931967 -30.8920580694 -25.9718308817 -21.2396446493 -16.0748440446 -6.51889751791 -0.318229412086
1605000000.0 -72.3626915855 -69.4273341295 -50.0932964292 -45.4728158391 -44.8991959363 -43.8915473826 -42.9209200013 -41.9103666155 -41.3146021742 -40.6051121711 -36.2047370422 -31.2440744874 -25.9807097424 -21.0360367164 -15.9072046088 -6.29769182342 0.00132757697077
2105000000.0 -72.2246433067 -69.2381768215 -49.9922534274 -45.5478589925 -44.859149616 -43.8175678176 -42.8451913544 -41.8345247543 -40.9709608459 -40.2555726071 -35.8727132052 -30.9123491679 -25.651642026 -21.3129806489 -16.1491828055 -6.58077938601 -0.247116057773
2605000000.0 -73.5211796069 -70.5328974286 -51.3862874836 -46.8670008343 -46.1543724982 -45.115270949 -44.1473514343 -43.1284921157 -40.3941322775 -39.6823256764 -35.4000315391 -30.4491705436 -25.2160172704 -21.2910309748 -16.1481598648 -6.53443630243 -0.0756512355595
3000000000.0 -73.4698600032 -70.4043430354 -51.1073866077 -46.6877739407 -45.990935427 -44.9423447724 -43.9745331539 -42.8020299226 -39.6846690011 -38.9789746369 -34.9158524817 -29.9762767832 -24.7310259383 -21.3214377429 -16.146612291 -6.49303471272 -0.0353564191245
3001000000.0 -72.2406166607 -69.1491611704 -50.0681673957 -45.6515740351 -45.1263286785 -43.9923456894 -43.0005079975 -41.9714651111 -41.0728323621 -40.325184089 -35.8417813604 -30.8928267677 -25.6935536233 -21.4913074687 -16.3412731253 -6.6572873437 -0.115228247644
3105000000.0 -72.20800723 -69.0661868151 -49.9580696704 -45.5941274024 -44.9189308855 -43.8654236691 -42.8987293293 -41.8467032635 -40.9541646071 -40.2499794611 -35.7705939203 -30.84975825 -25.6118312057 -21.53560667 -16.3886033041 -6.75335138956 -0.224840108155
3605000000.0 -72.6533018034 -69.4140627579 -50.20959932 -45.8339163936 -45.1522796202 -44.1182720554 -43.1396592882 -42.1023535325 -40.4734257142 -39.7534330068 -35.4545177234 -30.5570590361 -25.4483932571 -21.6001152379 -16.4285460462 -6.71189495424 -0.176436974275
4105000000.0 -72.6036356267 -71.4169804285 -51.0611272386 -45.9115855214 -45.2705480949 -44.2205329481 -43.249503655 -42.2121121392 -41.2008516897 -40.0303806753 -37.8992906913 -32.9430436925 -27.9861763666 -21.5278269264 -16.3694161859 -6.62968198795 0.0329896418463
4505000000.0 -72.6250896253 -71.2540016383 -51.241660949 -46.140696582 -45.446340706 -44.4037222309 -43.4548679836 -42.406647439 -41.3859674367 -40.2441024375 -37.6755602756 -32.7545911944 -27.7991719669 -21.6569038647 -16.5028301305 -6.76753097684 -0.0247913387955
4605000000.0 -72.6212104131 -71.2463995259 -51.2851014507 -46.2012093747 -45.4973610745 -44.4521610041 -43.4849974301 -42.4342431371 -41.4324717422 -40.2748507777 -37.6343247471 -32.72181918 -27.8021177167 -21.7160073058 -16.5615861414 -6.8406899777 -0.0577298885826
4705000000.0 -72.3513186011 -70.9008605542 -51.0662252336 -45.9807774142 -45.1914184461 -44.1683602775 -43.2479554326 -42.220933838 -41.2168463517 -40.0807674575 -37.4682461506 -32.536830405 -27.5548638038 -21.6044400018 -16.5008966563 -6.74531635014 -0.0602616273118
4905000000.0 -71.8366098883 -70.4003282755 -50.7124586604 -45.657295903 -44.8897463505 -43.8278024142 -42.9657946206 -41.9523313364 -40.9354901045 -39.7950519988 -37.4524503476 -32.5152603192 -27.5883901408 -21.7690784255 -16.6305341157 -6.89831035505 -0.101597962354
5105000000.0 -71.5804556575 -70.1430421252 -50.5672041577 -45.3217220365 -44.6161364976 -43.5712938825 -42.6405068031 -41.6060107691 -40.5593649114 -39.411193102 -37.2008785625 -32.2811048905 -27.3325313377 -21.589525073 -16.4354389272 -6.72372713814 0.0991550133304
5605000000.0 -71.9660022497 -70.7075979283 -51.35565844 -46.1968293404 -45.6107022464 -44.6254209435 -43.6512559368 -42.6199455508 -41.5690135455 -40.4370321698 -37.3645629812 -32.3010533895 -27.4128126466 -21.866419656 -16.6912753678 -6.93203838164 -0.1802120967
5999000000.0 -71.4020662235 -70.1988515438 -50.7526871223 -45.6139579111 -45.0786470873 -44.0653678887 -43.0695574488 -42.0049190186 -40.9895769559 -39.8821125238 -36.9966918028 -32.0959848618 -27.1208057914 -21.8547099268 -16.725217179 -6.9423704291 -0.051928348226
