@ref 36 1 76.0
99000000.0 130.32111928
299000000.0 131.446755379
499000000.0 132.041922939
699000000.0 132.552247046
899000000.0 132.667259714
1099000000.0 131.554290766
1299000000.0 131.295824923
1499000000.0 130.236540031
1699000000.0 129.705894925
1899000000.0 128.695532431
2099000000.0 128.723065606
2299000000.0 128.816231433
2499000000.0 128.105079288
2699000000.0 127.148832828
2899000000.0 126.429544022
3000000000.0 126.121169699
3001000000.0 139.848293916
3201000000.0 138.746227949
3401000000.0 138.336757466
3601000000.0 138.724993128
3801000000.0 138.838489733
4001000000.0 138.711683581
4201000000.0 138.512758174
4401000000.0 138.405395983
4501000000.0 138.291463475
4601000000.0 138.198728029
4701000000.0 137.702334979
4801000000.0 137.292566251
4901000000.0 136.962690009
5001000000.0 137.58282705
5101000000.0 137.403543452
5201000000.0 137.307016385
5401000000.0 137.536131502
5601000000.0 136.91619519
5801000000.0 135.844494701
5999000000.0 134.490890754
@gain 25 17 0.0 5.0 25.0 30.0 31.0 32.0 33.0 34.0 35.0 36.0 40.0 45.0 50.0 55.0 60.0 70.0 76.0
99000000.0 -71.1568016257 -68.8222252212 -48.9643744752 -43.7241323305 -42.575152487 -41.5751497906 -40.5421768878 -37.1196320427 -35.9747307237 -35.5448019018 -31.6478310918 -26.636581271 -21.7261400246 -19.0793757677 -13.8557708966 -4.71476663936 -0.0423474038538
105000000.0 -71.4648768955 -68.5331244887 -48.9758016393 -43.7768458031 -42.6263774479 -41.6317310764 -40.5959103947 -37.0664782605 -35.9183598196 -35.53444761 -31.6404820632 -26.6261176228 -21.7191055089 -19.1300672076 -13.9372262145 -4.735839077 0.0306519739702
205000000.0 -72.0705979073 -69.2038205202 -49.6770556264 -44.3576143164 -43.2147567321 -42.2161421759 -41.1808428312 -37.741311891 -36.5919054122 -36.6572801529 -32.7733329332 -27.7645100451 -22.8519460895 -19.8992289038 -14.7229740391 -5.24253679495 0.255386758094
305000000.0 -72.3842626273 -69.8610764758 -50.0734247217 -44.7158631504 -43.5787393204 -42.582243585 -41.5488452628 -39.0561514624 -37.8992355464 -37.9038824039 -33.9808513548 -28.9796163889 -24.0754012752 -20.3257511743 -15.2381169209 -5.63872380669 0.0511238296951
405000000.0 -72.4882748687 -69.5816442378 -50.2031067748 -44.8428358491 -43.7142917723 -42.7219220417 -41.6935130526 -40.3468083975 -39.185687798 -38.8493852464 -34.9361954631 -29.942660185 -25.0281290015 -20.6445660514 -15.5195946202 -5.95427657748 -0.0792664492903
605000000.0 -72.2030971064 -69.6068159545 -50.1844273282 -44.8531470841 -43.7148682269 -42.7418434498 -41.7061168017 -41.74069848 -40.5769275703 -39.5205955615 -35.6014423276 -30.6082599366 -25.5313821122 -20.7211854833 -15.5645005112 -6.01721619002 0.0173718780596
1105000000.0 -73.2136507818 -70.4996465454 -50.9161188902 -45.5985047368 -44.7067325911 -43.4640868416 -42.4128671983 -42.8456029057 -41.6867743513 -39.8062849274 -35.9127843414 -30.9243678508 -26.0129476971 -21.2654142452 -16.1092995334 -6.52219506752 -0.370853473189
1605000000.0 -72.7569829246 -69.9332152223 -50.5254072458 -45.9248770284 -45.111134419 -44.0620723521 -43.0857997854 -42.0729101188 -41.2883917201 -40.7205360634 -36.6699581229 -31.2537358122 -26.1839037633 -20.9998978899 -15.8295274925 -6.16087480888 0.0350014506108
2105000000.0 -72.7387570806 -70.1992456547 -50.7305246386 -46.1190349319 -45.3017851617 -44.2453196364 -43.2792495696 -42.2552913015 -41.0918569997 -40.3782348032 -35.9511079009 -30.9791948629 -25.7263421212 -21.2662766492 -16.1332768072 -6.50904160707 -0.176689619467
2605000000.0 -73.7390454092 -70.9674886099 -51.6515078035 -46.71363984 -46.2448009005 -45.2541187321 -44.2851596404 -43.263994814 -40.4789458565 -39.764397748 -35.4837770483 -30.5241847214 -25.3016258504 -21.397542227 -16.2479150637 -6.54816308401 0.0484410480667
3000000000.0 -73.8945046856 -71.1217549265 -51.7781465293 -47.2350672704 -46.4187766017 -45.3716245926 -44.4054317606 -43.3694243343 -39.8954459494 -39.1521349341 -35.0667556537 -30.116486688 -24.8828020896 -21.4256446063 -16.2515892074 -6.61392021994 -0.173052431511
3001000000.0 -72.8656696846 -69.8891638874 -50.5955251755 -45.9946078536 -45.2368940657 -44.2144492018 -43.2397787263 -42.1989649882 -41.0908526824 -40.3447440094 -35.8886096384 -30.9366274995 -25.7619501128 -21.7871264105 -16.4143889319 -6.74153203446 -0.300584686065
3105000000.0 -72.2628216382 -69.6098209752 -50.3571304113 -45.815658016 -45.0414953538 -43.9869067593 -43.0095546166 -42.0991701542 -40.9365702027 -40.2088344167 -35.7489094515 -30.8258437937 -25.5946624247 -21.5197952847 -16.4655939278 -6.9224193245 -0.272394270916
3605000000.0 -71.9809329274 -69.2900176492 -50.0885775146 -45.5492271732 -44.7734631722 -43.7385559387 -42.758342989 -41.7181624226 -40.5579268978 -39.7089281131 -35.3917711403 -30.4871975641 -25.226207024 -21.4619852457 -16.3109622227 -6.61749422117 -0.0732266298015
4105000000.0 -71.9280854627 -71.0365517193 -50.907801553 -45.651223904 -44.9349620337 -43.888878171 -42.9191699145 -41.8818014098 -40.8405782153 -39.704661615 -37.8880249875 -32.9586484107 -27.9987287937 -21.4563939645 -16.2918864399 -6.57254310856 -0.0604305305894
4505000000.0 -72.4911932198 -71.1962229811 -51.1290930527 -46.001950025 -45.1326405718 -44.074907984 -43.1199823439 -42.0802726569 -41.0817035454 -39.9118830204 -37.734552624 -32.8264832719 -27.8588621642 -21.612049863 -16.4569007913 -6.74072601742 -0.165788603963
4605000000.0 -72.0193199317 -71.0404180551 -51.1332975227 -45.9048611984 -45.145826329 -44.096043564 -43.1287785356 -42.0715288848 -41.0838508758 -39.9216555512 -37.6533602921 -32.7569967396 -27.8253214728 -21.6337090859 -16.4804063454 -6.78049984532 -0.146507540355
4705000000.0 -71.9058026809 -70.9205566461 -51.0411024266 -45.981085284 -45.084210969 -44.0164100052 -43.0266053441 -41.9779505722 -40.9649495378 -39.8285696935 -37.5289472728 -32.6297929149 -27.853599965 -21.5853292294 -16.4577391784 -6.72952201796 -0.143370618074
4805000000.0 -71.8305823935 -70.81460016 -51.0090571569 -45.8091416923 -45.0650337488 -44.0310146404 -43.04132965 -42.0188278937 -40.9876057229 -39.8495558103 -37.5583490745 -32.6556486825 -27.7202953391 -21.6985089496 -16.5606572816 -6.83171050746 -0.230157128807
4905000000.0 -71.6996694279 -71.1736950482 -50.8264752444 -45.7234263052 -44.9757251555 -43.9454449448 -42.9676543508 -41.9282673514 -40.9060803105 -39.7695726144 -37.5174067567 -32.603685907 -27.6455485895 -21.7020906941 -16.5593017693 -6.86227090648 -0.201714877929
5005000000.0 -72.1948668096 -70.9839262905 -51.2407005882 -46.022354085 -45.2912096182 -44.2503137641 -43.2523442934 -42.2178580739 -41.1845777866 -40.0326365118 -37.7713851772 -32.8758835317 -27.906880946 -22.0042866831 -16.8676386907 -7.15951175304 -0.494809963104
5105000000.0 -71.9122473356 -70.7055318693 -50.9489026356 -45.7877701465 -45.0333189818 -43.9815337112 -42.9948956465 -41.9989848236 -40.9586266596 -39.8204156725 -37.5050013016 -32.5948363791 -27.631292744 -21.7490000665 -16.5954083212 -6.89408109893 -0.251556413391
5205000000.0 -72.044346535 -70.9184133116 -51.0823489976 -45.8803473054 -45.1323549106 -44.09184488 -43.1191600798 -42.0806445094 -41.0477322508 -39.8955497328 -37.4356838159 -32.5261939802 -27.5407633548 -21.7172737696 -16.5325299441 -6.81826721023 -0.151395487216
5605000000.0 -71.7284077862 -71.0964054666 -52.1071817972 -46.610240968 -45.9706423738 -44.9859493674 -44.1489540236 -42.3913246278 -41.5952093514 -40.4908821675 -37.4146657247 -32.4636160778 -27.4838232365 -21.8124762793 -16.6221593047 -6.89717856478 -0.200131571668
5999000000.0 -71.7106776364 -70.8140393534 -51.4134748769 -46.3245211247 -45.5716157733 -44.5409220533 -43.5316237455 -42.4676569616 -41.4479613169 -40.3434726791 -37.1489252742 -32.2622779615 -27.280387571 -21.8709258331 -16.7344169814 -6.98862515403 -0.261906015041
