@ref 36 1 76.0
99000000.0 129.458706421
299000000.0 130.512724811
499000000.0 131.055394449
699000000.0 131.544658627
899000000.0 131.463075893
1099000000.0 130.214965055
1299000000.0 129.620222879
1499000000.0 128.95581956
1699000000.0 128.335909098
1899000000.0 127.245019736
2099000000.0 127.072501634
2299000000.0 127.565624429
2499000000.0 127.119970636
2699000000.0 126.24316615
2899000000.0 125.25683088
3000000000.0 124.033929291
3001000000.0 138.649541907
3201000000.0 138.053253871
3401000000.0 137.990749274
3601000000.0 138.397235892
3801000000.0 137.995256795
4001000000.0 137.883098399
4201000000.0 137.740752424
4401000000.0 137.39588823
4501000000.0 137.126993647
4601000000.0 137.005464168
4701000000.0 136.451414397
4801000000.0 135.906798937
4901000000.0 135.46409381
5001000000.0 135.759779636
5101000000.0 135.776407357
5201000000.0 135.55461889
5401000000.0 136.371870026
5601000000.0 135.47582095
5801000000.0 133.319157596
5999000000.0 131.124983459
@gain 22 17 0.0 5.0 25.0 30.0 31.0 32.0 33.0 34.0 35.0 36.0 40.0 45.0 50.0 55.0 60.0 70.0 76.0
99000000.0 -70.7928839751 -67.9874373026 -48.5337680284 -43.3006685652 -42.2548419656 -41.2860199211 -40.2514636856 -37.271619526 -36.1174797539 -35.6444045619 -31.7662286024 -26.7561545507 -21.8592643056 -19.1727647895 -13.9779326745 -4.80237074883 -0.112965306322
105000000.0 -71.1589014727 -68.1679863491 -48.5815850718 -43.3436390293 -42.3149535369 -41.3399792927 -40.2950081941 -37.1942404596 -36.0413291791 -35.6063883656 -31.7297109173 -26.7143138459 -21.8177546489 -19.1957597373 -14.0149403733 -4.80153252683 -0.0145174896776
205000000.0 -71.8002456257 -68.8580195681 -49.2742365316 -43.9446504373 -42.9155800888 -41.9431670003 -40.9042984654 -37.8205608806 -36.6667586518 -36.6797344781 -32.8079568803 -27.7946722001 -22.9004389168 -19.7902909584 -14.6002777328 -5.23378558078 0.254130091141
305000000.0 -72.1681322649 -69.1517635894 -49.5523447848 -44.2639244535 -43.2444984657 -42.273682713 -41.2327297449 -39.0764503705 -37.9213149303 -37.886302643 -33.9707472846 -28.9685721117 -24.0803253156 -20.2566270392 -15.0713406614 -5.59252031134 0.16779211716
405000000.0 -72.3392362755 -69.210468161 -49.6646324482 -44.383594921 -43.3733268038 -42.3994467805 -41.3634459129 -40.3490502163 -39.2001274603 -38.8395737285 -34.9438129225 -29.949865667 -25.0394788571 -20.6193927019 -15.4300304648 -5.9239181628 -0.0116781807894
605000000.0 -72.3354463071 -69.3051130147 -49.5553857665 -44.3106172124 -43.2773620741 -42.3134199353 -41.2772365825 -41.6768784612 -40.5298603039 -39.4571412393 -35.5424353196 -30.5585354009 -25.6458395261 -20.7109408644 -15.5369681401 -5.99860439218 0.051049651503
1105000000.0 -73.0353284072 -70.0356490752 -50.2520324424 -45.0169612984 -44.0061542427 -42.9919286303 -41.9472935164 -42.6857054927 -41.5349241791 -39.6023158349 -35.7596844727 -30.7805858548 -25.8829392634 -21.1960941361 -16.0461068618 -6.45431283488 -0.283901557564
1605000000.0 -72.3072965555 -69.4382187042 -49.799122558 -45.2309118032 -44.5031344989 -43.4585784225 -42.4757429575 -41.4485987511 -41.3025998647 -40.59005467 -36.1443304284 -31.178306136 -25.9345100746 -21.0554054645 -15.9122486504 -6.27344369758 -0.0494542480139
2105000000.0 -72.2496089184 -69.1709647504 -49.6821495081 -45.1589894627 -44.4587364749 -43.4188810188 -42.3964195138 -41.4154386765 -41.1361036249 -40.3360865387 -35.8822486364 -30.9079846931 -25.6676729543 -21.3205572241 -16.1969143243 -6.55287231639 -0.182444164672
2605000000.0 -73.5633265148 -70.7036972328 -51.0764149038 -46.5746983352 -45.8970809507 -44.8747856586 -43.8943971177 -42.8585944613 -40.5006005711 -39.7874078193 -35.4271345252 -30.475643465 -25.2629783356 -21.3202933006 -16.1705392514 -6.49646304171 -0.0813063055988
3000000000.0 -73.1692334626 -70.2548676492 -50.7555941808 -46.2414004534 -45.5248425953 -44.4747017343 -43.5119896858 -42.4718490928 -39.5959459936 -38.8621899402 -34.7474246897 -29.673005822 -24.5482364298 -21.1880474637 -16.0048095468 -6.29206334747 0.178773212926
3001000000.0 -71.9132949843 -69.0522016542 -50.0528015937 -45.5980491601 -44.8806906507 -43.8734837674 -42.9952795798 -41.8480105762 -41.0951622423 -40.3386176099 -35.845757689 -30.8902176985 -25.7015348004 -21.4902622879 -16.3445973473 -6.67870136604 -0.192534791275
3105000000.0 -71.7706465842 -68.9868341518 -49.9937835864 -45.5689110179 -44.8466948861 -43.7934972263 -42.8423128546 -41.8307502351 -41.048625278 -40.3257779441 -35.8245731307 -30.8992203629 -25.6809541608 -21.6002095397 -16.45113966 -6.79573162136 -0.166245605251
3605000000.0 -72.2607634523 -69.434163112 -50.1992429076 -45.9863153156 -45.2733121845 -44.2442165005 -43.2643901641 -42.2136452267 -40.7241544106 -39.9914283933 -35.6677213939 -30.7712161838 -25.5260925836 -21.7877893334 -16.6372221094 -6.89481437203 -0.209897350904
4105000000.0 -72.25481223 -71.1791028204 -51.1971963092 -46.1656294242 -45.3911187927 -44.327517686 -43.3517079583 -42.2993860227 -41.2649103969 -40.1132689248 -37.7883093561 -33.0391074276 -28.1125117224 -21.6482403409 -16.4656117499 -6.46501562684 -0.0534374089589
4505000000.0 -72.1940893129 -70.8908502611 -51.2538778996 -46.2044876237 -45.4824018725 -44.4392532791 -43.4942827824 -42.431394936 -41.4122045963 -40.2861320679 -37.7669632069 -32.8453362803 -27.8941302685 -21.7690612411 -16.6352510777 -6.88986088176 -0.131432173932
4605000000.0 -72.1854812129 -71.1110550999 -51.1244949066 -46.2155152638 -45.5037785606 -44.4607930485 -43.4265422186 -42.4192599632 -41.426357379 -40.2877098442 -37.7278961383 -32.8096918509 -27.8973251798 -21.8289150239 -16.6778600405 -6.96647675023 -0.147188607184
4705000000.0 -71.8967887827 -70.8614986033 -51.1049671958 -46.0242069678 -45.2786554304 -44.2434030351 -43.2617344733 -42.0868489012 -41.1828679404 -40.0690177443 -37.5660345058 -32.6465305227 -27.7113267929 -21.6736452584 -16.5006271918 -6.80832475336 -0.0778115218226
4905000000.0 -71.3925567099 -70.3101885163 -50.7216842052 -45.6788719692 -44.9465170565 -43.9161503599 -42.9445674815 -42.0450035589 -40.8970359695 -39.7406248989 -37.552745928 -32.6166571702 -27.6951453935 -21.9001201439 -16.7703418038 -7.01354563004 -0.222804728182
5105000000.0 -71.0641453162 -70.1694297352 -50.4472142343 -45.4064366441 -44.8787445352 -43.8095527612 -42.8619062563 -41.2192569053 -40.5286733844 -39.4536756202 -37.4411125354 -32.6474402466 -27.6016341892 -21.8645448195 -16.7175892404 -6.98002557829 -0.23732362475
5605000000.0 -71.7697293672 -70.7322844889 -51.4424296292 -46.3617448417 -45.6372953704 -44.6347040446 -43.6601379642 -42.6132173716 -41.5602402777 -40.4573193304 -37.5285434041 -32.5700435911 -27.6047493745 -22.0242683972 -16.853844156 -7.08033284693 -0.229497918835
5999000000.0 -71.2839669731 -70.2020400002 -50.8579790641 -45.8748059381 -45.1765611731 -44.1415611006 -43.1249188805 -42.0537560798 -41.0389728802 -39.9414680181 -37.154770443 -32.2558648339 -27.2853211837 -22.0306940266 -16.8991069811 -7.15182253535 -0.221027306527
