@ref 36 1 76.0
99000000.0 130.167674652
299000000.0 131.317306191
499000000.0 131.678544159
699000000.0 132.399614461
899000000.0 132.437407412
1099000000.0 131.188629996
1299000000.0 130.860532168
1499000000.0 130.017329227
1699000000.0 129.346802116
1899000000.0 128.382732447
2099000000.0 128.365187275
2299000000.0 128.530779355
2499000000.0 127.900815381
2699000000.0 127.132879669
2899000000.0 126.071988283
3000000000.0 125.637032742
3001000000.0 139.247802295
3201000000.0 138.379568156
3401000000.0 138.022273988
3601000000.0 138.495670146
3801000000.0 138.547087768
4001000000.0 138.372648328
4201000000.0 138.231962913
4401000000.0 138.127093821
4501000000.0 138.016859984
4601000000.0 137.97483265
4701000000.0 137.541208552
4801000000.0 137.140468393
4901000000.0 136.858856735
5001000000.0 137.340580982
5101000000.0 137.248059537
5201000000.0 137.140312023
5401000000.0 137.375875884
5601000000.0 136.671908817
5801000000.0 135.460265893
5999000000.0 134.098699598
@gain 25 17 0.0 5.0 25.0 30.0 31.0 32.0 33.0 34.0 35.0 36.0 40.0 45.0 50.0 55.0 60.0 70.0 76.0
99000000.0 -71.2364780831 -68.2386440288 -48.8924778723 -43.6923221023 -42.6884781062 -41.70932116 -40.6885941683 -37.4296620293 -36.2859550537 -35.8036139788 -31.9048613782 -26.8975873698 -21.976367722 -19.291045152 -14.1022222594 -4.90454614206 -0.040783695075
105000000.0 -71.3125617733 -68.3923503019 -48.9363000175 -43.7477329268 -42.7395530747 -41.76381038 -40.7414700777 -37.3680787442 -36.2232111133 -35.7839986903 -31.8901567028 -26.8837272274 -21.9605843914 -19.336783827 -14.1618238343 -4.91514047537 0.0139790549234
205000000.0 -71.820536095 -69.2306278257 -49.6979782683 -44.3658714212 -43.3626431091 -42.3815623024 -41.3615983739 -38.0373278573 -36.8907258847 -36.8916897529 -33.0067003757 -27.9951460246 -23.0758552776 -19.981734487 -14.7945627394 -5.38107924616 0.270694182883
305000000.0 -72.4797849473 -69.5490876589 -50.0984659406 -44.7656959997 -43.745128789 -42.7653124141 -41.7428366231 -39.3335111162 -38.1808102192 -38.1424076614 -34.2116844144 -29.2106840933 -24.3017543396 -20.4825406968 -15.3030528925 -5.77081574916 0.152145514833
405000000.0 -72.1939515667 -69.6528821977 -50.1905398489 -44.8022357779 -43.7728967914 -42.7950787967 -41.772849834 -40.4935557526 -39.4413937258 -38.9784674114 -35.0567341824 -30.0689823091 -25.1431640028 -20.715709329 -15.5315312944 -5.96328118344 0.108381744184
605000000.0 -72.2821245446 -69.4679399911 -49.9245170876 -44.980272395 -43.7851119766 -42.7973733989 -41.7797245226 -41.8537133917 -40.7005363582 -39.6415294605 -35.7085534227 -30.7220196515 -25.7953732432 -20.8276836811 -15.6607665174 -6.04929838414 0.182984189996
1105000000.0 -73.4533940808 -70.5734877214 -51.0185570522 -45.6663365961 -44.6298771367 -43.6108047594 -42.6004681545 -43.008816057 -41.8622172172 -40.0797931885 -36.1266233885 -31.236178348 -26.2297308837 -21.4836563148 -16.3381143257 -6.68388318542 -0.343651149811
1605000000.0 -72.9079862806 -69.9598593441 -50.573524385 -45.9585533465 -45.245663609 -44.1978972861 -43.2224564416 -42.2167703783 -41.5482730974 -40.8344848567 -36.4340200215 -31.4630019429 -26.221328091 -21.2586880109 -16.1322343796 -6.42152474395 -0.0168532818641
2105000000.0 -72.9163918699 -69.955124413 -50.6772603339 -46.0445936399 -45.2780951686 -44.3015257207 -43.3380793773 -42.271338282 -41.3046592395 -40.5971177957 -36.1695931326 -31.2053669507 -25.9548273072 -21.4876358455 -16.3597601339 -6.67096885018 -0.17378094496
2605000000.0 -74.1605688855 -71.2846732975 -51.9312867795 -47.3281813468 -46.600927204 -45.5535531743 -44.5753981726 -43.5651681838 -40.7391836365 -40.0295669913 -35.7110105415 -30.7494764215 -25.5380251401 -21.5568580738 -16.4155118432 -6.71385411467 -0.137035766992
3000000000.0 -74.0148852465 -71.1113202469 -51.7907049781 -47.2267889142 -46.5154910552 -45.4656270794 -44.4996310139 -43.4779102854 -40.0108337773 -39.3595809709 -35.6653963982 -30.3695333947 -25.1149988374 -21.6094651787 -16.4247289565 -6.72358189749 -0.134839651613
3001000000.0 -72.2097139638 -69.3920977288 -50.1340727431 -45.7782376089 -44.9951648211 -43.9542368142 -42.9606136806 -41.9254299392 -40.916168788 -40.1835360588 -35.7030071002 -30.7376164286 -25.5448908999 -21.3713327216 -16.2423021439 -6.56091734889 -0.138031359751
3105000000.0 -72.4595305658 -69.3571672847 -50.0042385542 -45.6727863015 -44.8695451361 -43.8052029052 -42.8249466469 -41.7873185707 -40.9918071287 -40.1608883522 -35.6457600297 -30.7187538659 -25.4899112205 -21.4451423096 -16.3068859521 -6.66253028499 -0.177036534761
3605000000.0 -72.0374872758 -69.1256678997 -49.8734126578 -45.5591779137 -44.7612409827 -43.7415847202 -42.7988234356 -41.7129142535 -40.4117421802 -39.6892112874 -35.377168449 -30.473153348 -25.3100590565 -21.5078239838 -16.3428086886 -6.63431070765 -0.0962356630828
4105000000.0 -71.781731766 -70.7213827833 -50.6056746341 -45.5446508938 -44.8271147454 -43.7674484294 -42.7580033089 -41.66815425 -40.6937325474 -39.5936621584 -37.8306130776 -32.8750062201 -27.9114668552 -21.4111317818 -16.2568857155 -6.53393823805 -0.134041082135
4505000000.0 -71.7502740265 -70.7038858429 -50.7379152363 -45.4822681112 -44.9131634016 -43.8885239565 -42.9319917992 -41.8928191853 -40.8611963548 -39.7320428644 -37.6621902803 -32.7347847954 -27.7686861717 -21.5549354214 -16.4162465034 -6.70643791344 -0.146683108199
4605000000.0 -71.9074647087 -70.764129092 -50.7650103147 -45.7825393939 -44.9802554805 -43.9236633155 -42.9450141911 -41.9007217569 -40.8881187725 -39.7495743313 -37.5923414791 -32.6762350952 -27.7471765292 -21.5829632238 -16.4467136835 -6.75989816733 -0.149606411322
4705000000.0 -71.7138020348 -70.3433876414 -50.6179592607 -45.6764992539 -44.8995175937 -43.8568652333 -42.862284008 -41.8259334019 -40.8111294539 -39.6860784993 -37.4981973801 -32.5827243639 -27.6288414862 -21.5513367008 -16.4485973119 -6.72413377399 -0.145752888493
4805000000.0 -71.4761453254 -70.4987108131 -50.6462252667 -45.8446811173 -44.9180508514 -43.8583065949 -42.8582991624 -41.8475836923 -40.8094933736 -39.676039754 -37.5145862158 -32.5896915342 -27.6514913857 -21.6650011071 -16.5443295094 -6.80473558097 -0.222940549726
4905000000.0 -71.3406830394 -70.3554966287 -50.5953109515 -45.6351511336 -44.8436000707 -43.7944182238 -42.8036067115 -41.7824276026 -40.751141467 -39.6227906042 -37.5036347372 -32.574780436 -27.6360027931 -21.7046059271 -16.5770199104 -6.85114072359 -0.238568141048
5005000000.0 -71.5433394768 -70.5832233498 -50.7550267072 -45.9857794044 -45.0662220798 -43.9770139944 -42.9701343537 -41.9442337356 -40.9036749447 -39.7583394187 -37.6300565644 -32.7151747518 -27.7435674482 -21.8674515531 -16.736949065 -7.0281406553 -0.367556944277
5105000000.0 -71.381724177 -70.9970710417 -50.448798391 -45.2338983324 -44.8103246847 -43.8017191121 -42.8163440383 -41.8345502371 -40.7853432169 -39.6569325721 -37.4471232985 -32.5279427093 -27.5670147119 -21.7078486733 -16.5716338407 -6.85865612824 -0.222501323827
5205000000.0 -71.4654603477 -70.4762336772 -50.7296514687 -45.7914929504 -45.0219717424 -43.9581231879 -42.9814911187 -41.9556465709 -40.9168366984 -39.7711946725 -37.4172796588 -32.4892041701 -27.5063283914 -21.7040413954 -16.5355573031 -6.80924227383 -0.146396711323
5605000000.0 -71.724388431 -70.9214362739 -51.7688262916 -46.5038570854 -45.7387058606 -44.7069886977 -43.6301672417 -42.5860073314 -41.5387665098 -40.3986132674 -37.3928961054 -32.4322171494 -27.4442970116 -21.8023838533 -16.6341162284 -6.88684113562 -0.226103590742
5999000000.0 -71.5018005315 -70.5818697067 -51.0582381791 -46.1683113124 -45.4614613013 -44.3999369597 -43.3320592362 -42.2700471856 -41.2407038978 -40.1489164621 -37.0805551064 -32.1735770433 -27.208264053 -21.813320509 -16.6959030297 -6.93565385354 -0.232026532772
