@ref 36 1 76.0
99000000.0 130.167450659
299000000.0 131.26012168
499000000.0 131.794787834
699000000.0 132.540726131
899000000.0 132.692992739
1099000000.0 131.57155642
1299000000.0 131.323923538
1499000000.0 130.420625292
1699000000.0 129.558415708
1899000000.0 128.45068939
2099000000.0 128.488217802
2299000000.0 128.725937539
2499000000.0 128.019678982
2699000000.0 127.288685974
2899000000.0 126.417228851
3000000000.0 126.11380857
3001000000.0 139.970681037
3201000000.0 139.086654272
3401000000.0 138.740348372
3601000000.0 139.156008659
3801000000.0 139.217355312
4001000000.0 139.067711231
4201000000.0 138.836793353
4401000000.0 138.71546274
4501000000.0 138.575720646
4601000000.0 138.411547389
4701000000.0 137.85185147
4801000000.0 137.426549297
4901000000.0 137.163053009
5001000000.0 137.839066774
5101000000.0 137.658685528
5201000000.0 137.612149908
5401000000.0 137.895642064
5601000000.0 137.139955345
5801000000.0 135.889662037
5999000000.0 134.499140137
@gain 25 17 0.0 5.0 25.0 30.0 31.0 32.0 33.0 34.0 35.0 36.0 40.0 45.0 50.0 55.0 60.0 70.0 76.0
99000000.0 -70.7236525398 -67.9001569128 -48.6554587823 -43.4763121866 -42.4402375977 -41.4735552974 -40.4366155693 -37.1394675069 -35.9873880889 -35.5451604851 -31.6521889985 -26.627163977 -21.73609475 -19.1980467782 -13.9805084921 -4.8753106285 -0.212316408546
105000000.0 -70.8158585163 -67.5727388809 -48.7839526351 -43.5289370508 -42.4923677626 -41.5183208986 -40.4803472615 -37.0865450235 -35.9265303695 -35.5311148544 -31.6389342898 -26.6274750062 -21.725183676 -19.2406585488 -14.0361969776 -4.89274177379 -0.143516679072
205000000.0 -71.6658331624 -69.1827845911 -49.4306822934 -44.0896318037 -43.0555756644 -42.0817423039 -41.0425181657 -37.7528451796 -36.5964945837 -36.653097156 -32.7717559521 -27.7556533951 -22.8537323295 -19.892437695 -14.695371244 -5.37625969614 0.125317494282
305000000.0 -71.9582104615 -69.1181806917 -49.7381840215 -44.4193812544 -43.3880987902 -42.4212314781 -41.3846816777 -39.024038335 -37.8658231924 -37.855321276 -33.9349980556 -28.9291497431 -24.0316695986 -20.3905701095 -15.1972413254 -5.75796005712 0.0123388391114
405000000.0 -72.0930079578 -69.0398508563 -49.5826881451 -44.8037925338 -43.5309175121 -42.5185366711 -41.4815072997 -40.2595669121 -39.0981933305 -38.7559030792 -34.8344944294 -29.8404192112 -24.7703940826 -20.6674949978 -15.4905560755 -6.02039231102 -0.0660889459316
605000000.0 -72.0922672269 -69.2787518856 -49.8622208632 -44.685620036 -43.49546569 -42.5458312543 -41.5868134003 -41.651883288 -40.4757488164 -39.5261325584 -35.5026570575 -30.4896826016 -25.517245696 -20.7566974724 -15.5790438362 -6.07475619993 0.0433665302185
1105000000.0 -73.3960943302 -70.3449769957 -50.7610797199 -45.4448128282 -44.4060117077 -43.3971975873 -42.3717515624 -42.7527521108 -41.5993562733 -39.7619788212 -35.8727578135 -30.880972737 -25.9779393912 -21.3473862854 -16.1891158605 -6.62170748713 -0.441096041963
1605000000.0 -72.3581500405 -69.7936848648 -50.5007194657 -45.8936493849 -45.183654706 -44.1455640621 -43.1729623545 -42.1500860173 -41.2108550109 -40.5022330063 -36.1605123576 -31.1993238641 -25.941635312 -21.1104934579 -15.9499618175 -6.36958465244 -0.0799661724765
2105000000.0 -72.1600708702 -69.8083244816 -50.4140299356 -45.7881941818 -45.0832849978 -44.0451489684 -43.0606970878 -42.045190548 -40.9547931523 -40.233604364 -35.8735213892 -30.8962909835 -25.6500978823 -21.3164723615 -16.1784831082 -6.5684188222 -0.194248183173
2605000000.0 -73.5118276257 -70.7247971093 -51.4809989372 -46.9942074858 -46.2292731889 -45.1807389006 -44.2153729743 -43.185776588 -40.388618371 -39.6757809164 -35.4310816708 -30.4961964964 -25.2652080825 -21.4119508345 -16.2840960547 -6.68728495219 -0.237611640881
3000000000.0 -73.6948724615 -70.8816544606 -51.587592712 -47.058041273 -46.3221810018 -45.2754979656 -44.3210203786 -43.2771099251 -39.8009180169 -39.2216103904 -35.0524533924 -30.0728844876 -24.8359970595 -21.4689317803 -16.2756246833 -6.64775863259 -0.213234597635
3001000000.0 -72.4262782938 -69.4873425422 -50.2716547729 -45.7825702232 -45.0119253176 -43.9725594958 -42.9981547501 -41.9617826706 -40.8693450077 -40.1264562418 -35.7204131338 -30.7723925013 -25.5624605538 -21.4385134218 -16.2768727581 -6.66277618098 -0.268583931056
3105000000.0 -72.457179627 -69.411590141 -50.1418870542 -45.6595631782 -44.9061421072 -43.8429850531 -42.8748907999 -41.8186549279 -40.7795196649 -40.0612271931 -35.6535159778 -30.7395908443 -25.5123229459 -21.4786632051 -16.3290567863 -6.73084372739 -0.158950640789
3605000000.0 -72.5050419716 -69.3410612433 -50.1377351193 -45.6669016877 -44.9055150112 -43.8632821117 -42.8913099547 -42.020613804 -40.4920471885 -39.7340770355 -35.4657924068 -30.5015698128 -25.3142333939 -21.6334559042 -16.4543002791 -6.82543353251 -0.096493798667
4105000000.0 -72.5458752434 -71.1183288056 -50.9606969301 -45.7760761405 -45.0662353846 -44.022001651 -43.0532650952 -42.0093265194 -41.0015272246 -39.8292461349 -38.0051495242 -33.0547719235 -28.0923038583 -21.606749663 -16.4350576974 -6.77132168195 -0.0667059135589
4505000000.0 -72.4906302902 -71.0746150771 -51.1168367816 -45.9811658536 -45.2243059256 -44.1760386419 -43.2255342504 -42.1690823237 -41.1444650201 -40.0228022502 -37.8378978513 -32.9317311596 -27.9718655765 -21.7684431193 -16.6046679392 -6.98488142628 -0.191256962718
4605000000.0 -72.3460486314 -71.042698199 -51.0748720014 -46.0375170161 -45.2020700691 -44.1424469369 -43.1760951222 -42.1203416517 -41.2445890958 -39.994545563 -37.7495180859 -32.9268147514 -27.9141536563 -21.7545161629 -16.5893468362 -6.97583759176 -0.158371207453
4705000000.0 -72.1423249081 -70.9957138387 -50.9439325738 -45.7889102177 -45.0175577745 -43.9760360729 -42.9973058303 -41.9432571513 -40.9531034338 -39.8142032441 -37.5609874227 -32.6486293842 -27.7021093553 -21.6315171867 -16.5081750642 -6.85503423548 -0.164889815332
4805000000.0 -72.0009189862 -70.703819577 -50.8838726024 -45.8408042761 -45.0234469825 -43.9654689972 -42.9843174405 -41.9554271171 -40.9317195944 -39.7995109421 -37.6622038709 -32.668491406 -27.7294515176 -21.7458267738 -16.5948400562 -6.92912577815 -0.239337017081
4905000000.0 -71.862075992 -70.8131996714 -50.8897228063 -45.717510863 -44.9570610553 -43.9179143392 -42.941917565 -41.9030782055 -40.8854291898 -39.758442878 -37.5916874098 -32.667277847 -27.7317777437 -21.8012142976 -16.7651345377 -7.00826548283 -0.281431863932
5005000000.0 -72.0879010341 -70.8127351058 -51.1274210344 -46.0698538973 -45.2883439538 -44.2322155578 -43.2387548354 -42.2034506806 -41.1810447541 -40.0272908719 -37.8423544834 -32.9354958999 -27.9700534634 -22.08911503 -16.9323643903 -7.28690112529 -0.543175190283
5105000000.0 -71.9207205511 -70.6789308298 -50.8585440889 -45.9127207154 -45.02435278 -43.9639029486 -42.9756209897 -41.979081839 -40.9452887186 -39.8105206697 -37.5283160593 -32.6214254694 -27.8192105761 -21.8156423756 -16.6505702705 -6.9973393251 -0.2600298475
5205000000.0 -72.0504364321 -70.7502556575 -51.0183168388 -46.0661992881 -45.2042877591 -44.1386340032 -43.1649468916 -42.1246345892 -41.0995238518 -39.9519599737 -37.623401582 -32.5913498398 -27.6790646781 -21.7967701381 -16.5990769135 -6.93299033301 -0.190008441019
5605000000.0 -72.2549786438 -71.0133055188 -51.6782464234 -46.6619148531 -45.9908777232 -45.0418923464 -44.0646534324 -42.9475466517 -41.9131937399 -40.7315462948 -37.5061585424 -32.5449486607 -27.5637976954 -21.9028244389 -16.7168398656 -7.02497072486 -0.260102973094
5999000000.0 -72.2293474735 -71.1003126169 -51.4597449031 -46.4152046866 -45.7042243382 -44.7824959938 -43.6511803343 -42.5537166632 -41.5319850106 -40.4449923539 -37.1988296811 -32.2962306223 -27.317345976 -21.9276533343 -16.7727228861 -7.09371101793 -0.277862879181
