@ref 36 1 76.0
99000000.0 130.861433705
299000000.0 131.838803947
499000000.0 132.356434701
699000000.0 132.798070958
899000000.0 132.86997062
1099000000.0 131.693680114
1299000000.0 131.413872328
1499000000.0 130.474533234
1699000000.0 129.814611581
1899000000.0 128.910341314
2099000000.0 128.943616769
2299000000.0 129.151616696
2499000000.0 128.548937721
2699000000.0 127.830528678
2899000000.0 126.904801988
3000000000.0 126.463178863
3001000000.0 140.026169158
3201000000.0 138.989839027
3401000000.0 138.480467802
3601000000.0 138.965966292
3801000000.0 139.132894109
4001000000.0 139.037908328
4201000000.0 138.733715962
4401000000.0 138.74810345
4501000000.0 138.629955597
4601000000.0 138.562862974
4701000000.0 138.086276629
4801000000.0 137.655108616
4901000000.0 137.365462246
5001000000.0 137.844079683
5101000000.0 137.765945139
5201000000.0 137.693127898
5401000000.0 137.981927148
5601000000.0 137.441681691
5801000000.0 136.317522571
5999000000.0 134.741580578
@gain 25 17 0.0 5.0 25.0 30.0 31.0 32.0 33.0 34.0 35.0 36.0 40.0 45.0 50.0 55.0 60.0 70.0 76.0
99000000.0 -71.9706741092 -69.0640026635 -49.4210510958 -44.1795616826 -43.1014829871 -42.107067288 -41.0812977167 -37.6090000253 -36.456951345 -36.047062769 -32.1515370691 -27.1425936741 -22.2291294776 -19.5243681904 -14.3209734612 -5.0915075807 -0.158916836976
105000000.0 -72.1422310262 -69.2383377137 -49.4782464889 -44.2346394819 -43.1549519779 -42.1600568309 -41.1286903875 -37.5473697539 -36.3991710055 -36.0314928178 -32.1374703581 -27.124522411 -22.2121436654 -19.5755524894 -14.3798684929 -5.10971690927 -0.0861764660865
205000000.0 -72.4943350807 -69.817564788 -50.0917263704 -44.7552881671 -43.686604122 -42.6844535422 -41.6513384583 -38.1704258418 -37.0259471349 -37.0901405001 -33.2003298814 -28.1908058713 -23.2816667233 -20.361281099 -15.1305615452 -5.56408144428 0.209349174078
305000000.0 -72.9904336983 -70.1147026747 -50.3693965165 -45.0499295593 -43.9813889964 -42.9890274001 -41.9530294353 -39.4101460366 -38.2590580166 -38.2703664132 -34.3415706526 -29.339907734 -24.4340654501 -20.6258847464 -15.425250001 -5.88351618583 0.0896753308639
405000000.0 -72.8129808291 -70.3893378454 -50.5165748235 -45.1492336703 -44.0890539553 -43.090687798 -42.0625870399 -40.6507591195 -39.4997296868 -39.1862157569 -35.2708459437 -30.2799892199 -25.3588552376 -20.9441651798 -15.731573116 -6.16046451274 -0.0445440883583
605000000.0 -72.809513838 -69.9864161567 -50.211738287 -44.7401649518 -44.00042164 -43.0591994569 -42.0396441519 -41.9918818994 -40.8369774772 -39.8304554979 -35.9033797003 -30.9134748708 -26.0156879317 -21.0153528943 -15.8278249195 -6.21285785081 0.0489563018438
1105000000.0 -73.5589301815 -70.9038630888 -51.0939644081 -45.8385502208 -44.800739788 -43.7528993586 -42.7291423109 -43.0890628824 -41.9382928982 -40.1214330479 -36.2256843196 -31.2536495448 -26.3283518079 -21.5470923565 -16.3793638257 -6.71905056156 -0.373208356937
1605000000.0 -73.0956931454 -70.2849492351 -50.6741858783 -46.0715606181 -45.3574530245 -44.3135329181 -43.3224419615 -42.3093172688 -41.6133800515 -40.9089683345 -36.5395173889 -31.5590929738 -26.3258053258 -21.3244455371 -16.1589380731 -6.46928908133 -0.0419523558198
2105000000.0 -72.9250508674 -70.5217784089 -50.8472805138 -46.2738530403 -45.538988724 -44.4997217912 -43.4972890003 -42.4878528879 -41.3929340969 -40.6918721574 -36.2839706773 -31.3061554213 -26.0566019352 -21.5213512859 -16.3702982212 -6.67231383286 -0.133003347414
2605000000.0 -74.1693586969 -71.4893513971 -52.0313560595 -47.4881784873 -46.806097003 -45.7676484545 -44.7754445424 -43.7529240387 -40.8644351405 -40.1674260402 -35.8666691677 -30.9174359341 -25.6893093859 -21.6282539641 -16.4658740497 -6.75945304247 -0.209438660774
3000000000.0 -74.5053082829 -71.7804657733 -52.2212468164 -47.7129074888 -46.9724627033 -45.9225993696 -44.9573702048 -43.914623207 -40.2070974734 -39.5000670589 -35.3653962868 -30.392424003 -25.1630647455 -21.64036107 -16.4555333119 -6.74627789381 -0.142890664497
3001000000.0 -72.8747470328 -70.1021533165 -50.8298919623 -46.1830639302 -45.4644467105 -44.4333337433 -43.4169630227 -42.3910478358 -41.3036504699 -40.5780702142 -36.1150731885 -31.1447396921 -25.9408185695 -21.734534176 -16.5894393605 -6.88046625395 -0.370769590628
3105000000.0 -72.6308592955 -69.9353021795 -50.6260849057 -46.0234806887 -45.2967877108 -44.2356937896 -43.2504795872 -42.126747559 -41.1526080711 -40.4757109288 -36.0204381002 -31.0833002766 -25.8631427217 -21.7785516227 -16.4899463065 -6.88948592733 -0.169700345207
3605000000.0 -72.8715047089 -69.6512701129 -50.3986373527 -45.805366625 -45.066148959 -44.0263904892 -43.0289194526 -41.9943871171 -40.8807267482 -40.0831289312 -35.7921565728 -30.8746539023 -25.6206215135 -21.902041854 -16.7281833116 -7.01858574622 -0.291991788085
4105000000.0 -72.9369604444 -71.4381420372 -51.1929527019 -45.8851006926 -45.2142738391 -44.1660153256 -43.1735006714 -42.1352487455 -41.1020197377 -39.9640972876 -38.3146235926 -33.3551678933 -28.3919726811 -21.8754315172 -16.6961971289 -6.95816866037 -0.317638154944
4505000000.0 -72.8208412208 -71.50004016 -51.3671954774 -46.3190072457 -45.3901180016 -44.3150971007 -43.3419396611 -42.2963925114 -41.2619613234 -40.1566477772 -38.0886481776 -33.1616009166 -28.197426924 -21.9503775355 -16.7768367481 -7.07968347763 -0.185185594693
4605000000.0 -72.19056471 -71.2838656682 -51.3521335621 -46.2114546201 -45.4136761934 -44.3557603686 -43.3695937002 -42.3290071339 -41.3372709475 -40.1940587021 -38.0156404668 -33.1000095938 -28.1724935944 -21.9599893853 -16.7908534273 -7.10572762709 -0.183777999058
4705000000.0 -72.0908865386 -70.9144255368 -51.2394942333 -46.0548099105 -45.315552058 -44.2774729337 -43.2753218924 -42.2290416959 -41.2267609061 -40.1081054827 -37.8928230788 -32.9799673376 -28.0314556955 -21.9089732084 -16.7810864936 -7.03670371597 -0.158095497177
4805000000.0 -71.9665692037 -71.0394219452 -51.249552333 -46.0292584131 -45.3031631727 -44.264033623 -43.2593652536 -42.2399535393 -41.2112516136 -40.0910168563 -37.9120088776 -32.9879122533 -28.0485167472 -22.0152706137 -16.855668137 -7.11723163987 -0.263884714348
4905000000.0 -71.8152582647 -70.443051259 -51.0635595529 -45.9422768854 -45.2218905685 -44.1875439721 -43.1895487095 -42.1566531495 -41.1357212391 -40.0215331107 -37.8819149484 -32.9557001467 -28.0220616882 -22.0491123304 -16.9043137415 -7.1587696496 -0.401474246323
5005000000.0 -72.160784449 -71.0329547855 -51.3274246371 -46.1482474536 -45.4053728912 -44.3541065103 -43.3436472566 -42.3127072788 -41.2779835388 -40.1673978499 -38.2061383825 -33.1204638799 -28.1361266361 -22.2155751551 -17.0571764056 -7.3297400239 -0.428062008971
5105000000.0 -71.8689893355 -70.7536783706 -51.1048317813 -46.1529058163 -45.2730541151 -44.2000223265 -43.1889136334 -42.1996688709 -41.1630625501 -40.0621678319 -38.1101343131 -32.9613410328 -27.9710797509 -22.0729591929 -16.9104591089 -7.18095282781 -0.259367482216
5205000000.0 -71.9157526656 -70.7682413159 -51.21638086 -46.0661981798 -45.3569727577 -44.3124277402 -43.3291125372 -42.2922873427 -41.2577953453 -40.1262870591 -37.7834353683 -32.8568406085 -27.8754753446 -22.0379046897 -16.8463367481 -7.10312073839 -0.167368366082
5605000000.0 -72.5200462925 -71.2959869378 -51.8824640744 -46.7752593426 -46.0454384118 -45.0378599651 -44.050894124 -43.0104844938 -41.9766566809 -40.8468027055 -37.769619987 -32.8106489057 -27.8242788073 -22.1489120814 -16.9446692711 -7.18863964739 -0.275931493157
5999000000.0 -72.633192171 -70.5562129685 -51.4077918903 -46.4103296155 -45.6968407237 -44.6602973977 -43.6438866019 -42.5809430997 -41.5599441784 -40.4832290924 -37.278208037 -32.365110485 -27.3874282242 -21.9807370836 -16.8196535888 -7.0617924597 -0.106008324629
