@ref 36 1 76.0
99000000.0 130.785624753
299000000.0 131.919803837
499000000.0 132.547590416
699000000.0 133.092095546
899000000.0 133.149039985
1099000000.0 131.958894844
1299000000.0 131.609106024
1499000000.0 130.627153308
1699000000.0 130.040228561
1899000000.0 129.137642143
2099000000.0 129.011362616
2299000000.0 128.969595233
2499000000.0 128.329561849
2699000000.0 127.638424077
2899000000.0 126.722618627
3000000000.0 126.331834821
3001000000.0 139.733887536
3201000000.0 138.851376261
3401000000.0 138.429574086
3601000000.0 138.9228187
3801000000.0 139.035671421
4001000000.0 138.920565328
4201000000.0 138.665581582
4401000000.0 138.664651988
4501000000.0 138.574898167
4601000000.0 138.543238893
4701000000.0 138.047749124
4801000000.0 137.610387679
4901000000.0 137.301874897
5001000000.0 137.944931558
5101000000.0 137.634662334
5201000000.0 137.520628036
5401000000.0 137.676287578
5601000000.0 137.147373676
5801000000.0 136.033137538
5999000000.0 134.673395094
@gain 25 17 0.0 5.0 25.0 30.0 31.0 32.0 33.0 34.0 35.0 36.0 40.0 45.0 50.0 55.0 60.0 70.0 76.0
99000000.0 -71.510592079 -68.6712766128 -48.9838773019 -44.1204424048 -42.9605428492 -41.9621905449 -40.9188423524 -37.5750619976 -36.4194761002 -35.9574567501 -32.0702532646 -27.0611816798 -22.1598825107 -19.4290142252 -14.2552332939 -5.04501721367 -0.233135904139
105000000.0 -71.3842710905 -68.4268334479 -49.1742175323 -44.015607812 -42.9888653427 -42.0034367449 -40.9680360093 -37.5144710181 -36.3570054626 -35.9381036152 -32.0507226663 -27.0436628396 -22.1426270978 -19.4801525684 -14.3092460668 -5.05065823496 -0.167156298239
205000000.0 -72.3967786669 -69.4252451287 -49.7913790779 -44.5939919163 -43.5734655295 -42.5940907713 -41.5551737327 -38.1595110111 -37.0043372449 -37.0156480706 -33.1411136462 -28.1342975639 -23.2351548883 -20.1088539984 -14.9272931491 -5.50684585843 0.138249949488
305000000.0 -72.808088546 -69.8734028005 -50.1412935399 -45.0619316056 -43.9339036698 -42.939666977 -41.9056895603 -39.437215933 -38.280950509 -38.218187002 -34.3000541615 -29.3073095923 -24.4082239399 -20.5981470425 -15.4241639987 -5.88261019454 -0.0130998512513
405000000.0 -72.8545582048 -70.1736796601 -50.5153592936 -45.066740067 -44.0300049514 -43.0498401152 -42.0166658437 -40.7114294499 -39.5587003851 -39.148454519 -35.2377895667 -30.2575805292 -25.3430721671 -20.9396826719 -15.7568406946 -6.18338600282 -0.159729903626
605000000.0 -72.9135878487 -69.8156723212 -50.2666214804 -44.9906222449 -43.9884557771 -43.0211789628 -41.9885468033 -42.0629964241 -40.9062642988 -39.7721582889 -35.8543335145 -30.8750273246 -25.9592613492 -21.0199499917 -15.8497605516 -6.23694053787 -0.0522973725814
1105000000.0 -73.3197356704 -70.6939050725 -51.0822820784 -45.8794753665 -44.85735126 -43.8482880651 -42.821004146 -43.0815659163 -41.9333345828 -40.0105043179 -36.1234347917 -31.1390890748 -26.2356781932 -21.5536035214 -16.4031784918 -6.74452050595 -0.640054462335
1605000000.0 -73.1806997346 -70.1358580689 -50.6675785534 -46.1420906197 -45.4557002728 -44.4296883596 -43.4445646852 -42.4276381715 -41.616000607 -40.9017822617 -36.431338944 -31.4732794837 -26.2190035042 -21.3402058665 -16.199879255 -6.52348824543 -0.145075739788
2105000000.0 -72.9569628398 -70.2756239008 -50.801123733 -46.2834294392 -45.5872709536 -44.5597837207 -43.5595819263 -42.5493243578 -41.3004837952 -40.5811332658 -36.1027802259 -31.1355789027 -25.8879950762 -21.5219138635 -16.3887020592 -6.67572887036 -0.215336163046
2605000000.0 -74.0025408739 -71.0715640316 -51.7225989878 -47.0690063686 -46.5649761552 -45.5594835679 -44.5871645213 -43.5654853218 -40.7795351371 -40.0640454658 -35.7138092717 -30.7783460654 -25.5530814611 -21.6788244569 -16.5594616226 -6.90224476563 -0.417181261286
3000000000.0 -74.3926500454 -71.2919277313 -51.8893775667 -47.4655631501 -46.7513036589 -45.7081606612 -44.8160489262 -43.7209876263 -40.1663113644 -39.3895898495 -35.2255860058 -30.2715884394 -25.0449876126 -21.6992647909 -16.5276912835 -6.7911880143 -0.259376156977
3001000000.0 -72.4933030372 -69.7883280761 -50.5767573833 -45.8575805546 -45.1595345501 -44.1460018652 -43.133024041 -42.0979707152 -40.9832786184 -40.2381823493 -35.7232106851 -30.7804142147 -25.5782697105 -21.4967451396 -16.3766010253 -6.61114595993 -0.274184154516
3105000000.0 -72.5174990846 -69.7125493215 -50.4276946984 -45.7364919213 -45.0245313087 -43.986466051 -43.0107005533 -41.9486023423 -40.8932965493 -40.1832008819 -35.6794301899 -30.7500963137 -25.5311539907 -21.5884247924 -16.4550691668 -6.72637701207 -0.139476929333
3605000000.0 -72.7745298127 -69.5287632444 -50.2893511245 -45.6045189161 -44.7616423045 -43.7499584177 -42.8638563707 -41.843092635 -40.5425324919 -39.8203726193 -35.512728808 -30.6149360113 -25.3599958209 -21.7373648993 -16.5854982996 -6.79984864299 -0.144994073299
4105000000.0 -72.4928373864 -71.2124090824 -51.0908074073 -45.7284510461 -45.0471784329 -44.0029963409 -43.1712878968 -42.2147719909 -41.0009802792 -39.8179726857 -37.9941091324 -33.0359183231 -28.091102228 -21.6752148172 -16.5261116277 -6.70016976703 -0.0919860676079
4505000000.0 -72.3726548237 -71.2014287755 -51.3012572959 -46.1485317382 -45.2790553194 -44.220755216 -43.2649705404 -42.2080986037 -41.1787944885 -40.0618333383 -37.8352096767 -32.918166662 -27.969981962 -21.8289265259 -16.687044536 -6.90741111887 -0.205990462229
4605000000.0 -72.1310584837 -71.2150714297 -51.3464786411 -46.2730822589 -45.3558914009 -44.2922833015 -43.3107313414 -42.2733099008 -41.379241668 -40.1362894023 -37.7963492542 -32.8766258318 -27.962007647 -21.8748010643 -16.7308126763 -6.97164058732 -0.232713095682
4705000000.0 -72.106174948 -70.7944923045 -51.1653718974 -45.9295836407 -45.2028334508 -44.1750270359 -43.1866487983 -42.1352127871 -41.1376363409 -40.0026225151 -37.6299613057 -32.7192570328 -27.7849176946 -21.7829053599 -16.6837435741 -6.88521070977 -0.201629110034
4805000000.0 -71.997747739 -70.9672424992 -51.2010419396 -45.9412047368 -45.1845004773 -44.1496588554 -43.1541936002 -42.1318514865 -41.1047276928 -39.9758247722 -37.7216180426 -32.7137161089 -27.781197883 -21.8691675312 -16.7357815974 -6.93357052039 -0.270732120672
4905000000.0 -71.9548687532 -70.8127222551 -51.119115193 -45.8250757227 -45.1082798432 -44.0799609621 -43.0934692059 -42.0532019031 -41.0348387472 -39.9173296358 -37.5982110833 -32.6735486416 -27.7533561286 -21.9021961246 -16.9036370335 -6.99518439035 -0.278958704755
5005000000.0 -72.5497184314 -71.2479277981 -51.5047701354 -46.3311583673 -45.4931551918 -44.4368231889 -43.4347772474 -42.3990174122 -41.3633833889 -40.2437606592 -38.1373775125 -33.018618082 -28.0456756852 -22.2471084617 -17.1075202403 -7.32898950804 -0.600147280314
5105000000.0 -72.1767233215 -70.8661366962 -51.1193872043 -46.0012659082 -45.1530537253 -44.0850844694 -43.0892700433 -42.0902496361 -41.0516788875 -39.9435747372 -37.7897176377 -32.6600892214 -27.7511212497 -21.9277186905 -16.7764505379 -7.00073980353 -0.289533766708
5205000000.0 -72.2825508912 -71.1243519349 -51.3092621439 -45.9807276844 -45.2796425977 -44.2413067624 -43.2669418207 -42.2263452511 -41.191391509 -40.0551950662 -37.5400930255 -32.6200002911 -27.6534090961 -21.9479501552 -16.7820591107 -6.97460317794 -0.243895538349
5605000000.0 -71.8347263726 -71.0931709677 -51.6941121949 -46.4224813153 -45.6948369344 -44.7014842629 -43.7295591072 -42.6815356966 -41.6510377067 -40.5122260866 -37.4681557791 -32.5047286561 -27.5368212689 -22.0058076597 -16.8227763167 -7.01311170396 -0.262749205642
5999000000.0 -71.6248523805 -70.4696942186 -51.3961030104 -46.2545367865 -45.5317677778 -44.5047979034 -43.4982508508 -42.433644883 -41.4132606043 -40.3259367611 -37.216497833 -32.3099559088 -27.3431419849 -22.055627962 -16.9162736058 -7.09870481434 -0.303347560382
