@ref 36 1 76.0
99000000.0 130.380807036
299000000.0 131.610749729
499000000.0 132.243275289
699000000.0 132.780038892
899000000.0 132.834718393
1099000000.0 131.624773806
1299000000.0 131.308484977
1499000000.0 130.149946293
1699000000.0 129.495058405
1899000000.0 128.516588709
2099000000.0 128.501615318
2299000000.0 128.685185936
2499000000.0 128.065953977
2699000000.0 127.268473648
2899000000.0 126.221324854
3000000000.0 125.902599516
3001000000.0 139.658606684
3201000000.0 138.918335218
3401000000.0 138.510868805
3601000000.0 138.897582166
3801000000.0 138.911387458
4001000000.0 138.663692792
4201000000.0 138.410292012
4401000000.0 138.304322987
4501000000.0 138.21176228
4601000000.0 138.067118986
4701000000.0 137.607275292
4801000000.0 137.200815233
4901000000.0 136.905227496
5001000000.0 137.378284707
5101000000.0 137.391200938
5201000000.0 137.25352096
5401000000.0 137.522842062
5601000000.0 136.816791638
5801000000.0 135.514141975
5999000000.0 134.15922564
@gain 25 17 0.0 5.0 25.0 30.0 31.0 32.0 33.0 34.0 35.0 36.0 40.0 45.0 50.0 55.0 60.0 70.0 76.0
99000000.0 -70.9618821932 -68.2483292205 -48.9695258785 -43.7890308427 -42.7236660735 -41.7377945298 -40.7084872631 -37.4273201254 -36.2736905071 -35.8222649552 -31.9265669767 -26.9186855092 -22.0123769338 -19.2938181616 -14.5802386241 -4.98303593303 -0.0937769617788
105000000.0 -70.993455308 -68.7291474451 -49.0626822799 -43.8459152119 -42.775072406 -41.7848314365 -40.7593508265 -37.3651799411 -36.2128390036 -35.8054425537 -31.9074800193 -26.8966268854 -21.9922212889 -19.3522443241 -14.1750472201 -4.92858091367 -0.00871483230739
205000000.0 -71.727794155 -69.3163972074 -49.7674032268 -44.4659515215 -43.4016708411 -42.4130650088 -41.3851430463 -38.0786828802 -36.9315389322 -36.9385554413 -33.056987859 -28.0406330658 -23.1371273628 -20.0242988811 -14.8247795302 -5.42433222961 0.224904017356
305000000.0 -72.2869200548 -69.0403056577 -50.1896242256 -44.8408239861 -43.7731964307 -42.7927018786 -41.7675277735 -39.4125080627 -38.2527264867 -38.1856103711 -34.2554819353 -29.2576577797 -24.3591896847 -20.5685045567 -15.3715389995 -5.84295866707 0.053543408724
405000000.0 -72.1324840413 -69.1974942046 -50.3461067535 -44.9480080863 -43.8871338948 -42.9063867861 -41.8787534379 -40.6846520716 -39.5294214809 -39.1175829321 -35.1976595397 -30.2109042703 -25.2430477912 -20.8925473819 -15.6968047854 -6.15613420646 -0.0987158645714
605000000.0 -72.2694158211 -69.6325621376 -50.1858729274 -44.8480226 -43.8426138598 -42.8949460535 -41.8950746823 -42.026873628 -40.8530483516 -39.7049940823 -35.8133163791 -30.8359652376 -25.73372261 -20.9678933442 -15.7942615446 -6.20990124115 0.0123037749681
1105000000.0 -73.3442338386 -70.6402813519 -51.008239589 -45.751254599 -44.6915740615 -43.6706577989 -42.6471503458 -42.9958832378 -41.8460684914 -39.943896641 -36.0451788104 -31.0593983408 -26.1509839357 -21.4429810751 -16.285453239 -6.66530921453 -0.34546959
1605000000.0 -72.7451917435 -69.9469327026 -50.5276466718 -45.9300965767 -45.2444544369 -44.2018724567 -43.2243014812 -42.2100841091 -41.435948549 -40.7302473577 -36.2646805079 -31.3192492325 -26.0626254253 -21.1824758173 -16.0229776156 -6.35953207151 0.044681458226
2105000000.0 -72.6258837314 -69.8715660438 -50.5560773428 -46.0244074716 -45.3068447743 -44.2607654208 -43.1955836476 -42.2506191461 -41.2468583423 -40.5458260739 -36.0538748807 -31.0825810772 -25.83346961 -21.4431829896 -16.2978518151 -6.61557349721 -0.148324464699
2605000000.0 -74.1195222061 -71.2776197306 -51.9716684714 -47.3493111912 -46.6013507657 -45.5482977326 -44.5642673895 -43.5457815426 -40.7119947364 -40.006984115 -35.6192559697 -30.6150284621 -25.4491116997 -21.5542476307 -16.4062807599 -6.73192960841 -0.134985611084
3000000000.0 -73.7722137236 -71.0859007472 -51.7276932327 -47.2526932173 -46.5276154549 -45.473276221 -44.5171521396 -43.5385593862 -40.0312938854 -39.2966642614 -35.1337335633 -30.1910217213 -24.8672208721 -21.5834913778 -16.4081309794 -6.70557586506 -0.156171896181
3001000000.0 -72.4064362036 -69.6722666269 -50.5190130155 -46.0160866444 -45.2311523557 -44.1824558989 -43.0191184779 -42.1231019704 -41.0023871162 -40.2743098634 -35.7714288141 -30.8230227627 -25.6417494118 -21.5685762631 -16.3840436424 -6.70751033939 -0.179116940008
3105000000.0 -72.470054841 -69.6257412432 -50.4010952815 -45.9550378518 -45.3650347733 -44.2521165502 -43.1207883621 -42.0703424536 -40.936442056 -40.2241497572 -35.7255571416 -30.8045946242 -25.5723747443 -21.605840904 -16.447172997 -6.79576252971 -0.123257955483
3605000000.0 -72.1187581987 -69.3363589728 -50.2355216426 -45.7953933286 -44.9758936624 -43.9285144275 -42.9480170234 -41.9092263788 -40.4022500727 -39.7330797599 -35.4131957144 -30.5159152693 -25.2631511802 -21.6163894775 -16.4555948866 -6.75703848965 -0.0388748477319
4105000000.0 -72.0578712661 -71.0312273237 -50.9676388148 -45.7692132976 -45.0491737627 -43.9900886347 -43.0054406683 -41.921609902 -40.9236928416 -39.7973504717 -37.9003242027 -32.8215235597 -27.9510686363 -21.5440383974 -16.3876284688 -6.66450007808 0.0257589272269
4505000000.0 -71.9058747135 -70.9635055505 -51.1301707246 -46.0219233933 -45.2233684977 -44.164093211 -43.203601506 -42.1588506294 -41.1176440762 -39.9961370718 -37.707947023 -32.7969954175 -27.8268769471 -21.6768244586 -16.5210909644 -6.83712438561 -0.134085152939
4605000000.0 -72.8592663779 -70.8194009331 -51.07799477 -46.0139253938 -45.2154457725 -44.1500160578 -43.1725202935 -42.124756231 -41.114673644 -39.8135411253 -37.5875904373 -32.7036570238 -27.774356511 -21.6826377418 -16.5246141567 -6.84941144063 -0.108982402782
4705000000.0 -72.6567952592 -71.1815224487 -51.0950954284 -45.9124506424 -45.1128698513 -44.0616007231 -43.0720538327 -42.0248467387 -41.0130365005 -39.8917142821 -37.7360244167 -32.6187197005 -27.6649299937 -21.6343206359 -16.5229792015 -6.81650177208 -0.0879522283668
4805000000.0 -72.5864378955 -70.9256074084 -51.0285111042 -45.8891066994 -45.1003047821 -44.0425929169 -43.0461792447 -42.0354557866 -40.997276805 -39.865284009 -37.5216222587 -32.6112334555 -27.6726931556 -21.7543396203 -16.564696128 -6.89140690762 -0.143967503995
4905000000.0 -71.4055314021 -70.6694415323 -50.90415203 -45.791641958 -44.9993468862 -43.9465151079 -42.9535339485 -41.9277377907 -40.901322969 -39.7722689964 -37.4769054373 -32.5536905008 -27.5934889095 -21.7419229033 -16.6111804944 -6.90772685629 -0.161679583507
5005000000.0 -71.63736749 -70.7190534813 -51.0302658823 -45.9130373375 -45.1403209203 -44.0838920145 -43.0836744019 -42.0527201334 -41.0133279899 -39.8665603528 -37.5568602627 -32.6487519692 -27.6789020397 -21.870743253 -16.7250994506 -7.03419173118 -0.229249233954
5105000000.0 -71.5975073519 -70.6213093934 -50.9198103104 -45.851554431 -45.0683790236 -44.003950087 -43.0118255881 -42.0238364683 -40.973662355 -39.8463641375 -37.444793696 -32.5410394212 -27.5818664705 -21.7869951675 -16.6374884713 -6.93846642621 -0.135716594789
5205000000.0 -71.7673534828 -70.7183017068 -51.0748416332 -46.002051913 -45.2298454379 -44.165755317 -43.1873032328 -42.1549335206 -41.1171389747 -39.9703541265 -37.4250369987 -32.507438881 -27.5263039166 -21.7884954196 -16.611087967 -6.91059278986 -0.0842796863464
5605000000.0 -71.8119686218 -71.074957107 -52.0033580008 -46.5973918813 -45.9486823214 -44.8531210722 -43.7270563944 -42.6686166269 -41.6211741701 -40.4849955587 -37.3570169447 -32.407892589 -27.4458306334 -21.8586948373 -16.6769917542 -6.94910740265 -0.127984933622
5999000000.0 -71.6038705725 -70.6484870876 -51.2397530127 -46.2395139092 -45.5297002543 -44.4534135473 -43.4018946056 -42.3353239248 -41.3038609396 -40.2137393965 -37.0637262649 -32.1639191767 -27.0984365472 -21.8593954188 -16.7040839454 -6.99995849919 -0.128009257415
