@ref 36 1 76.0
99000000.0 130.122281709
299000000.0 131.329561342
499000000.0 131.773518802
699000000.0 132.47755389
899000000.0 132.587327824
1099000000.0 131.394043854
1299000000.0 131.140182201
1499000000.0 130.380249471
1699000000.0 129.405769339
1899000000.0 128.321375647
2099000000.0 128.28836618
2299000000.0 128.606822088
2499000000.0 127.977418098
2699000000.0 127.16286049
2899000000.0 126.065127275
3000000000.0 125.756250828
3001000000.0 138.996762189
3201000000.0 138.210481909
3401000000.0 137.934977512
3601000000.0 138.375006522
3801000000.0 138.375016793
4001000000.0 138.127661356
4201000000.0 138.02260731
4401000000.0 137.952833318
4501000000.0 137.851802771
4601000000.0 137.906509331
4701000000.0 137.523201234
4801000000.0 137.160609823
4901000000.0 136.899060543
5001000000.0 137.431884892
5101000000.0 137.296371612
5201000000.0 137.171837963
5401000000.0 137.494334992
5601000000.0 136.815280898
5801000000.0 135.567450598
5999000000.0 134.126727458
@gain 25 17 0.0 5.0 25.0 30.0 31.0 32.0 33.0 34.0 35.0 36.0 40.0 45.0 50.0 55.0 60.0 70.0 76.0
99000000.0 -70.9209983627 -68.5337190334 -48.9412869127 -43.6595895935 -42.5943903858 -41.6008747705 -40.5622240298 -37.419240725 -36.283739407 -35.8422044082 -31.9461215198 -26.9408670538 -22.0301054733 -19.3533366335 -14.0896262455 -4.9099143603 -0.121959259512
105000000.0 -71.1545534114 -68.6296696263 -48.9802831641 -43.7018881763 -42.6437877462 -41.6547322576 -40.6125333335 -37.3533785092 -36.2235592327 -35.8224535346 -31.9308371902 -26.9219663026 -22.0150958799 -19.4212835481 -14.1554661917 -4.92859478788 -0.0871284655306
205000000.0 -71.8957001954 -69.116124042 -49.6714605207 -44.3323216452 -43.269026389 -42.2852255618 -41.2370220822 -38.0493081305 -36.9141852542 -36.9435799068 -33.0656902328 -28.0557993425 -23.1445172525 -20.0238612095 -14.8363479898 -5.45132215575 0.201868040225
305000000.0 -72.2522842936 -69.893023947 -50.0881726695 -44.7095363842 -43.6487603817 -42.6658520812 -41.6174819269 -39.3600849188 -38.2161522745 -38.1759408077 -34.2547727735 -29.2555198474 -24.3519329827 -20.5535736061 -15.3657786438 -5.86402844882 0.0191108720706
405000000.0 -72.3248686535 -68.9445591777 -50.2489311353 -44.7527129895 -43.6806019604 -42.6914934111 -41.6498767615 -40.5603745119 -39.5297515036 -39.0307710631 -35.1005280861 -30.1047518383 -25.1897029709 -20.7880094126 -15.6041425393 -6.07400768117 -0.0358679673701
605000000.0 -72.3451359795 -69.5251021612 -49.9954047829 -44.7316913529 -43.6567274374 -42.6743552932 -41.6369981305 -41.8523690402 -40.7080505158 -39.6197316883 -35.6991220876 -30.7164318282 -25.7910881074 -20.8479599681 -15.6811711675 -6.1067822433 0.10756387412
1105000000.0 -73.383022377 -70.5737209148 -50.968639649 -45.6712708692 -44.6022591217 -43.5739012214 -42.5366065139 -42.9779138746 -41.8382788496 -39.9754223122 -36.081507643 -31.0922424954 -26.1916851248 -21.4803877367 -16.3312740529 -6.73092599516 -0.387512033276
1605000000.0 -73.0306885603 -70.1521207895 -50.7535672683 -46.169303112 -45.4113715948 -44.3610082268 -43.3762240778 -42.3486423612 -41.6036158312 -40.9017954944 -36.5154297835 -31.5562647352 -26.2858133808 -21.3767584211 -16.3826187396 -6.59322704014 -0.176062748149
2105000000.0 -72.6975344333 -69.8479832015 -50.5553276845 -45.9869509702 -45.4105052028 -44.3710462355 -43.2530089978 -42.2803794273 -41.2814700033 -40.5637911107 -36.1401602824 -31.1687256282 -25.9108558707 -21.4988960263 -16.3712308196 -6.71865517532 -0.214396315148
2605000000.0 -74.0640553598 -71.0675390448 -51.5738933167 -47.5113402798 -46.6641767331 -45.5928202114 -44.6094108328 -43.5739450433 -40.7995331209 -40.0961244852 -35.7734054754 -30.8270650349 -25.5933958561 -21.6645657958 -16.5198572185 -6.83424773503 -0.276622708624
3000000000.0 -73.897819599 -71.074743848 -51.7287492226 -47.2044763178 -46.4587257064 -45.4044922395 -44.4426187038 -43.5056003671 -40.0809173984 -39.5344674596 -34.7968249494 -30.1928686777 -25.0196458266 -21.657485082 -16.4744510278 -6.79584802126 -0.213310015337
3001000000.0 -72.0224024557 -69.3306626538 -50.2808405688 -45.7611035874 -45.0750612778 -44.0244492408 -42.949293444 -41.8837618022 -41.0107029261 -40.2749605573 -35.7678814996 -30.8162337612 -25.6156572836 -21.4643386734 -16.3236686255 -6.6708917701 -0.198081380302
3105000000.0 -72.1609550058 -69.3074242049 -50.1738834096 -45.6440008197 -44.8556788944 -43.7940873043 -42.7605139924 -41.7479040818 -40.9338919788 -40.2286794182 -35.7212345602 -30.8033002039 -25.5640818056 -21.543894353 -16.4002144952 -6.74932590603 -0.165980455349
3605000000.0 -72.4460854925 -69.2948273521 -50.1394797929 -45.6328559647 -44.8342166855 -43.7982671002 -42.8113923192 -41.7557854354 -40.5356571122 -39.8231966805 -35.4783849128 -30.5816596454 -25.3200979094 -21.6171589566 -16.4606388318 -6.7596171343 -0.222448261175
4105000000.0 -72.3847370778 -70.8562696512 -50.763177765 -45.5402024553 -44.8102668927 -43.7541673732 -42.7719957869 -41.7217387897 -40.7138483277 -39.552683955 -37.8908583694 -32.9399805436 -27.99360638 -21.5307793591 -16.3786155663 -6.67230494496 -0.167891764528
4505000000.0 -71.5851567862 -70.5922338327 -50.7960113728 -45.6384494379 -44.8645321771 -43.8148207318 -42.850846529 -41.7891300239 -40.8006770572 -39.6910753977 -37.7254862268 -32.8053036254 -27.9739475656 -21.6808388567 -16.5321840182 -6.83622557262 -0.25138493612
4605000000.0 -71.9485066301 -70.7166558563 -50.8675437537 -45.7080647859 -44.9266571571 -43.8701761805 -42.888704797 -41.8215733049 -40.853838176 -39.8276921538 -37.7105308191 -32.7742501017 -27.8599063139 -21.7152423097 -16.5713657904 -6.89444177654 -0.266717971663
4705000000.0 -71.8282956868 -70.6077146543 -50.7992513476 -45.7924968806 -44.873113321 -43.8091155534 -42.8162730907 -41.757294559 -40.77361994 -39.6250407961 -37.5781071926 -32.678189434 -27.7392658143 -21.6722574913 -16.570198995 -6.85204218491 -0.252823587684
4805000000.0 -71.7150188125 -70.5243282631 -50.7665093611 -45.6249433124 -44.8582652355 -43.8116519167 -42.8126263896 -41.7783659102 -40.7762985812 -39.625231394 -37.5972922911 -32.6872457563 -27.7628746055 -21.8000172907 -16.683067835 -6.94177905076 -0.328037014775
4905000000.0 -71.6078023521 -70.3088694754 -50.6922657287 -45.5775802888 -44.8058871159 -43.7670923838 -42.7722986484 -41.7276325783 -40.7310277697 -39.5842296967 -37.5935991457 -32.672652508 -27.7526872429 -21.8293213991 -16.706965202 -6.99251605368 -0.356588241222
5005000000.0 -71.9388652468 -70.6675761386 -50.9498245236 -45.7984192517 -45.0448101652 -43.9974177313 -42.9945458811 -41.9481336233 -40.9423096168 -39.779999006 -37.8505651237 -32.8770729491 -27.9189549834 -22.0478170002 -16.9364795002 -7.21150919331 -0.528566122484
5105000000.0 -71.6816589576 -70.447078516 -50.7364067243 -45.6889326746 -44.86937502 -43.8067551502 -42.8084845197 -41.8030281991 -40.7911856525 -39.6403932031 -37.6524597281 -32.6526854228 -27.6921049058 -21.8393154761 -16.714019959 -6.98807189562 -0.308105603942
5205000000.0 -71.7879558944 -70.4935267412 -50.8781283616 -45.7675964206 -45.0184888063 -43.9646738896 -42.9789321553 -41.9341330992 -40.9289956937 -39.7666970793 -37.5055328673 -32.5877404079 -27.6201568413 -21.8180711661 -16.7316020226 -6.93376458825 -0.258417574672
5605000000.0 -72.1541772225 -70.867124085 -51.6945795565 -46.5361478305 -45.8184610128 -44.8336509561 -43.8572595892 -42.7454643657 -41.7069473758 -40.5247530813 -37.5116578013 -32.5519202863 -27.5819978099 -21.9368042065 -16.7564866485 -7.00921335301 -0.315368866412
5999000000.0 -71.9732772837 -70.9165372727 -51.3396296254 -46.2776942224 -45.507603284 -44.4608628322 -43.4474254903 -42.3750265435 -41.381373878 -40.2787223669 -37.2003961507 -32.3063246042 -27.3366397706 -21.954192378 -16.8199472796 -7.08102560301 -0.340060867156
