@ref 36 1 76.0
99000000.0 130.107543957
299000000.0 131.267069175
499000000.0 131.782193438
699000000.0 132.542945437
899000000.0 132.636389122
1099000000.0 131.373879115
1299000000.0 131.127640942
1499000000.0 130.109708239
1699000000.0 129.427831845
1899000000.0 128.475033883
2099000000.0 128.542965005
2299000000.0 128.707540664
2499000000.0 128.10894457
2699000000.0 127.678087968
2899000000.0 126.550948405
3000000000.0 126.055862179
3001000000.0 139.517484847
3201000000.0 138.536300827
3401000000.0 138.273381711
3601000000.0 138.680783417
3801000000.0 138.712002362
4001000000.0 138.550696814
4201000000.0 138.526230298
4401000000.0 138.451675777
4501000000.0 138.358571903
4601000000.0 138.348494368
4701000000.0 137.902911585
4801000000.0 137.492803067
4901000000.0 137.180177789
5001000000.0 137.584548219
5101000000.0 137.536665815
5201000000.0 137.427063654
5401000000.0 137.668681531
5601000000.0 137.128561598
5801000000.0 136.055091924
5999000000.0 134.633913186
@gain 25 17 0.0 5.0 25.0 30.0 31.0 32.0 33.0 34.0 35.0 36.0 40.0 45.0 50.0 55.0 60.0 70.0 76.0
99000000.0 -70.7782201322 -67.9603325597 -48.6055487918 -43.5194069969 -42.4975256996 -41.5139108197 -40.4787224377 -37.2256179499 -36.0756900924 -35.6766480813 -31.7919793839 -26.7731422357 -21.8362714725 -19.1450795598 -13.9716074219 -4.85277569422 -0.185909884953
105000000.0 -70.9952554261 -67.7391408435 -48.8183770601 -43.5982017688 -42.5596656688 -41.5668474211 -40.5303101383 -37.1666750056 -36.0182218783 -35.6644090371 -31.7818059609 -26.8233216816 -21.8313798587 -19.212222938 -14.0422888227 -4.86824387639 -0.0762680859805
205000000.0 -71.6366282561 -69.0801461945 -49.4195886455 -44.1657262069 -43.1384504065 -42.1509616016 -41.1174597005 -37.8154760345 -36.6647624133 -36.7426829836 -32.8681724921 -27.8591458624 -22.9189088946 -19.8863502261 -14.7064209112 -5.36363875704 0.165102327087
305000000.0 -72.0534448052 -68.6863907252 -49.8570490687 -44.5215615851 -43.4866579255 -42.5021707398 -41.4697640248 -39.0788905108 -37.9403808571 -37.9397772068 -34.0196927264 -29.023566485 -24.0838634072 -20.3715234515 -15.1893550082 -5.73349398695 -0.0027911010049
405000000.0 -72.2226731508 -69.3027323158 -49.878601971 -44.5881964414 -43.5594281394 -42.5734864633 -41.5385628733 -40.2795861014 -39.1428855601 -38.8038986574 -34.8869650166 -29.898208456 -24.9485083564 -20.6183512363 -15.4314045815 -5.94953193552 -0.0713462262633
605000000.0 -72.2988532798 -69.4181907193 -49.9275561039 -44.7501454417 -43.607316902 -42.618473608 -41.5849028349 -41.664404252 -40.5234791368 -39.3727349202 -35.5173999099 -30.5428492674 -25.5835528139 -20.6909317027 -15.5347964931 -6.0050111222 0.0644799598159
1105000000.0 -73.1930691666 -70.4079565019 -50.7837517204 -45.5326539911 -44.4790125431 -43.4594326938 -42.4365679366 -42.7607608857 -41.6245176264 -39.7717441094 -35.8807951422 -30.90825513 -25.9492482442 -21.303253099 -16.153081386 -6.57428205906 -0.410757585778
1605000000.0 -72.5946983769 -69.7739850553 -50.3522881918 -45.8071255466 -45.0853574629 -44.0484744116 -43.0661261488 -42.0455147215 -41.2719327309 -40.5687935411 -36.1962153249 -31.2163496298 -25.936836826 -21.0685042201 -15.9374029008 -6.30290343193 -0.0770626766066
2105000000.0 -72.5800940517 -69.7814479666 -50.4421297941 -45.9223070427 -45.2015336454 -44.1634761687 -43.1919897261 -42.1784775843 -41.0705015686 -40.3570472947 -35.9494413183 -30.9726951943 -25.7021545468 -21.2683390688 -16.1366072199 -6.55140925973 -0.157488500211
2605000000.0 -73.8925818388 -71.0995408136 -51.7652994834 -47.3126987486 -46.5571003462 -45.5179100568 -44.5270966931 -43.505146204 -40.6910040339 -39.9826798711 -35.6885590024 -30.7147251945 -25.4797294784 -21.525621146 -16.4014055473 -6.81531696532 -0.418638145991
3000000000.0 -74.0682130357 -71.2324466141 -51.8393535405 -47.3498346538 -46.6352641253 -45.58075401 -44.6229483378 -43.5865158496 -39.8980152484 -39.1574435018 -35.0865595725 -30.1226526005 -24.8858789031 -21.4467213379 -16.2653682897 -6.66531242699 -0.206500509139
3001000000.0 -72.421404665 -69.2627780082 -50.1766799657 -45.9140575727 -45.2342364512 -44.2322459134 -43.224940129 -42.2018039601 -41.1462498846 -40.4170636327 -35.9148742275 -30.965971412 -25.7491823997 -21.5723644653 -16.3934809971 -6.73795609792 -0.303089686911
3105000000.0 -72.0559095405 -69.060293533 -50.005905855 -45.7376656727 -44.8125062252 -44.3111369543 -43.3375218466 -42.5293112728 -40.851700998 -40.2568688401 -35.808274638 -30.8763188754 -25.6457491525 -21.5419273036 -16.4041902944 -6.74715359508 -0.241002872279
3605000000.0 -71.920387677 -68.9425472237 -49.9199678799 -45.6705747346 -44.9773241722 -43.9581265908 -42.9209208062 -41.9201228493 -40.5540633204 -39.8411790757 -35.5245137408 -30.6124398326 -25.3507768403 -21.5797389098 -16.4184112444 -6.70795658556 -0.175916291395
4105000000.0 -71.8460535848 -70.5993653101 -50.6629652158 -45.6990387734 -45.0614528491 -44.0278534094 -43.0158756763 -41.8910882602 -40.9459635661 -39.7915771322 -37.9965302126 -33.0682922586 -28.1077648339 -21.5518826615 -16.4012519655 -6.65942789764 -0.255463103715
4505000000.0 -71.8070715384 -70.6045016144 -50.8333050459 -45.9056902959 -45.2299408437 -44.1943776051 -43.2325072308 -42.1805869138 -41.1791737522 -40.0110581623 -37.8737251206 -32.9673538106 -28.0055121087 -21.7261262078 -16.5821805807 -6.83057490864 -0.255777512904
4605000000.0 -71.8974484028 -70.6780460302 -50.887993326 -45.9343196785 -45.2715473511 -44.2424086505 -43.2576440876 -42.2095824582 -41.2168286391 -40.055316285 -37.8049380749 -32.9070156227 -27.9812418583 -21.7429132125 -16.6012793057 -6.87039397627 -0.209213123457
4705000000.0 -71.8414543819 -70.5825131097 -50.8334812411 -45.8767178928 -45.2012165258 -44.18286289 -43.1884318963 -42.136513491 -41.1288261409 -39.9867829332 -37.7029312039 -32.7969269133 -27.8500254895 -21.6952649065 -16.5809150187 -6.84456568791 -0.217562955371
4805000000.0 -71.7515210248 -70.5398304587 -50.8178879719 -45.7456133756 -45.179239823 -44.1807214549 -43.1811059401 -42.163109358 -41.1295894856 -39.9893219272 -37.691908085 -32.7955751582 -27.8676555 -21.8033387668 -16.6738943254 -6.92766916703 -0.280315102216
4905000000.0 -71.7287416621 -70.3572182929 -50.7121709845 -45.9781020004 -45.1696353073 -44.119156351 -43.1226000798 -42.0846966629 -41.0639995712 -39.9212458404 -37.6843394375 -32.7702110047 -27.8336333559 -21.8285807886 -16.7249065818 -6.97164145239 -0.269536158484
5005000000.0 -71.8770251883 -70.5757453961 -50.8963189966 -45.773481539 -45.2425843772 -44.2459532555 -43.2466318822 -42.2125631822 -41.1790839252 -40.0207087572 -37.7573434526 -32.8672935039 -27.9090429384 -21.9643846258 -16.8317982914 -7.10136316263 -0.381579356771
5105000000.0 -71.6931081859 -70.4071297648 -50.7591374252 -45.634101215 -45.1298933877 -44.1350441514 -43.1455531512 -42.151612052 -41.1090295685 -39.9643654158 -37.6356802913 -32.7432664792 -27.793740011 -21.8725494666 -16.7318222985 -7.00476395948 -0.294279401458
5205000000.0 -71.9650424975 -70.7949962366 -50.9340695552 -45.7403167834 -45.2469790527 -44.2584885952 -43.2805706692 -42.2457353245 -41.2139680527 -40.0555762624 -37.5998262947 -32.6877736151 -27.7148172829 -21.8449147285 -16.6807617423 -6.93142221275 -0.207187786647
5605000000.0 -71.6530318208 -70.8143625815 -51.5156430701 -46.6014671522 -45.8899418095 -44.9005459365 -43.9148459992 -42.6721245927 -41.7937137482 -40.683332524 -37.5724759051 -32.6239112572 -27.6393759389 -21.9395438666 -16.7449048333 -7.00842622464 -0.250578092081
5999000000.0 -71.6042503549 -70.5046611478 -51.2316554372 -46.4356433052 -45.7622126664 -44.7467962829 -43.7244037543 -42.6566965086 -41.6420630555 -40.5341042544 -37.2926652223 -32.4058025758 -27.4330315025 -21.9817333548 -16.8614570904 -7.09854997902 -0.300863446279
