@ref 36 1 76.0
99000000.0 128.715286735
299000000.0 129.936906982
499000000.0 130.568695235
699000000.0 131.195422687
899000000.0 131.323480946
1099000000.0 130.153613692
1299000000.0 129.444166058
1499000000.0 128.979557201
1699000000.0 128.375672793
1899000000.0 127.146980668
2099000000.0 126.951477889
2299000000.0 127.337840191
2499000000.0 126.658195806
2699000000.0 125.71879075
2899000000.0 124.964904548
3000000000.0 124.577121547
3001000000.0 138.465373852
3201000000.0 137.91210978
3401000000.0 137.71210191
3601000000.0 138.030491088
3801000000.0 138.000625861
4001000000.0 137.696835088
4201000000.0 137.405101984
4401000000.0 137.132419049
4501000000.0 136.901242906
4601000000.0 136.804589433
4701000000.0 136.23301383
4801000000.0 135.760628616
4901000000.0 135.198479674
5001000000.0 135.508983959
5101000000.0 135.516213838
5201000000.0 135.305949827
5401000000.0 136.036910786
5601000000.0 134.972150839
5801000000.0 132.795358894
5999000000.0 130.534160735
@gain 22 17 0.0 5.0 25.0 30.0 31.0 32.0 33.0 34.0 35.0 36.0 40.0 45.0 50.0 55.0 60.0 70.0 76.0
99000000.0 -69.3603625448 -66.1685434302 -47.2615352793 -42.4944540093 -41.4116204769 -40.4345571602 -39.4073151965 -36.4552707537 -35.2912757047 -34.8958628895 -31.0010222814 -25.9863773175 -21.0760220887 -18.5663887864 -13.3730964703 -4.40988667135 0.0408517786155
105000000.0 -69.6682103845 -66.7597942365 -47.6225640115 -42.5672631544 -41.4694381923 -40.485105182 -39.4518632384 -36.3859553417 -35.2193814944 -34.8702284428 -30.9736864601 -25.9647109101 -21.066245118 -18.6058353248 -13.4234669712 -4.41088247544 0.123945986326
205000000.0 -70.380619397 -67.4588945546 -48.3859647917 -43.2213719784 -42.1229064781 -41.1434696735 -40.1073119946 -37.0718026428 -35.9064902968 -35.9984462836 -32.1098347691 -27.0978476141 -22.1883468723 -19.3141396098 -14.128505792 -5.00003924227 0.313612650192
305000000.0 -70.8992980757 -67.9514089246 -48.8249740115 -43.6564658091 -42.5699569898 -41.5836325219 -40.5612654191 -38.4001580212 -37.2309297726 -37.27245769 -33.3415631241 -28.3395932894 -23.4400519756 -19.8676411082 -14.686761218 -5.38453935128 0.13444312072
405000000.0 -71.0601960842 -68.1045134082 -49.0555904553 -43.8695283824 -42.7813423241 -41.8053030024 -40.7739892825 -39.7015511415 -38.5327990817 -38.2526786243 -34.4734117836 -29.3716477001 -24.4239282619 -20.2490332387 -15.0640192632 -5.73345276672 -0.0471380530912
605000000.0 -71.1925175419 -68.2619381961 -49.0700831446 -43.9376082813 -42.8266280618 -41.858965152 -40.8327293741 -41.1048127961 -39.9323693314 -38.9455394678 -34.8882202633 -30.0043409279 -25.1065415211 -20.3661016107 -15.2047853357 -5.82445852722 0.0280372058133
1105000000.0 -72.1849356137 -69.3399760359 -50.0465053877 -44.9168721534 -43.8462654458 -42.7865368317 -41.8738392755 -42.4209258989 -41.2297374295 -39.4336743247 -35.5377413215 -30.551382688 -25.6398910218 -21.0907937149 -15.9460597255 -6.52287433271 -0.543138114456
1605000000.0 -71.6052696235 -68.7082917924 -49.5720883322 -45.0991473156 -44.3518453085 -43.3033435884 -42.331842073 -41.3220485495 -40.8499285217 -40.1312096376 -35.7506982523 -30.7868665915 -25.5376526263 -20.6815461817 -15.5604083064 -6.08351758458 -0.0330671511223
2105000000.0 -71.4807195446 -68.5964534492 -49.5590165831 -45.1074041559 -44.3434246923 -43.2984678857 -42.2953987408 -41.3175853688 -40.4339735391 -39.8037495315 -35.4504119253 -30.4849960158 -25.2349356386 -21.0045697596 -15.8393890759 -6.34780001492 -0.176085879724
2605000000.0 -72.5976477185 -69.691023699 -50.5083349287 -46.2090347673 -45.5798030156 -44.6277466689 -43.4951072625 -42.4495921053 -39.9742540293 -39.239710824 -35.0066655876 -30.0542019579 -24.8336725451 -21.0152520921 -15.9999188175 -6.4048303209 -0.14137761081
3000000000.0 -72.7072562484 -69.7807567022 -50.7097138609 -46.2858731354 -45.5023218292 -44.4482475218 -43.4877945462 -42.4614491797 -39.4010719152 -38.6635094213 -34.5900049369 -29.6473514824 -24.4157167294 -21.0301986695 -15.8618983941 -6.33922891766 -0.0138323299262
3001000000.0 -71.7576350971 -68.7740358058 -49.7112095242 -45.2079754077 -44.270212765 -43.8969629047 -42.8475722569 -41.9575374102 -40.4880544383 -39.9367339429 -35.5430194186 -30.5998831973 -25.3917362841 -21.2604116536 -16.1230980826 -6.50764187835 -0.191483974678
3105000000.0 -71.8952320123 -68.7186849519 -49.6173831166 -45.1724685475 -44.4400355417 -43.3814232328 -42.3884888422 -41.3733594596 -40.6029773166 -39.8980108939 -35.4641520178 -30.546667914 -25.3179345332 -21.3002379636 -16.1527818885 -6.55301322926 -0.122951371592
3605000000.0 -72.1753209962 -69.0801757843 -50.2445320589 -45.5294897591 -44.7528265854 -43.7029137257 -42.7272525786 -41.6898562543 -40.2150777426 -39.4923904687 -35.2267129411 -30.3311390039 -25.0750912394 -21.406629515 -16.2480380184 -6.56791009178 -0.104710590671
4105000000.0 -72.2888993414 -71.0671886253 -50.8861145601 -45.8118735619 -45.0426606839 -43.9778779642 -43.006321085 -41.9722737443 -40.9332122336 -39.7708756161 -37.7040920541 -32.7517088025 -27.8023376613 -21.3517637276 -16.1711881279 -6.19388973612 -0.0113484858497
4505000000.0 -72.2871390524 -70.8963074866 -50.9800517241 -45.8409411009 -45.2291247634 -44.2334093573 -43.1587573643 -42.0845614391 -41.0590547927 -39.9096762092 -37.4869558957 -32.568967561 -27.6389356821 -21.4785203503 -16.4845530551 -6.66094222864 -0.133139678253
4605000000.0 -72.273836209 -70.9236432753 -51.4336981721 -45.9384200979 -45.1545741311 -44.0909889755 -43.124273409 -42.0797475138 -41.0694737603 -39.9195430976 -37.4584799462 -32.5349217078 -27.6212397684 -21.5465560552 -16.3838137432 -6.72621557034 -0.126681101403
4705000000.0 -72.0124582031 -70.6024946454 -50.7812230357 -45.6487031471 -44.9162758928 -43.8673602014 -42.9010271466 -41.8537386512 -40.8506512682 -39.7033976598 -37.3059503509 -32.3863759522 -27.446522356 -21.4648580556 -16.4437958218 -6.79915448788 -0.0759938697361
4905000000.0 -71.3841896776 -70.0361773085 -50.4020656713 -45.3142160116 -44.5854529169 -43.5488619838 -42.5733942741 -41.538774751 -40.5212817585 -39.4489422933 -37.3137319834 -32.3563513587 -27.4276359926 -21.6133638198 -16.4777800763 -6.76977235695 -0.170098761586
5105000000.0 -71.292020494 -69.9466657363 -50.1766914896 -45.0801421232 -44.3456519305 -43.2958367855 -42.30833669 -41.3253066647 -40.2869392224 -39.1430887859 -37.1966784338 -32.3398959896 -27.3254383085 -21.5856396058 -16.4329204944 -6.75242876915 -0.187833495431
5605000000.0 -71.9659273354 -70.5450352298 -51.2577327595 -46.3508163402 -45.4100065344 -44.3715606003 -43.3991936844 -42.3657002755 -41.3288064942 -40.198676193 -37.5788223195 -32.4034201044 -27.3248049054 -21.7379557258 -16.5717483132 -6.88036031384 -0.168331404245
5999000000.0 -70.9958039908 -69.8535543019 -50.5841107977 -45.5498368384 -44.8143169176 -43.770004222 -42.775777544 -41.7187551339 -40.6975895149 -39.5874655876 -36.8748462953 -31.9695897557 -26.9900053532 -21.7428735305 -16.7588122412 -6.98915253531 -0.151316841621
