@bands 8 2 0 1
0 1.0 450000000.0
1 450000001.0 600000000.0
2 600000001.0 800000000.0
3 800000001.0 1200000000.0
4 1200000001.0 1700000000.0
5 1700000001.0 2700000000.0
6 2700000001.0 3700000000.0
7 3700000001.0 6000000000.0
@b0 5 1 255.0
75000000.0 115.316
120000000.0 113.969
190000000.0 115.146
400000000.0 115.354
450000000.0 115.200
@b1 4 1 255.0
450000001.0 110.723
560000000.0 111.036
590000000.0 110.321
600000000.0 109.905
@b2 3 1 255.0
600000001.0 111.135
740000000.0 111.281
800000000.0 110.358
@b3 4 1 255.0
800000001.0 110.799
840000000.0 111.286
1060000000.0 111.272
1200000000.0 109.458
@b4 3 1 255.0
1200000001.0 111.804
1500000000.0 112.312
1700000000.0 110.752
@b5 6 1 255.0
1700000001.0 111.705
1760000000.0 111.893
1940000000.0 112.377
2340000000.0 111.449
2580000000.0 109.729
2700000000.0 107.761
@b6 8 1 255.0
2700000001.0 111.356
2900000000.0 110.930
3184000000.0 110.980
3300000000.0 111.115
3400000000.0 111.030
3600000000.0 110.492
3601000000.0 108.968
3700000000.0 109.691
@b7 10 1 255.0
3700000001.0 109.671
3840000000.0 110.541
3940000000.0 111.006
4400000000.0 110.758
4780000000.0 110.545
5080000000.0 110.744
5220000000.0 110.399
5400000000.0 109.770
5900000000.0 108.692
6000000000.0 108.875
@gain 5 3 195.0 234.0 255.0
500000000.0 -29.905 -10.296 0.000
3000000000.0 -30.414 -10.503 0.000
4999000000.0 -30.302 -10.214 0.000
5000000000.0 -30.112 -9.971 0.000
6000000000.0 -30.148 -10.404 0.000
